<?xml version="1.0" encoding="UTF-8"?>
<svg width="21px" height="21px" viewBox="0 0 21 21" version="1.1" xmlns="http://www.w3.org/2000/svg" xmlns:xlink="http://www.w3.org/1999/xlink">
    <!-- Generator: Sketch 45.2 (43514) - http://www.bohemiancoding.com/sketch -->
    <title>robot</title>
    <desc>Created with Sketch.</desc>
    <defs></defs>
    <g id="Page-1" stroke="none" stroke-width="1" fill="none" fill-rule="evenodd">
        <g id="Layout" transform="translate(-773.000000, -2392.000000)" fill-rule="nonzero" fill="#FF7452">
            <g id="robot" transform="translate(773.000000, 2392.000000)">
                <path d="M2.1,17.85 C0.940202025,17.85 0,16.9114052 0,15.7448744 L0,14.7051256 C0,13.5424968 0.932116122,12.6 2.1,12.6 L2.1,11.5447806 C2.1,8.64816823 4.45365748,6.3 7.34652012,6.3 L9.45,6.3 L9.45,3.91905739 C8.82230853,3.5559575 8.4,2.87729648 8.4,2.1 C8.4,0.940202025 9.34020202,0 10.5,0 C11.659798,0 12.6,0.940202025 12.6,2.1 C12.6,2.87729648 12.1776915,3.5559575 11.55,3.91905739 L11.55,6.3 L13.6534799,6.3 C16.551053,6.3 18.9,8.6455132 18.9,11.5447806 L18.9,12.6 C20.059798,12.6 21,13.5385948 21,14.7051256 L21,15.7448744 C21,16.9075032 20.0678839,17.85 18.9,17.85 L18.9,21 L2.1,21 L2.1,17.85 Z M6.3,16.8 C7.45979798,16.8 8.4,15.859798 8.4,14.7 C8.4,13.540202 7.45979798,12.6 6.3,12.6 C5.14020203,12.6 4.2,13.540202 4.2,14.7 C4.2,15.859798 5.14020203,16.8 6.3,16.8 Z M14.7,16.8 C15.859798,16.8 16.8,15.859798 16.8,14.7 C16.8,13.540202 15.859798,12.6 14.7,12.6 C13.540202,12.6 12.6,13.540202 12.6,14.7 C12.6,15.859798 13.540202,16.8 14.7,16.8 Z" id="Combined-Shape"></path>
            </g>
        </g>
    </g>
</svg>