<?xml version="1.0" encoding="UTF-8"?>
<svg width="14px" height="22px" viewBox="0 0 14 22" version="1.1" xmlns="http://www.w3.org/2000/svg" xmlns:xlink="http://www.w3.org/1999/xlink">
    <!-- Generator: Sketch 45.2 (43514) - http://www.bohemiancoding.com/sketch -->
    <title>smartphone</title>
    <desc>Created with Sketch.</desc>
    <defs></defs>
    <g id="Page-1" stroke="none" stroke-width="1" fill="none" fill-rule="evenodd">
        <g id="Layout" transform="translate(-776.000000, -2583.000000)" fill-rule="nonzero" fill="#235280">
            <g id="smartphone" transform="translate(776.000000, 2583.000000)">
                <path d="M0,1.991155 C0,0.89147046 0.89706013,0 2.00585866,0 L11.9941413,0 C13.1019465,0 14,0.88967395 14,1.991155 L14,20.008845 C14,21.1085295 13.1029399,22 11.9941413,22 L2.00585866,22 C0.89805351,22 0,21.1103261 0,20.008845 L0,1.991155 Z M7,20 C8.1045695,20 9,19.1045695 9,18 C9,16.8954305 8.1045695,16 7,16 C5.8954305,16 5,16.8954305 5,18 C5,19.1045695 5.8954305,20 7,20 Z M2,2 L2,14 L12,14 L12,2 L2,2 Z" id="Combined-Shape"></path>
            </g>
        </g>
    </g>
</svg>