<?xml version="1.0" encoding="UTF-8"?>
<svg width="19px" height="25px" viewBox="0 0 19 25" version="1.1" xmlns="http://www.w3.org/2000/svg" xmlns:xlink="http://www.w3.org/1999/xlink">
    <!-- Generator: Sketch 45.2 (43514) - http://www.bohemiancoding.com/sketch -->
    <title>Combined-Shape</title>
    <desc>Created with Sketch.</desc>
    <defs></defs>
    <g id="Page-1" stroke="none" stroke-width="1" fill="none" fill-rule="evenodd">
        <g id="Sketch-1--Copy" transform="translate(-152.000000, -2301.000000)" fill-rule="nonzero" fill="#FF7452">
            <path d="M155.5625,2303.08333 L155.5625,2307.90789 L167.4375,2307.90789 L167.4375,2303.08333 L171,2303.08333 L171,2326 L152,2326 L152,2303.08333 L155.5625,2303.08333 L155.5625,2303.08333 Z M159.433508,2317.30288 L156.730546,2314.57663 L155,2316.32209 L159.431412,2320.79167 L159.433508,2320.78955 L159.435605,2320.79167 L167,2313.16212 L165.269454,2311.41667 L159.433508,2317.30288 L159.433508,2317.30288 Z M158,2303.08333 C158,2301.93274 159.047971,2301 160.330899,2301 L162.669101,2301 C163.956421,2301 165,2301.92472 165,2303.08333 L165,2305.16667 L158,2305.16667 L158,2303.08333 Z" id="Combined-Shape"></path>
        </g>
    </g>
</svg>