<?xml version="1.0" encoding="UTF-8"?>
<svg width="99px" height="24px" viewBox="0 0 99 24" version="1.1" xmlns="http://www.w3.org/2000/svg" xmlns:xlink="http://www.w3.org/1999/xlink">
    <!-- Generator: Sketch 45.1 (43504) - http://www.bohemiancoding.com/sketch -->
    <title>ideo</title>
    <desc>Created with Sketch.</desc>
    <defs></defs>
    <g id="Page-1" stroke="none" stroke-width="1" fill="none" fill-rule="evenodd">
        <g id="Innovation" transform="translate(-901.000000, -5832.000000)" fill-rule="nonzero" fill="#747A84">
            <g id="Group-17" transform="translate(0.000000, 5006.000000)">
                <g id="ideo" transform="translate(901.000000, 826.000000)">
                    <polygon id="Shape" points="0 5 8 5 8 19 0 19 0 23 21 23 21 19 13 19 13 5 21 5 21 1 0 1"></polygon>
                    <polygon id="Shape" points="51 23 72 23 72 19 55 19 55 14 69 14 69 10 55 10 55 5 72 5 72 1 51 1"></polygon>
                    <path d="M86.64,-4.64073224e-16 C83.5050241,0.0473771574 80.5173121,1.3383652 78.3343111,3.58888174 C76.15131,5.83939829 74.9518958,8.8650352 75,12 C74.8757385,16.2381202 77.0657784,20.2085835 80.7167873,22.3643288 C84.3677961,24.5200741 88.9022039,24.5200741 92.5532127,22.3643288 C96.2042216,20.2085835 98.3942615,16.2381202 98.27,12 C98.3701998,5.4755371 93.1644015,0.104120154 86.64,-4.64073224e-16 Z M86.64,19.86 C84.5836542,19.8336798 82.6223219,18.9900822 81.188931,17.5154157 C79.7555401,16.0407491 78.9679476,14.0562644 79,12 C79,7.79159021 82.4115902,4.38 86.62,4.38 C90.8284098,4.38 94.24,7.79159021 94.24,12 C94.3068552,16.2672092 90.9070441,19.7833295 86.64,19.86 L86.64,19.86 Z" id="Shape"></path>
                    <path d="M36.32,1 L26,1 L26,23 L36.11,23 C39.048467,23.0684467 41.8845755,21.9194344 43.9467905,19.825027 C46.0090054,17.7306195 47.1139518,14.8770543 47,11.94 C47.1099832,9.05150665 46.0288471,6.24460496 44.0096202,4.17622084 C41.9903933,2.10783673 39.2103029,0.959511992 36.32,1 L36.32,1 Z M36.16,19 L30,19 L30,5 L36.21,5 C40.21,5.1 42.7,8 42.7,12 C42.7,16 40.22,18.93 36.15,19 L36.16,19 Z" id="Shape"></path>
                </g>
            </g>
        </g>
    </g>
</svg>