<?xml version="1.0" encoding="UTF-8"?>
<svg width="64px" height="34px" viewBox="0 0 64 34" version="1.1" xmlns="http://www.w3.org/2000/svg" xmlns:xlink="http://www.w3.org/1999/xlink">
    <!-- Generator: Sketch 45.1 (43504) - http://www.bohemiancoding.com/sketch -->
    <title>Page 1</title>
    <desc>Created with Sketch.</desc>
    <defs>
        <polygon id="path-1" points="6.9565 34 0 34 0 0.9714 6.9565 0.9714"></polygon>
        <polygon id="path-3" points="18.861 7.5373 18.861 0.9713 0.5563 0.9713 0.5563 7.5373 18.861 7.5373"></polygon>
        <polygon id="path-5" points="0 34.0286 63.861 34.0286 63.861 0.9996 0 0.9996"></polygon>
    </defs>
    <g id="Page-1" stroke="none" stroke-width="1" fill="none" fill-rule="evenodd">
        <g id="Innovation" transform="translate(-902.000000, -5925.000000)">
            <g id="Group-17" transform="translate(0.000000, 5006.000000)">
                <g id="Page-1" transform="translate(902.000000, 918.000000)">
                    <g id="Group-3" transform="translate(0.000000, 0.028600)">
                        <mask id="mask-2" fill="white">
                            <use xlink:href="#path-1"></use>
                        </mask>
                        <g id="Clip-2"></g>
                        <path d="M6.9565,0.9714 C6.9435,2.3594 6.9205,3.7474 6.9195,5.1354 C6.9165,14.3604 6.9175,23.5864 6.9195,32.8124 C6.9195,33.2084 6.9435,33.6044 6.9565,34.0004 L-0.0005,34.0004 L-0.0005,0.9714 L6.9565,0.9714 Z" id="Fill-1" fill="#920017" mask="url(#mask-2)"></path>
                    </g>
                    <path d="M22.675,34.0286 C22.688,32.6406 22.711,31.2526 22.712,29.8646 C22.715,20.6396 22.714,11.4136 22.712,2.1876 C22.712,1.7916 22.688,1.3956 22.675,0.9996 L29.639,0.9996 C29.626,2.3876 29.602,3.7756 29.602,5.1636 C29.599,14.3896 29.6,23.6156 29.602,32.8406 C29.602,33.2366 29.626,33.6326 29.639,34.0286 L22.675,34.0286 Z" id="Fill-4" fill="#920017"></path>
                    <path d="M18.2977,1 C18.2847,7.857 18.2717,14.715 18.2587,21.572 C18.2577,22.161 18.2587,22.749 18.2587,23.39 L11.3337,23.39 L11.3337,1 L18.2977,1 Z" id="Fill-6" fill="#920017"></path>
                    <path d="M34.0161,34.0286 C34.0381,33.6336 34.0791,33.2386 34.0791,32.8436 C34.0831,26.1896 34.0821,19.5356 34.0821,12.8816 L34.0821,11.6666 L40.9141,11.6666 L40.9141,12.8816 C40.9141,19.5356 40.9131,26.1896 40.9161,32.8436 C40.9171,33.2386 40.9581,33.6336 40.9801,34.0286 L34.0161,34.0286 Z" id="Fill-8" fill="#6C6C6C"></path>
                    <path d="M45.5562,34.0286 C45.5692,27.1716 45.5822,20.3136 45.5952,13.4566 C45.5962,12.8676 45.5952,12.2796 45.5952,11.6386 L52.5202,11.6386 L52.5202,34.0286 L45.5562,34.0286 Z" id="Fill-10" fill="#920017"></path>
                    <g id="Group-14" transform="translate(45.000000, 0.028600)">
                        <mask id="mask-4" fill="white">
                            <use xlink:href="#path-3"></use>
                        </mask>
                        <g id="Clip-13"></g>
                        <path d="M18.8613,7.5373 C13.1963,7.5243 7.5313,7.5113 1.8663,7.4983 C1.4773,7.4983 1.0883,7.4983 0.5563,7.4983 L0.5563,0.9713 L18.8613,0.9713 L18.8613,7.5373 Z" id="Fill-12" fill="#920017" mask="url(#mask-4)"></path>
                    </g>
                    <mask id="mask-6" fill="white">
                        <use xlink:href="#path-5"></use>
                    </mask>
                    <g id="Clip-16"></g>
                    <polygon id="Fill-15" fill="#920017" mask="url(#mask-6)" points="34.016 7.4746 40.98 7.4746 40.98 1.0006 34.016 1.0006"></polygon>
                </g>
            </g>
        </g>
    </g>
</svg>