<?xml version="1.0" encoding="UTF-8"?>
<svg width="60px" height="60px" viewBox="0 0 60 60" version="1.1" xmlns="http://www.w3.org/2000/svg" xmlns:xlink="http://www.w3.org/1999/xlink">
    <!-- Generator: Sketch 51.1 (57501) - http://www.bohemiancoding.com/sketch -->
    <title>Slice</title>
    <desc>Created with Sketch.</desc>
    <defs></defs>
    <g id="Page-1" stroke="none" stroke-width="1" fill="none" fill-rule="evenodd">
        <g id="conversation" transform="translate(11.000000, 15.000000)" fill="#FFFFFF" fill-rule="nonzero">
            <path d="M31.0909091,10 L24.1811532,10 C20.3637095,10 17.2727273,12.9721565 17.2727273,16.6635023 L17.2727273,23.3333333 L0,23.3333333 L0,3.34309777 C0,1.49675585 1.54180302,0 3.44606332,0 L27.6448458,0 C29.548054,0 31.0909091,1.49510022 31.0909091,3.34309777 L31.0909091,10 Z M0,23.3333333 L6.90909091,23.3333333 L0,30 L0,23.3333333 Z M38,16.6635023 L38,26.6666667 L24.1811532,26.6666667 C22.2601121,26.6666667 20.7272727,25.1756993 20.7272727,23.3364977 L20.7272727,16.6635023 C20.7272727,14.8111773 22.2736276,13.3333333 24.1811532,13.3333333 L34.5461195,13.3333333 C36.4671607,13.3333333 38,14.8243007 38,16.6635023 Z M38,26.6666667 L38,30 L34.5454545,26.6666667 L38,26.6666667 Z" id="Combined-Shape"></path>
        </g>
    </g>
</svg>