<?xml version="1.0" encoding="UTF-8"?>
<svg width="279px" height="242px" viewBox="0 0 279 242" version="1.1" xmlns="http://www.w3.org/2000/svg" xmlns:xlink="http://www.w3.org/1999/xlink">
    <!-- Generator: Sketch 45.1 (43504) - http://www.bohemiancoding.com/sketch -->
    <title>Polygon Copy</title>
    <desc>Created with Sketch.</desc>
    <defs></defs>
    <g id="Page-1" stroke="none" stroke-width="1" fill="none" fill-rule="evenodd" opacity="0.100000001">
        <g id="Innovation" transform="translate(-591.000000, -5338.000000)" fill="#4595E9">
            <g id="Group-17" transform="translate(0.000000, 5006.000000)">
                <g id="Group-15" transform="translate(565.000000, 254.000000)">
                    <g id="Group-14">
                        <g id="Polygon-Copy">
                            <polygon transform="translate(165.212813, 198.561833) rotate(90.000000) translate(-165.212813, -198.561833) " points="165.212813 59.3490196 285.774645 128.955426 285.774645 268.168239 165.212813 337.774645 44.6509804 268.168239 44.6509804 128.955426"></polygon>
                        </g>
                    </g>
                </g>
            </g>
        </g>
    </g>
</svg>