<!-- <?xml version="1.0" encoding="UTF-8"?> -->
<svg width="700px" height="700px" viewBox="0 0 700 700" version="1.1" xmlns="http://www.w3.org/2000/svg" xmlns:xlink="http://www.w3.org/1999/xlink">
    <!-- Generator: Sketch 44.1 (41455) - http://www.bohemiancoding.com/sketch -->
    <title>hero-innovation</title>
    <desc>Created with Sketch.</desc>
    <defs>
        <linearGradient x1="18.0499987%" y1="40.423662%" x2="79.8082166%" y2="75.9445416%" id="linearGradient-1">
            <stop stop-color="#FF7452" stop-opacity="0" offset="0%"></stop>
            <stop stop-color="#FFB09E" offset="49.6791295%"></stop>
            <stop stop-color="#86BDF4" offset="100%"></stop>
        </linearGradient>
        <linearGradient x1="1.93114421%" y1="25.563679%" x2="93.1257454%" y2="13.1795779%" id="linearGradient-2">
            <stop stop-color="#FF7452" stop-opacity="0" offset="0%"></stop>
            <stop stop-color="#FFB09E" offset="49.6791295%"></stop>
            <stop stop-color="#86BDF4" offset="100%"></stop>
        </linearGradient>
        <linearGradient x1="61.7330411%" y1="0%" x2="82.3490391%" y2="88.6355836%" id="linearGradient-3">
            <stop stop-color="#FF7452" stop-opacity="0" offset="0%"></stop>
            <stop stop-color="#FFB09E" offset="49.6791295%"></stop>
            <stop stop-color="#86BDF4" offset="100%"></stop>
        </linearGradient>
        <linearGradient x1="9.46493851%" y1="42.5697184%" x2="88.3711787%" y2="30.9109092%" id="linearGradient-4">
            <stop stop-color="#FF7452" stop-opacity="0" offset="0%"></stop>
            <stop stop-color="#FFB09E" offset="49.6791295%"></stop>
            <stop stop-color="#86BDF4" offset="100%"></stop>
        </linearGradient>
        <linearGradient x1="15.5649203%" y1="0%" x2="77.4231971%" y2="81.8707358%" id="linearGradient-5">
            <stop stop-color="#FF7452" stop-opacity="0" offset="0%"></stop>
            <stop stop-color="#FFB09E" offset="49.6791295%"></stop>
            <stop stop-color="#86BDF4" offset="100%"></stop>
        </linearGradient>
        <linearGradient x1="8.78392009%" y1="12.7071775%" x2="71.4329258%" y2="65.5435651%" id="linearGradient-6">
            <stop stop-color="#FF7452" stop-opacity="0" offset="0%"></stop>
            <stop stop-color="#FFB09E" offset="49.6791295%"></stop>
            <stop stop-color="#86BDF4" offset="100%"></stop>
        </linearGradient>
        <linearGradient x1="-6.6106267%" y1="33.2102855%" x2="90.2896643%" y2="17.1717551%" id="linearGradient-7">
            <stop stop-color="#FF7452" stop-opacity="0" offset="0%"></stop>
            <stop stop-color="#FFB09E" offset="49.6791295%"></stop>
            <stop stop-color="#86BDF4" offset="100%"></stop>
        </linearGradient>
        <linearGradient x1="19.8959611%" y1="88.6858366%" x2="57.5921882%" y2="10.1864587%" id="linearGradient-8">
            <stop stop-color="#FF7452" stop-opacity="0" offset="0%"></stop>
            <stop stop-color="#FFB09E" offset="49.6791295%"></stop>
            <stop stop-color="#86BDF4" offset="100%"></stop>
        </linearGradient>
        <linearGradient x1="64.3057942%" y1="14.9002758%" x2="67.928708%" y2="88.598834%" id="linearGradient-9">
            <stop stop-color="#FF7452" stop-opacity="0" offset="0%"></stop>
            <stop stop-color="#FFB09E" offset="49.6791295%"></stop>
            <stop stop-color="#86BDF4" offset="100%"></stop>
        </linearGradient>
        <linearGradient x1="3.79879389%" y1="31.2722772%" x2="82.5047943%" y2="29.5909311%" id="linearGradient-10">
            <stop stop-color="#FF7452" stop-opacity="0" offset="0%"></stop>
            <stop stop-color="#FFB09E" offset="49.6791295%"></stop>
            <stop stop-color="#86BDF4" offset="100%"></stop>
        </linearGradient>
        <linearGradient x1="28.1898369%" y1="0%" x2="68.5199639%" y2="73.0664665%" id="linearGradient-11">
            <stop stop-color="#FF7452" stop-opacity="0" offset="0%"></stop>
            <stop stop-color="#FFB09E" offset="49.6791295%"></stop>
            <stop stop-color="#86BDF4" offset="100%"></stop>
        </linearGradient>
        <linearGradient x1="54.9778402%" y1="5.28450285%" x2="50%" y2="79.4131951%" id="linearGradient-12">
            <stop stop-color="#FF7452" stop-opacity="0" offset="0%"></stop>
            <stop stop-color="#FFB09E" offset="49.6791295%"></stop>
            <stop stop-color="#86BDF4" offset="100%"></stop>
        </linearGradient>
        <linearGradient x1="50%" y1="83.9361378%" x2="58.4740555%" y2="20.8309497%" id="linearGradient-13">
            <stop stop-color="#FF7452" stop-opacity="0" offset="0%"></stop>
            <stop stop-color="#FFB09E" offset="49.6791295%"></stop>
            <stop stop-color="#86BDF4" offset="100%"></stop>
        </linearGradient>
        <linearGradient x1="100%" y1="16.5070814%" x2="26.7882922%" y2="70.5129573%" id="linearGradient-14">
            <stop stop-color="#FF7452" stop-opacity="0" offset="0%"></stop>
            <stop stop-color="#FFB09E" offset="49.6791295%"></stop>
            <stop stop-color="#86BDF4" offset="100%"></stop>
        </linearGradient>
        <linearGradient x1="73.3729247%" y1="18.0733713%" x2="17.4176557%" y2="84.2587259%" id="linearGradient-15">
            <stop stop-color="#FF7452" stop-opacity="0" offset="0%"></stop>
            <stop stop-color="#FFB09E" offset="49.6791295%"></stop>
            <stop stop-color="#86BDF4" offset="100%"></stop>
        </linearGradient>
        <linearGradient x1="16.9542581%" y1="94.8410232%" x2="16.9542587%" y2="13.7030721%" id="linearGradient-16">
            <stop stop-color="#FF7452" stop-opacity="0" offset="0%"></stop>
            <stop stop-color="#FFB09E" offset="49.6791295%"></stop>
            <stop stop-color="#86BDF4" offset="100%"></stop>
        </linearGradient>
        <linearGradient x1="65.3111633%" y1="97.1439283%" x2="35.3051981%" y2="24.6927085%" id="linearGradient-17">
            <stop stop-color="#FF7452" stop-opacity="0" offset="0%"></stop>
            <stop stop-color="#FFB09E" offset="49.6791295%"></stop>
            <stop stop-color="#86BDF4" offset="100%"></stop>
        </linearGradient>
        <linearGradient x1="91.5036146%" y1="16.7945301%" x2="16.2571358%" y2="80.5825218%" id="linearGradient-18">
            <stop stop-color="#FF7452" stop-opacity="0" offset="0%"></stop>
            <stop stop-color="#FFB09E" offset="49.6791295%"></stop>
            <stop stop-color="#86BDF4" offset="100%"></stop>
        </linearGradient>
        <linearGradient x1="61.0921728%" y1="96.2241835%" x2="26.837115%" y2="17.9371294%" id="linearGradient-19">
            <stop stop-color="#FF7452" stop-opacity="0" offset="0%"></stop>
            <stop stop-color="#FFB09E" offset="49.6791295%"></stop>
            <stop stop-color="#86BDF4" offset="100%"></stop>
        </linearGradient>
        <linearGradient x1="92.8782743%" y1="29.8032429%" x2="24.9515205%" y2="67.8060669%" id="linearGradient-20">
            <stop stop-color="#FF7452" stop-opacity="0" offset="0%"></stop>
            <stop stop-color="#FFB09E" offset="49.6791295%"></stop>
            <stop stop-color="#86BDF4" offset="100%"></stop>
        </linearGradient>
        <linearGradient x1="88.2120567%" y1="50%" x2="27.566996%" y2="30.9734282%" id="linearGradient-21">
            <stop stop-color="#FF7452" stop-opacity="0" offset="0%"></stop>
            <stop stop-color="#FFB09E" offset="49.6791295%"></stop>
            <stop stop-color="#86BDF4" offset="100%"></stop>
        </linearGradient>
        <linearGradient x1="76.0254785%" y1="88.3415668%" x2="24.8851049%" y2="23.3026931%" id="linearGradient-22">
            <stop stop-color="#FF7452" stop-opacity="0" offset="0%"></stop>
            <stop stop-color="#FFB09E" offset="49.6791295%"></stop>
            <stop stop-color="#86BDF4" offset="100%"></stop>
        </linearGradient>
        <linearGradient x1="93.8969667%" y1="26.319235%" x2="18.7068734%" y2="74.0986122%" id="linearGradient-23">
            <stop stop-color="#FF7452" stop-opacity="0" offset="0%"></stop>
            <stop stop-color="#FFB09E" offset="49.6791295%"></stop>
            <stop stop-color="#86BDF4" offset="100%"></stop>
        </linearGradient>
        <linearGradient x1="86.9120368%" y1="58.2424581%" x2="18.9766692%" y2="58.2415855%" id="linearGradient-24">
            <stop stop-color="#FF7452" stop-opacity="0" offset="0%"></stop>
            <stop stop-color="#FFB09E" offset="49.6791295%"></stop>
            <stop stop-color="#86BDF4" offset="100%"></stop>
        </linearGradient>
        <linearGradient x1="82.1378609%" y1="92.9989466%" x2="12.3091465%" y2="19.9941648%" id="linearGradient-25">
            <stop stop-color="#FF7452" stop-opacity="0" offset="0%"></stop>
            <stop stop-color="#FFB09E" offset="49.6791295%"></stop>
            <stop stop-color="#86BDF4" offset="100%"></stop>
        </linearGradient>
        <linearGradient x1="27.0411521%" y1="86.570949%" x2="26.9617772%" y2="21.062021%" id="linearGradient-26">
            <stop stop-color="#FF7452" stop-opacity="0" offset="0%"></stop>
            <stop stop-color="#FFB09E" offset="41.9467688%"></stop>
            <stop stop-color="#86BDF4" offset="100%"></stop>
        </linearGradient>
    </defs>
    <g id="Page-1" stroke="none" stroke-width="1" fill="none" fill-rule="evenodd">
        <g id="Innovation" transform="translate(-590.000000, -106.000000)">
            <g id="hero" transform="translate(0.000000, 106.000000)">
                <g id="bkg">
                    <g id="hero-innovation" transform="translate(590.000000, 0.000000)">
                        <g id="trail">
                            <path d="M200.662385,628.619266 C201.561468,628.69633 201.790092,628.702752 202.679541,628.863303 C203.680092,629.043119 204.663945,629.312844 205.617615,629.666055 C205.935505,629.781651 206.250183,629.910092 206.560367,630.044954 C207.128716,630.288991 207.476789,630.475229 207.995688,630.738532 C208.329633,630.905505 208.66422,631.078899 208.998807,631.245872 C209.501651,631.49633 210.005138,631.746789 210.508624,631.997248 C213.202018,633.333028 215.91211,634.630275 218.641468,635.888991 C224.117523,638.406422 229.666789,640.769725 235.280275,642.972477 C250.531927,648.951376 266.254312,653.722936 282.254771,657.23578 C296.318991,660.324771 310.59578,662.437615 324.949633,663.561468 C330.283119,663.985321 335.626881,664.26789 340.974495,664.422018 C343.976789,664.505505 346.980367,664.544037 349.983945,664.544037 L351.001835,664.576147 C351.33578,664.601835 351.676147,664.627523 352.010092,664.666055 C352.684404,664.743119 353.352294,664.865138 354.013761,665.019266 C356.325688,665.57156 358.515596,666.592661 360.416514,668.011927 C361.77156,669.026606 362.985321,670.233945 363.993578,671.595413 C365.001835,672.956881 365.817431,674.466055 366.395413,676.058716 C367.088991,677.966055 367.442202,680.001835 367.442202,682.037615 C367.442202,684.066972 367.082569,686.102752 366.382569,688.010092 C365.682569,689.923853 364.655046,691.709174 363.344954,693.263303 C361.816514,695.080734 359.915596,696.577064 357.79633,697.643119 C355.978899,698.555046 354.000917,699.13945 351.977982,699.377064 C351.644037,699.415596 351.30367,699.441284 350.969725,699.46055 C350.366055,699.499083 349.885046,699.492661 349.300642,699.492661 C348.411835,699.486239 347.52367,699.486239 346.635505,699.473394 C344.199633,699.454128 341.764404,699.409174 339.329174,699.33211 C326.006055,698.933945 312.705413,697.777982 299.513303,695.870642 C286.147156,693.937615 272.892752,691.221101 259.841927,687.746789 C246.780183,684.266055 233.922018,680.021101 221.354771,675.044037 C214.347706,672.269725 207.431193,669.26422 200.619358,666.040367 C198.545046,665.057798 196.480367,664.055963 194.425963,663.02844 C193.679725,662.662385 192.935413,662.283486 192.191743,661.911009 C191.679908,661.647706 191.270183,661.448624 190.756422,661.146789 C188.706514,659.952294 186.907706,658.333945 185.499358,656.420183 C184.292661,654.788991 183.375596,652.93945 182.801468,650.987156 C182.323028,649.362385 182.082844,647.666972 182.091193,645.97156 C182.100183,643.93578 182.468165,641.912844 183.172661,639.999083 C183.877156,638.091743 184.916881,636.312844 186.231468,634.758716 C187.327064,633.46789 188.610826,632.337615 190.031376,631.412844 C192.020275,630.115596 194.271835,629.23578 196.611376,628.831193 C197.279266,628.715596 197.953578,628.644954 198.630459,628.606422 C198.968899,628.587156 199.307982,628.587156 199.646422,628.580734 C199.984862,628.593578 200.323945,628.606422 200.662385,628.619266 Z" id="Path" fill="url(#linearGradient-1)"></path>
                            <path d="M659.631193,457.543119 C662.418349,458.114679 663.214679,458.076147 665.770642,459.405505 C667.690826,460.400917 669.405505,461.743119 670.831193,463.36789 C672.256881,464.986239 673.36789,466.855046 674.112844,468.884404 C674.485321,469.892661 674.761468,470.93945 674.941284,471.999083 C675.300917,474.131193 675.262385,476.308257 674.825688,478.421101 C674.613761,479.474312 674.222018,480.482569 673.894495,481.50367 C673.881651,481.529358 673.361468,482.800917 673.355046,482.813761 C672.629358,484.579817 671.890826,486.33945 671.133028,488.092661 C665.687156,500.731193 659.489908,513.048624 652.586239,524.961468 C645.021101,538.011009 636.614679,550.572477 627.431193,562.543119 C619.416514,572.978899 610.823853,582.965138 601.691743,592.437615 C590.446789,604.106422 578.392661,614.998165 565.644954,625.00367 C553.969725,634.16789 541.710092,642.593578 528.968807,650.20367 C516.754128,657.499083 504.089908,664.043119 491.072477,669.790826 C472.833945,677.850459 453.901835,684.323853 434.545872,689.133945 C426.980734,691.015596 419.344954,692.640367 411.66422,694.008257 C409.005505,694.477064 406.346789,694.920183 403.675229,695.331193 C402.223853,695.555963 400.766055,695.76789 399.308257,695.979817 L396.090826,696.133945 C395.024771,695.992661 393.93945,695.941284 392.892661,695.697248 C390.792661,695.209174 388.795413,694.33578 387.010092,693.122018 C385.231193,691.908257 383.683486,690.373394 382.463303,688.594495 C381.236697,686.815596 380.350459,684.824771 379.849541,682.724771 C379.348624,680.624771 379.245872,678.454128 379.534862,676.315596 C379.682569,675.249541 379.926606,674.189908 380.266972,673.175229 C380.947706,671.120183 382.000917,669.219266 383.375229,667.555963 C384.062385,666.721101 384.820183,665.956881 385.648624,665.263303 C387.305505,663.882569 389.206422,662.816514 391.248624,662.129358 C392.269725,661.782569 393.33578,661.609174 394.388991,661.377982 C394.607339,661.333028 394.838532,661.313761 395.063303,661.281651 C395.281651,661.249541 395.5,661.217431 395.718349,661.191743 C396.161468,661.121101 396.598165,661.056881 397.034862,660.992661 C398.133028,660.83211 399.224771,660.658716 400.316514,660.485321 C402.711927,660.1 405.100917,659.688991 407.489908,659.245872 C414.599083,657.93578 421.663303,656.375229 428.663303,654.577064 C445.80367,650.165138 462.57156,644.288991 478.716514,637.038532 C489.036697,632.408257 499.1,627.219266 508.855046,621.497248 C520.748624,614.522936 532.186239,606.77156 543.065138,598.300917 C553.584404,590.112844 563.577064,581.263303 572.978899,571.816514 C581.931193,562.819266 590.344037,553.282569 598.146789,543.277064 C609.642202,528.544954 619.827523,512.791743 628.53578,496.255046 C631.721101,490.199083 634.707339,484.046789 637.488073,477.798165 C638.451376,475.646789 639.382569,473.482569 640.294495,471.305505 C640.711927,470.310092 641.122936,469.308257 641.533945,468.312844 L643.017431,465.448624 C643.678899,464.600917 644.269725,463.695413 645.008257,462.911927 C645.746789,462.12844 646.562385,461.415596 647.429358,460.779817 C649.176147,459.508257 651.141284,458.577064 653.22844,458.018349 C654.262385,457.742202 655.347706,457.665138 656.407339,457.485321 C657.479817,457.504587 658.552294,457.523853 659.631193,457.543119 Z" id="Path" fill="url(#linearGradient-2)"></path>
                            <path d="M23.7788073,380.844954 C26.5569725,381.474312 27.3494495,381.455046 29.8810092,382.842202 C31.7742202,383.882569 33.4587156,385.256881 34.8490826,386.913761 C36.2394495,388.56422 37.3119266,390.458716 38.0112844,392.500917 C38.36,393.515596 38.5314679,394.588073 38.7710092,395.634862 C38.8101835,395.808257 38.8223853,395.988073 38.8480734,396.161468 C38.8981651,396.501835 38.9488991,396.842202 39.0002752,397.182569 C39.0773394,397.69633 39.1556881,398.20367 39.2346789,398.717431 C39.7921101,402.275229 40.4047706,405.826606 41.0816514,409.37156 C42.4880734,416.724771 44.1590826,424.033028 46.0908257,431.277064 C50.6780734,448.468807 56.7398165,465.262385 64.183578,481.420183 C71.1874312,496.627523 79.4146789,511.269725 88.750367,525.166972 C97.6634862,538.441284 107.588716,551.02844 118.405963,562.8 C128.318991,573.582569 138.980826,583.677982 150.291284,592.983486 C154.107248,596.130275 157.997706,599.180734 161.956881,602.134862 C164.070367,603.714679 166.205046,605.268807 168.35578,606.790826 L168.759083,607.079817 L169.174587,607.368807 L171.627156,609.462385 C172.30211,610.297248 173.057982,611.080734 173.653303,611.973394 C174.849083,613.77156 175.701284,615.775229 176.167523,617.881651 C176.633119,619.988073 176.704404,622.165138 176.377523,624.297248 C176.05,626.43578 175.330734,628.484404 174.254404,630.359633 C173.178716,632.22844 171.765229,633.885321 170.085872,635.246789 C168.406514,636.601835 166.490183,637.63578 164.433853,638.290826 C162.378165,638.952294 160.217798,639.222018 158.062569,639.093578 C155.907982,638.965138 153.795138,638.438532 151.832569,637.53945 C150.855138,637.089908 149.961193,636.479817 149.036422,635.933945 C149.02422,635.927523 148.153394,635.311009 148.148899,635.304587 C146.953119,634.456881 145.763119,633.602752 144.578257,632.742202 C140.729541,629.942202 136.937982,627.058716 133.206789,624.104587 C119.308257,613.097248 106.245872,601.036697 94.166055,588.057798 C79.8218349,572.644954 66.8666972,555.941284 55.513211,538.210092 C44.2663303,520.645872 34.5947706,502.073394 26.6642202,482.781651 C19.8992661,466.32844 14.4013761,449.348624 10.236055,432.054128 C8.59201835,425.227523 7.15541284,418.349541 5.92752294,411.433028 C5.29302752,407.862385 4.71761468,404.285321 4.19229358,400.695413 L4.02146789,397.477982 C4.39651376,394.652294 4.30146789,393.862385 5.44972477,391.216514 C6.30834862,389.23211 7.5266055,387.427523 9.04284404,385.892661 C10.5590826,384.357798 12.3469725,383.111927 14.3159633,382.225688 C16.9489908,381.044037 17.7369725,381.127523 20.5568807,380.716514 C21.6306422,380.755046 22.7050459,380.8 23.7788073,380.844954 Z" id="Path" fill="url(#linearGradient-3)"></path>
                            <path d="M523.420183,532.809174 C524.441284,533.136697 525.494495,533.380734 526.483486,533.804587 C528.46789,534.658716 530.272477,535.872477 531.813761,537.381651 C533.355046,538.897248 534.600917,540.682569 535.493578,542.647706 C536.379817,544.612844 536.9,546.73211 537.022018,548.883486 C537.137615,551.041284 536.861468,553.199083 536.193578,555.254128 C535.525688,557.309174 534.485321,559.216514 533.117431,560.892661 C532.443119,561.727523 531.627523,562.440367 530.856881,563.191743 C530.837615,563.217431 529.745872,564.129358 529.733028,564.142202 C528.968807,564.784404 528.198165,565.426606 527.427523,566.055963 C524.13945,568.753211 520.793578,571.379817 517.39633,573.922936 C504.526606,583.543119 490.834862,592.065138 476.513761,599.341284 C464.748624,605.320183 452.566055,610.457798 440.075229,614.709174 C428.258716,618.729358 416.166055,621.953211 403.906422,624.348624 C386.682569,627.720183 369.137615,629.454128 351.579817,629.550459 C340.344495,629.614679 329.105321,629.011009 317.941927,627.73945 C312.024037,627.058716 306.127339,626.198165 300.264679,625.144954 C297.285505,624.611927 294.315963,624.021101 291.355413,623.391743 L288.277339,622.434862 C287.327523,621.927523 286.326972,621.510092 285.42789,620.925688 C283.621376,619.744037 282.049266,618.234862 280.791835,616.481651 C280.165688,615.608257 279.618532,614.670642 279.163853,613.694495 C278.25,611.742202 277.706697,609.63578 277.56156,607.477982 C277.416422,605.326606 277.671376,603.162385 278.31422,601.100917 C278.956422,599.03945 279.975596,597.119266 281.319083,595.423853 C282.663211,593.734862 284.308532,592.309174 286.17156,591.223853 C288.035229,590.13211 290.084495,589.393578 292.215963,589.053211 C293.276881,588.879817 294.358349,588.809174 295.432752,588.834862 C296.507156,588.86055 297.569358,589.078899 298.635413,589.213761 C298.770917,589.233028 298.902569,589.27156 299.036147,589.297248 C299.423394,589.380734 299.811284,589.46422 300.199174,589.541284 C300.717431,589.650459 301.235046,589.753211 301.753945,589.855963 C303.96633,590.299083 306.183853,590.710092 308.407156,591.095413 C312.887798,591.859633 317.390275,592.501835 321.906881,593.015596 C331.570734,594.120183 341.301376,594.646789 351.027523,594.608257 C358.380734,594.576147 365.733945,594.216514 373.061468,593.53578 C380.934862,592.797248 388.769725,591.679817 396.533945,590.183486 C407.477064,588.077064 418.272477,585.212844 428.823853,581.622936 C438.80367,578.225688 448.558716,574.179817 458.018349,569.523853 C469.950459,563.641284 481.400917,556.782569 492.215596,549.044037 C495.779817,546.494495 499.273394,543.855046 502.69633,541.119266 C504.584404,539.610092 506.446789,538.075229 508.289908,536.514679 L510.929358,534.665138 C511.911927,534.222018 512.849541,533.688991 513.86422,533.33578 C516.593578,532.398165 517.370642,532.552294 520.222018,532.391743 C521.281651,532.533028 522.354128,532.66789 523.420183,532.809174 Z" id="Path" fill="url(#linearGradient-4)"></path>
                            <path d="M130.951376,474.625688 C131.25,474.651376 131.549266,474.670642 131.847248,474.709174 C132.74055,474.811927 133.625505,474.991743 134.491835,475.23578 C135.935505,475.640367 137.326514,476.237615 138.619266,476.995413 C139.912018,477.753211 141.105872,478.684404 142.162294,479.750459 C142.796147,480.386239 143.379908,481.073394 143.90844,481.805505 C144.241743,482.26789 144.445963,482.588991 144.742661,483.051376 C144.847982,483.211927 144.953303,483.372477 145.058624,483.533028 C145.269908,483.854128 145.481193,484.175229 145.693119,484.502752 C146.224862,485.305505 146.759817,486.101835 147.299908,486.904587 C148.595229,488.811927 149.918165,490.706422 151.266789,492.581651 C155.083394,497.892661 159.111927,503.043119 163.338899,508.033028 C175.138716,521.949541 188.484312,534.555963 203.059725,545.531193 C213.837798,553.655046 225.285688,560.879817 237.254404,567.109174 C241.379266,569.26055 245.56578,571.289908 249.807523,573.197248 C251.94156,574.154128 254.090367,575.078899 256.250092,575.984404 L257.071468,576.350459 C257.338624,576.485321 257.609633,576.613761 257.872936,576.761468 C258.400183,577.044037 258.912018,577.358716 259.407156,577.699083 C261.139817,578.887156 262.653486,580.389908 263.85633,582.111009 C264.886422,583.588073 265.685963,585.219266 266.218991,586.940367 C266.662752,588.372477 266.920917,589.862385 266.985138,591.365138 C267.100734,594.062385 266.581193,596.778899 265.47789,599.244954 C264.497248,601.441284 263.061927,603.419266 261.285596,605.037615 C259.731468,606.450459 257.922385,607.580734 255.970092,608.351376 C254.296514,609.019266 252.521468,609.417431 250.725229,609.53945 C248.928991,609.66789 247.115413,609.507339 245.366697,609.083486 C244.78422,608.93578 244.208807,608.762385 243.644312,608.563303 C243.135046,608.383486 242.700275,608.197248 242.208349,607.991743 C242.002844,607.901835 241.797982,607.818349 241.592477,607.734862 C240.567523,607.298165 239.544495,606.861468 238.524679,606.418349 C235.064495,604.909174 231.634495,603.33578 228.238532,601.685321 C219.688899,597.543119 211.352477,592.96422 203.271009,587.96789 C193.359908,581.841284 183.832844,575.091743 174.761743,567.783486 C165.713761,560.488073 157.119817,552.633945 149.04156,544.278899 C141.570826,536.553211 134.543211,528.397248 128.004312,519.868807 C124.527431,515.334862 121.189266,510.691743 117.995596,505.952294 C117.257706,504.86055 116.527523,503.755963 115.805688,502.651376 C115.684954,502.47156 115.564862,502.285321 115.444771,502.099083 C115.155138,501.655963 114.89633,501.26422 114.626606,500.795413 C114.47633,500.538532 114.333119,500.275229 114.196972,500.005505 C113.651101,498.93945 113.215688,497.809174 112.899725,496.653211 C112.42578,494.919266 112.222202,493.108257 112.299266,491.310092 C112.363486,489.813761 112.621009,488.323853 113.064771,486.885321 C113.774404,484.592661 114.961193,482.454128 116.530092,480.636697 C117.903119,479.044037 119.563211,477.708257 121.408257,476.706422 C123.253945,475.704587 125.27945,475.036697 127.360183,474.747706 C127.95422,474.66422 128.552752,474.612844 129.152569,474.593578 C129.451835,474.580734 129.752385,474.587156 130.052294,474.587156 C130.35156,474.6 130.651468,474.612844 130.951376,474.625688 Z" id="Path" fill="url(#linearGradient-5)"></path>
                            <path d="M260.603578,502.336697 C261.299083,502.381651 261.474404,502.381651 262.166055,502.465138 C263.462018,502.63211 264.739358,502.946789 265.965963,503.402752 C266.456606,503.582569 266.938899,503.781651 267.41156,504.006422 C267.835413,504.205505 268.045413,504.321101 268.412752,504.520183 C268.699174,504.66789 268.985596,504.822018 269.272661,504.969725 C269.656055,505.168807 270.03945,505.36789 270.423486,505.566972 C272.060459,506.401835 273.708349,507.211009 275.370367,508.000917 C278.707248,509.574312 282.09422,511.044954 285.52422,512.406422 C294.717982,516.054128 304.223211,518.911927 313.903119,520.947706 C321.711009,522.585321 329.632569,523.683486 337.591376,524.242202 C340.329725,524.434862 343.072569,524.563303 345.817339,524.627523 C347.206422,524.659633 348.594862,524.672477 349.983945,524.672477 L350.770642,524.691743 C351.027523,524.711009 351.290826,524.723853 351.547706,524.743119 C352.074312,524.794495 352.588073,524.865138 353.101835,524.955046 C355.163303,525.333945 357.147706,526.078899 358.945872,527.157798 C360.288073,527.96055 361.527523,528.949541 362.606422,530.079817 C364.237615,531.788073 365.509174,533.817431 366.331193,536.020183 C367.159633,538.229358 367.53211,540.592661 367.422936,542.949541 C367.33945,544.773394 366.966972,546.590826 366.318349,548.299083 C365.586239,550.257798 364.494495,552.081651 363.113761,553.655046 C361.566055,555.427523 359.658716,556.878899 357.533028,557.9 C355.651376,558.805505 353.602752,559.36422 351.515596,559.550459 C351.258716,559.576147 350.995413,559.595413 350.738532,559.601835 C350.295413,559.621101 349.970459,559.621101 349.553028,559.621101 C349.276881,559.621101 349.000734,559.621101 348.724587,559.614679 C347.758716,559.608257 346.793486,559.601835 345.827615,559.582569 C340.089541,559.466972 334.355321,559.126606 328.644862,558.548624 C321.285229,557.80367 313.964771,556.666972 306.725229,555.144954 C298.562202,553.436697 290.501927,551.233945 282.602202,548.555963 C275.789725,546.244037 269.097339,543.585321 262.560367,540.586239 C260.197706,539.500917 257.854954,538.370642 255.534679,537.201835 C254.377431,536.617431 253.225963,536.020183 252.078991,535.410092 L251.749541,535.236697 C251.52156,535.108257 251.290367,534.986239 251.065596,534.857798 C250.614771,534.588073 250.176147,534.305505 249.751009,533.997248 C248.26367,532.931193 246.945872,531.633945 245.86055,530.156881 C244.620459,528.474312 243.686697,526.566972 243.117706,524.556881 C242.548073,522.540367 242.343853,520.427523 242.518532,518.340367 C242.714404,515.99633 243.389358,513.697248 244.491376,511.616514 C245.226055,510.229358 246.147615,508.944954 247.224587,507.801835 C248.480734,506.472477 249.946239,505.342202 251.552385,504.462385 C253.38844,503.46055 255.40367,502.792661 257.474771,502.497248 C257.992385,502.426606 258.513211,502.375229 259.035321,502.349541 C259.296697,502.336697 259.558073,502.330275 259.81945,502.323853 C260.080826,502.330275 260.342202,502.330275 260.603578,502.336697 Z" id="Path" fill="url(#linearGradient-6)"></path>
                            <path d="M543.880734,332.603394 C546.680734,333.130642 547.470642,333.078624 550.052294,334.368807 C551.985321,335.333394 553.719266,336.647982 555.170642,338.245138 C555.89633,339.040826 556.544954,339.906514 557.110092,340.821009 C558.246789,342.658349 559.030275,344.689633 559.422018,346.81211 C559.621101,347.869174 559.633945,348.951927 559.717431,350.025688 C559.730275,350.205505 559.717431,350.391743 559.717431,350.57156 C559.717431,350.956881 559.711009,351.33578 559.711009,351.721101 C559.698165,353.243119 559.666055,354.77156 559.621101,356.293578 C559.325688,366.421101 558.298165,376.529358 556.544954,386.509174 C554.669725,397.169725 551.966055,407.682569 548.466055,417.919266 C544.786239,428.669725 540.220183,439.111927 534.844954,449.117431 C529.097248,459.80367 522.424771,469.988991 514.923853,479.525688 C506.793578,489.858716 497.693578,499.421101 487.784404,508.065138 C477.849541,516.72844 467.099083,524.454128 455.719266,531.107339 C444.692661,537.561468 433.068807,542.994495 421.046789,547.322936 C416.763303,548.86422 412.42844,550.270642 408.055046,551.522936 C405.781651,552.177982 403.488991,552.794495 401.183486,553.372477 L397.998165,553.873394 C396.925688,553.841284 395.846789,553.905505 394.774312,553.777064 C392.63578,553.507339 390.561468,552.852294 388.654128,551.831193 C387.710092,551.323853 386.804587,550.726606 385.969725,550.052294 C384.287156,548.697248 382.86789,547.046789 381.788991,545.177982 C380.70367,543.309174 379.977982,541.254128 379.650459,539.122018 C379.316514,536.989908 379.380734,534.812844 379.843119,532.706422 C380.06789,531.653211 380.401835,530.619266 380.819266,529.630275 C381.654128,527.645872 382.855046,525.82844 384.357798,524.274312 C385.86055,522.726606 387.63945,521.46789 389.598165,520.562385 C390.574312,520.112844 391.627523,519.849541 392.63578,519.489908 C392.944037,519.412844 393.245872,519.33578 393.554128,519.258716 C395.46789,518.76422 397.375229,518.244037 399.276147,517.685321 C402.911009,516.619266 406.507339,515.437615 410.058716,514.133945 C419.910092,510.531193 429.427523,506.029358 438.469725,500.711927 C447.556881,495.368807 456.162385,489.197248 464.144954,482.306422 C472.673394,474.946789 480.488991,466.765138 487.456881,457.915596 C493.711927,449.965138 499.273394,441.481651 504.06422,432.574312 C508.611009,424.110092 512.457798,415.266972 515.546789,406.166972 C519.33578,394.992661 521.981651,383.433028 523.433028,371.725688 C524.011009,367.050459 524.402752,362.349541 524.608257,357.642202 C524.678899,355.895413 524.730275,354.148624 524.755963,352.395413 C524.762385,351.592661 524.768807,350.783486 524.768807,349.976881 L525.070642,346.766514 C525.854128,344.026239 525.873394,343.233761 527.401835,340.781193 C528.538532,338.947706 530.009174,337.340275 531.730275,336.041743 C533.457798,334.743211 535.40367,333.775413 537.484404,333.187156 C538.518349,332.894312 539.597248,332.794771 540.656881,332.598899 C541.729358,332.600183 542.801835,332.601468 543.880734,332.603394 Z" id="Path" fill="url(#linearGradient-7)"></path>
                            <path d="M582.033945,206.125596 C583.080734,206.375413 584.153211,206.530183 585.174312,206.875688 C587.216514,207.569908 589.117431,208.636606 590.76789,210.022477 C591.59633,210.712202 592.36055,211.48156 593.041284,212.311284 C593.722018,213.141009 594.261468,214.081835 594.852294,214.978349 C594.865138,214.993119 595.359633,215.897339 595.359633,215.903761 C595.622936,216.373853 595.879817,216.844587 596.130275,217.316606 C597.491743,219.834679 598.814679,222.373945 600.099083,224.932477 C604.369725,233.453211 608.20367,242.192936 611.581651,251.107339 C615.177982,260.626055 618.26055,270.342569 620.797248,280.199083 C623.783486,291.822936 626.018349,303.640092 627.482569,315.552936 C628.844037,326.598807 629.544037,337.724954 629.588991,348.854312 C629.621101,357.924771 629.222936,367.005505 628.388073,376.041284 C627.521101,385.430275 626.178899,394.774312 624.361468,404.034862 C622.505505,413.520183 620.148624,422.909174 617.310092,432.150459 C614.176147,442.348624 610.457798,452.36055 606.174312,462.12844 C599.482569,477.4 591.416514,492.061468 582.111009,505.894495 C578.713761,510.955046 575.143119,515.9 571.424771,520.722936 C569.793578,522.83578 568.130275,524.922936 566.441284,526.990826 L564.180734,529.289908 C563.300917,529.906422 562.472477,530.606422 561.534862,531.13945 C559.659633,532.205505 557.604587,532.911927 555.466055,533.233028 C553.333945,533.547706 551.156881,533.46422 549.050459,532.988991 C546.944037,532.513761 544.946789,531.646789 543.155046,530.445872 C541.363303,529.238532 539.809174,527.716514 538.576147,525.944037 C537.336697,524.17156 536.444037,522.187156 535.930275,520.093578 C535.673394,519.046789 535.512844,517.974312 535.455046,516.901835 C535.33945,514.744037 535.622018,512.586239 536.289908,510.537615 C536.623853,509.510092 537.054128,508.514679 537.56789,507.577064 C538.081651,506.626606 538.749541,505.778899 539.366055,504.899083 C539.494495,504.719266 539.642202,504.552294 539.783486,504.385321 C539.918349,504.218349 540.053211,504.051376 540.188073,503.890826 C540.457798,503.556881 540.721101,503.222936 540.990826,502.895413 C542.718349,500.724771 544.420183,498.534862 546.077064,496.319266 C549.397248,491.868807 552.569725,487.309174 555.581651,482.646789 C563.744037,470.021101 570.744037,456.644037 576.446789,442.727523 C579.657798,434.892661 582.46422,426.884404 584.840367,418.754128 C587.248624,410.521101 589.220183,402.159633 590.742202,393.721101 C593.304587,379.52844 594.601835,365.111009 594.640367,350.687156 C594.666055,341.027156 594.133028,331.363945 593.02844,321.765596 C591.975229,312.59945 590.401835,303.492385 588.321101,294.504771 C585.122936,280.74367 580.730275,267.262569 575.188073,254.26633 C573.100917,249.357982 570.846789,244.517706 568.43211,239.757064 C567.089908,237.10156 565.69633,234.471743 564.257798,231.865688 L562.966972,228.910917 C562.324771,226.134037 561.958716,225.430183 562.106422,222.547339 C562.209174,220.390826 562.716514,218.273486 563.59633,216.301927 C564.476147,214.330367 565.715596,212.539266 567.250459,211.018532 C568.778899,209.497798 570.583486,208.274404 572.561468,207.41 C575.207339,206.254037 575.990826,206.347156 578.816514,205.964404 C579.888991,206.017706 580.961468,206.071651 582.033945,206.125596 Z" id="Path" fill="url(#linearGradient-8)"></path>
                            <path d="M189.133578,234.979083 C191.809633,235.959083 192.598257,236.037431 194.933945,237.734128 C196.680734,239.002477 198.177064,240.58422 199.347798,242.39844 C200.518532,244.212018 201.342477,246.227248 201.778532,248.342018 C202.214587,250.456147 202.255046,252.633211 201.897982,254.76211 C201.720092,255.822385 201.442661,256.870459 201.073394,257.879358 C200.703486,258.888899 200.160183,259.825872 199.690092,260.792385 C199.635505,260.904128 199.562936,261.006239 199.499358,261.112844 C199.318257,261.419174 199.13844,261.726147 198.958624,262.033119 C198.719725,262.443486 198.481468,262.853853 198.245138,263.265505 C197.242661,265.019358 196.266514,266.787982 195.323761,268.574587 C193.320092,272.371284 191.456422,276.242477 189.739174,280.177248 C185.588624,289.688257 182.294128,299.571101 179.907706,309.670367 C178.150642,317.106422 176.886789,324.658073 176.12,332.259817 C175.495138,338.453211 175.201651,344.68 175.232477,350.905505 C175.270367,358.329358 175.771927,365.753211 176.74422,373.112844 C177.593211,379.541284 178.80055,385.924771 180.362385,392.218349 C182.333303,400.168807 184.868073,407.97156 187.941009,415.562385 C191.153303,423.493578 194.952569,431.187156 199.294495,438.559633 C205.214312,448.616514 212.141743,458.076147 219.936147,466.752294 C222.736147,469.873394 225.647248,472.891743 228.662385,475.800917 C230.006514,477.098165 231.371835,478.369725 232.755138,479.62844 L234.932844,482.004587 C235.501193,482.916514 236.155596,483.783486 236.637248,484.746789 C237.118257,485.70367 237.512569,486.711927 237.808624,487.745872 C238.404587,489.820183 238.610734,491.990826 238.416789,494.142202 C238.222202,496.293578 237.631376,498.387156 236.673853,500.320183 C235.71633,502.253211 234.408165,503.993578 232.816147,505.451376 C231.224128,506.915596 229.375872,508.065138 227.364495,508.848624 C225.353119,509.63211 223.213945,510.036697 221.054862,510.043119 C218.896422,510.049541 216.755321,509.651376 214.740092,508.874312 C213.736972,508.488991 212.765321,508.013761 211.850183,507.448624 C210.935046,506.883486 210.126514,506.16422 209.272385,505.509174 C209.187615,505.444954 209.114404,505.36789 209.035413,505.297248 C208.870367,505.143119 208.705321,504.995413 208.540275,504.841284 C207.963578,504.314679 207.38945,503.781651 206.818532,503.248624 C203.313394,499.973394 199.92,496.576147 196.646055,493.063303 C189.250459,485.138532 182.467523,476.63578 176.378807,467.670642 C170.505229,459.013761 165.279633,449.920183 160.762385,440.486239 C156.886055,432.394495 153.531835,424.052294 150.729908,415.523853 C147.924128,406.988991 145.672569,398.26789 143.990642,389.437615 C141.539358,376.56789 140.305046,363.466972 140.283853,350.359633 C140.269083,341.653303 140.787982,332.94633 141.845688,324.303578 C142.778807,316.680642 144.131284,309.10844 145.897339,301.633853 C148.896422,288.940734 153.09,276.53211 158.405505,264.621835 C160.680183,259.525321 163.159725,254.52 165.835138,249.621927 C167.062385,247.374862 168.333303,245.152202 169.640183,242.950734 L171.535321,240.34211 C172.316239,239.602936 173.031651,238.789266 173.877431,238.125872 C175.576055,236.792661 177.506514,235.78633 179.571835,235.156972 C180.6,234.843578 181.66156,234.624587 182.729541,234.50578 C183.797523,234.38633 184.878991,234.465321 185.953394,234.445413 C187.01367,234.623303 188.073303,234.801193 189.133578,234.979083 Z" id="Path" fill="url(#linearGradient-9)"></path>
                            <path d="M465.236697,375.501835 C465.525688,375.521101 465.814679,375.527523 466.10367,375.553211 C466.681651,375.604587 467.259633,375.681651 467.831193,375.790826 C469.545872,376.111927 471.209174,376.69633 472.750459,377.505505 C474.291743,378.321101 475.711009,379.361468 476.944037,380.594495 C478.382569,382.033028 479.570642,383.722018 480.431193,385.558716 C481.169725,387.138532 481.670642,388.827523 481.908257,390.555046 C482.145872,392.282569 482.126606,394.042202 481.850459,395.763303 C481.709174,396.623853 481.50367,397.47156 481.240367,398.3 C481.086239,398.781651 480.906422,399.244037 480.733028,399.712844 C480.540367,400.213761 480.341284,400.714679 480.148624,401.215596 C479.204587,403.611009 478.189908,405.980734 477.117431,408.324771 C472.891743,417.501835 467.670642,426.210092 461.569725,434.263303 C456.920183,440.409174 451.750459,446.176147 446.150459,451.474312 C441.237615,456.123853 435.990826,460.420183 430.461468,464.311927 C424.983486,468.165138 419.23578,471.626606 413.263303,474.657798 C407.329358,477.669725 401.170642,480.257798 394.870642,482.389908 C386.894495,485.093578 378.674312,487.058716 370.344954,488.278899 C367.037615,488.76055 363.717431,489.126606 360.384404,489.370642 C358.586239,489.505505 356.788073,489.595413 354.989908,489.666055 L354.675229,489.672477 C354.379817,489.678899 354.090826,489.685321 353.801835,489.685321 C353.217431,489.672477 352.63945,489.633945 352.061468,489.569725 C349.753394,489.3 347.503119,488.56789 345.478899,487.424771 C343.708349,486.422936 342.11633,485.112844 340.795321,483.565138 C339.662477,482.23578 338.730642,480.745872 338.038991,479.146789 C337.231743,477.277982 336.754587,475.274312 336.634495,473.238532 C336.515046,471.209174 336.752661,469.16055 337.334495,467.214679 C337.833486,465.544954 338.582936,463.945872 339.552018,462.500917 C340.844128,460.56789 342.523486,458.898165 344.464862,457.620183 C346.406239,456.342202 348.601284,455.455963 350.886239,455.03211 C351.457798,454.922936 352.03578,454.845872 352.613761,454.800917 C353.121101,454.755963 353.33945,454.755963 353.763303,454.736697 C354.013761,454.730275 354.26422,454.717431 354.521101,454.711009 C354.861468,454.691743 355.201835,454.678899 355.542202,454.659633 C356.800917,454.595413 358.066055,454.505505 359.324771,454.39633 C361.983486,454.158716 364.629358,453.824771 367.262385,453.388073 C373.787156,452.315596 380.209174,450.613761 386.406422,448.321101 C390.625688,446.76055 394.742202,444.923853 398.723853,442.836697 C403.662385,440.242202 408.388991,437.255963 412.852294,433.916514 C421.233028,427.63578 428.676147,420.102752 434.847706,411.638532 C438.604587,406.481651 441.892661,400.990826 444.647706,395.236697 C445.521101,393.43211 446.330275,391.601835 447.094495,389.745872 C447.492661,388.769725 447.877982,387.787156 448.250459,386.798165 L448.577982,385.995413 C448.905505,385.288991 448.976147,385.109174 449.348624,384.434862 C449.778899,383.670642 450.26055,382.944954 450.793578,382.257798 C451.859633,380.877064 453.137615,379.663303 454.563303,378.661468 C456.226606,377.492661 458.095413,376.619266 460.06055,376.092661 C460.901835,375.861468 461.762385,375.700917 462.622936,375.604587 C463.393578,375.514679 463.592661,375.521101 464.363303,375.488991 C464.652294,375.495413 464.947706,375.495413 465.236697,375.501835 Z" id="Path" fill="url(#linearGradient-10)"></path>
                            <path d="M238.458532,380.774312 C239.074404,380.819266 239.229174,380.825688 239.841835,380.902752 C240.760826,381.024771 241.670183,381.217431 242.558349,381.480734 C244.334679,382.007339 246.025596,382.816514 247.547615,383.876147 C249.070275,384.93578 250.42211,386.233028 251.537615,387.710092 C252.095046,388.455046 252.593394,389.238532 253.026881,390.054128 C253.135413,390.259633 253.23945,390.47156 253.339633,390.677064 C253.529083,391.075229 253.612569,391.274312 253.769908,391.640367 C253.858532,391.845872 253.947798,392.044954 254.037064,392.250459 C254.171927,392.558716 254.307431,392.86055 254.44422,393.162385 C254.810917,393.97156 255.185321,394.774312 255.571284,395.570642 C256.196147,396.86789 256.848624,398.145872 257.526789,399.411009 C259.708991,403.488991 262.160917,407.419266 264.860734,411.176147 C268.574587,416.333028 272.755963,421.155963 277.338716,425.561468 C281.684495,429.742202 286.389908,433.550459 291.387523,436.922018 C295.862385,439.946789 300.571651,442.618349 305.45945,444.911009 C307.167064,445.713761 308.895872,446.465138 310.643945,447.17156 C311.476881,447.511927 312.315596,447.833028 313.156881,448.147706 L313.802294,448.404587 C314.013578,448.500917 314.226789,448.590826 314.436789,448.687156 C314.856147,448.886239 315.267156,449.104587 315.669817,449.329358 C317.480826,450.363303 319.102385,451.724771 320.436239,453.330275 C321.91844,455.109174 323.039725,457.183486 323.716606,459.399083 C324.393486,461.621101 324.622752,463.965138 324.388349,466.270642 C324.224587,467.882569 323.834771,469.475229 323.23367,470.977982 C322.632569,472.487156 321.821468,473.906422 320.829266,475.190826 C319.553853,476.841284 317.982385,478.26055 316.209908,479.358716 C314.239633,480.578899 312.028532,481.400917 309.739725,481.76055 C307.680183,482.088073 305.564128,482.043119 303.520642,481.625688 C302.839908,481.490826 302.166881,481.311009 301.507339,481.092661 C301.012844,480.925688 300.526697,480.73945 300.039908,480.553211 C299.345688,480.289908 298.653394,480.013761 297.963028,479.737615 C290.835872,476.886239 283.947615,473.437615 277.388807,469.449541 C270.763853,465.422936 264.476697,460.837615 258.610826,455.76422 C252.53945,450.517431 246.919541,444.744037 241.834587,438.540367 C236.729725,432.304587 232.16367,425.63211 228.205138,418.612844 C226.320917,415.273394 224.574128,411.856881 222.971193,408.369725 C222.6,407.566972 222.236514,406.757798 221.880734,405.942202 C221.673303,405.466972 221.462018,404.991743 221.275138,404.50367 C221.192294,404.291743 221.113303,404.073394 221.038807,403.855046 C220.665688,402.756881 220.402385,401.620183 220.254037,400.477064 C220.045321,398.865138 220.062661,397.227523 220.304128,395.62844 C220.614954,393.566972 221.297615,391.563303 222.311009,389.73945 C223.324404,387.915596 224.665321,386.277982 226.253486,384.922936 C227.487798,383.876147 228.869174,382.99633 230.344954,382.32844 C232.032018,381.557798 233.840459,381.063303 235.682936,380.857798 C236.143394,380.806422 236.60578,380.774312 237.068807,380.761468 C237.300642,380.755046 237.532477,380.761468 237.76367,380.755046 C237.995505,380.761468 238.226697,380.76789 238.458532,380.774312 Z" id="Path" fill="url(#linearGradient-11)"></path>
                            <path d="M90.9011009,300.964037 C91.7385321,301.039174 91.9504587,301.041101 92.7801835,301.184312 C94.0234862,301.398165 95.2436697,301.748165 96.4124771,302.224679 C98.7513761,303.178991 100.873853,304.643211 102.595596,306.491468 C103.671284,307.645505 104.588991,308.945963 105.316606,310.345963 C105.89844,311.465321 106.358899,312.648257 106.686422,313.867156 C107.096147,315.390459 107.297798,316.968991 107.284954,318.546881 C107.282385,318.862202 107.271468,319.177523 107.25156,319.492844 C107.216239,320.06055 107.171927,320.387431 107.112202,320.905046 C107.076881,321.207523 107.042202,321.510642 107.008165,321.813761 C106.957431,322.267798 106.907339,322.722477 106.858532,323.177156 C106.486055,326.682294 106.180367,330.193211 105.951743,333.71055 C105.721193,337.263211 105.56578,340.820367 105.486147,344.378807 C105.443761,346.25789 105.425138,348.136972 105.423211,350.019266 C105.419358,354.007339 105.504771,357.995413 105.691651,361.983486 C106.035229,369.323853 106.709541,376.644954 107.714587,383.921101 C109.428624,396.334862 112.107248,408.613761 115.71578,420.616514 C117.301376,425.882569 119.066147,431.10367 121.004954,436.254128 C121.906606,438.655963 122.848716,441.038532 123.823578,443.401835 L124.15945,444.288073 C124.25578,444.589908 124.359817,444.885321 124.447798,445.187156 C124.623119,445.797248 124.76633,446.413761 124.875505,447.030275 C125.312202,449.522018 125.201743,452.097248 124.553761,454.537615 C123.90578,456.977982 122.723486,459.270642 121.110275,461.216514 C119.698716,462.918349 117.964771,464.344037 116.024037,465.397248 C114.638807,466.155046 113.151468,466.720183 111.614679,467.079817 C110.07789,467.433028 108.492936,467.580734 106.916972,467.510092 C105.025046,467.433028 103.148532,467.041284 101.381835,466.36055 C99.320367,465.56422 97.4143119,464.376147 95.7933945,462.873394 C94.4036697,461.588991 93.2265138,460.079817 92.3210092,458.416514 C92.1700917,458.133945 92.0262385,457.857798 91.8907339,457.568807 C91.6646789,457.1 91.5362385,456.778899 91.353211,456.33578 C91.1945872,455.950459 91.0372477,455.558716 90.8805505,455.173394 C90.3057798,453.754128 89.7419266,452.334862 89.1902752,450.909174 C86.2136697,443.209174 83.5787156,435.374312 81.2976147,427.443119 C78.9118349,419.145872 76.9126606,410.73945 75.310367,402.255963 C73.576422,393.078899 72.306789,383.811927 71.5059633,374.506422 C71.0307339,368.989908 70.7205505,363.454128 70.5734862,357.911927 C70.5041284,355.272477 70.4733028,352.626606 70.4758716,349.983303 C70.4777982,348.208899 70.4925688,346.434495 70.5259633,344.660734 C70.5914679,341.129266 70.7231193,337.599083 70.919633,334.07211 C71.1341284,330.231743 71.4256881,326.395872 71.7936697,322.567706 C71.976055,320.666789 72.179633,318.769083 72.3986239,316.872018 L72.4570642,316.372385 C72.577156,315.540092 72.5906422,315.328165 72.7781651,314.507431 C73.0594495,313.277615 73.4749541,312.077982 74.0137615,310.936789 C74.9584404,308.939541 76.2833028,307.125963 77.8997248,305.62 C79.7479817,303.897615 81.9680734,302.586239 84.3686239,301.799541 C85.5676147,301.406514 86.809633,301.143853 88.0651376,301.017982 C88.9025688,300.933211 89.1144954,300.946697 89.9551376,300.930642 C90.2704587,300.94156 90.5857798,300.953119 90.9011009,300.964037 Z" id="Path" fill="url(#linearGradient-12)"></path>
                            <path d="M677.182569,271.981468 C678.049541,272.041835 678.26789,272.038624 679.134862,272.172202 C680.104587,272.321835 681.055046,272.553028 681.986239,272.863211 C684.156881,273.586972 686.179817,274.739725 687.913761,276.239266 C689.641284,277.738165 691.066972,279.578073 692.088073,281.624771 C692.678899,282.79422 693.12844,284.028532 693.436697,285.298165 C693.57156,285.840826 693.63578,286.215229 693.73211,286.728349 C693.822018,287.213853 693.911927,287.699358 693.995413,288.184862 C694.233028,289.482752 694.457798,290.782569 694.676147,292.08367 C695.690826,298.127431 696.544954,304.198807 697.23211,310.288807 C698.574312,322.122018 699.3,334.023945 699.434862,345.931651 C699.531193,354.23211 699.338532,362.53578 698.844037,370.820183 C698.221101,381.410092 697.122936,391.974312 695.536697,402.461468 C694.36789,410.23211 692.93578,417.96422 691.240367,425.638532 C690.77156,427.757798 690.289908,429.870642 689.782569,431.983486 C689.679817,432.400917 689.577064,432.824771 689.474312,433.242202 C689.33945,433.794495 689.230275,434.250459 689.063303,434.809174 C688.774312,435.746789 688.408257,436.658716 687.97156,437.53211 C687.23945,438.99633 686.301835,440.351376 685.190826,441.552294 C684.079817,442.753211 682.808257,443.793578 681.408257,444.641284 C679.449541,445.829358 677.259633,446.619266 674.999083,446.972477 C672.738532,447.319266 670.413761,447.210092 668.191743,446.670642 C666.284404,446.201835 664.46055,445.411927 662.816514,444.33945 C661.172477,443.266972 659.714679,441.918349 658.513761,440.370642 C657.319266,438.816514 656.388073,437.063303 655.77156,435.200917 C655.045872,433.030275 654.763303,430.718349 654.923853,428.43211 C654.975229,427.783486 655.058716,427.134862 655.174312,426.492661 C655.289908,425.895413 655.392661,425.510092 655.527523,424.951376 C655.617431,424.572477 655.707339,424.193578 655.80367,423.814679 C655.938532,423.249541 656.073394,422.677982 656.208257,422.106422 C657.049541,418.490826 657.83945,414.855963 658.558716,411.208257 C659.926606,404.246789 661.063303,397.240367 661.962385,390.201835 C663.779817,375.96422 664.621101,361.598165 664.499083,347.24367 C664.402752,335.76367 663.69633,324.288807 662.354128,312.886514 C661.833945,308.455963 661.217431,304.036972 660.504587,299.633394 C660.125688,297.291927 659.714679,294.956239 659.284404,292.623761 L659.130275,291.655963 C659.046789,290.788991 659.001835,290.572569 658.988991,289.701101 C658.969725,288.39422 659.098165,287.085413 659.374312,285.806789 C659.778899,283.888532 660.511009,282.04156 661.53211,280.365413 C662.379817,278.969266 663.426606,277.693211 664.627523,276.586697 C666.066055,275.257982 667.73578,274.175872 669.533945,273.398807 C671.036697,272.750826 672.629358,272.314771 674.247706,272.107982 C675.114679,271.997523 675.333028,272.006514 676.2,271.968624 C676.527523,271.973119 676.855046,271.977615 677.182569,271.981468 Z" id="Path" fill="url(#linearGradient-13)"></path>
                            <path d="M261.834037,248.948257 C262.090917,248.970734 262.34844,248.987431 262.604037,249.015688 C263.116514,249.07156 263.626422,249.15055 264.131835,249.252018 C265.901101,249.605872 267.613853,250.235872 269.191101,251.112477 C270.768349,251.989083 272.207523,253.111009 273.442477,254.426881 C274.854037,255.930917 275.995229,257.684771 276.797982,259.585046 C277.499908,261.247064 277.942385,263.016972 278.104862,264.814495 C278.266697,266.611376 278.148532,268.432661 277.755505,270.193578 C277.24945,272.458624 276.288716,274.617064 274.943945,276.508991 C274.645321,276.928991 274.328073,277.335505 273.993486,277.72789 C273.625505,278.15945 273.231193,278.569174 272.846514,278.985963 C272.642936,279.208165 272.439358,279.431651 272.237064,279.655138 C270.754862,281.299174 269.320183,282.984954 267.941376,284.71633 C265.37,287.945963 262.988716,291.326514 260.813578,294.834862 C258.149083,299.134404 255.796055,303.626606 253.781468,308.266514 C251.744404,312.95844 250.054771,317.801284 248.731193,322.742385 C247.187982,328.502936 246.143119,334.395138 245.603028,340.33422 C245.418716,342.360367 245.293486,344.392294 245.225413,346.425505 C245.185596,347.621284 245.168257,348.817064 245.16633,350.012844 L245.16633,352.119266 C245.16055,352.376147 245.16055,352.633028 245.148991,352.889908 C245.126514,353.410092 245.080917,353.923853 245.012202,354.431193 C244.739266,356.479817 244.10156,358.470642 243.136972,360.294495 C242.293119,361.887156 241.200734,363.351376 239.911193,364.610092 C238.066789,366.414679 235.82422,367.801835 233.38578,368.636697 C230.946697,369.477982 228.327156,369.773394 225.763486,369.484404 C224.226697,369.317431 222.713028,368.938532 221.274495,368.373394 C219.356239,367.615596 217.576055,366.517431 216.038624,365.136697 C214.309817,363.588991 212.895688,361.700917 211.902202,359.600917 C211.128991,357.969725 210.611376,356.222936 210.373119,354.431193 C210.304404,353.923853 210.258807,353.410092 210.23633,352.889908 C210.224771,352.633028 210.224771,352.376147 210.218991,352.119266 C210.218991,351.27156 210.218349,350.417431 210.219633,349.56844 C210.226055,348.133119 210.249817,346.69844 210.297982,345.263761 C210.378257,342.845229 210.520826,340.428624 210.725046,338.017156 C211.316514,331.045413 212.42945,324.117982 214.057431,317.313211 C216.12789,308.663394 219.031927,300.214587 222.716881,292.119633 C226.399266,284.028532 230.859358,276.293211 236.010459,269.04789 C238.493211,265.556239 241.135229,262.178899 243.925596,258.928073 C244.884404,257.811927 245.859908,256.711193 246.852752,255.625229 C247.123119,255.329817 247.394771,255.035046 247.667706,254.74156 C247.941284,254.447431 248.163486,254.20789 248.464679,253.912477 C249.01633,253.371101 249.604587,252.86633 250.223028,252.402661 C251.254404,251.62945 252.371193,250.971835 253.547064,250.443945 C254.957982,249.810734 256.452385,249.365688 257.980183,249.124862 C258.743761,249.004771 259.515688,248.934771 260.288899,248.916789 C260.546422,248.910367 260.803945,248.916147 261.061468,248.915505 C261.318991,248.926422 261.576514,248.937339 261.834037,248.948257 Z" id="Path" fill="url(#linearGradient-14)"></path>
                            <path d="M87.083211,134.173303 C88.1190826,134.461651 89.1851376,134.656239 90.1895413,135.038349 C92.2073394,135.807064 94.0645872,136.943119 95.6681651,138.388716 C97.2717431,139.834312 98.5933945,141.564404 99.5663303,143.491651 C100.539266,145.418899 101.146789,147.509908 101.357431,149.658073 C101.568716,151.806881 101.379908,153.976239 100.800642,156.055688 C100.512294,157.090917 100.12633,158.104312 99.6523853,159.068899 C99.1784404,160.033486 98.5400917,160.908165 97.9704587,161.81945 C97.9004587,161.931193 97.8131193,162.030092 97.7347706,162.135413 C97.6577064,162.238165 97.5812844,162.340917 97.5048624,162.44367 C97.2755963,162.751927 97.0469725,163.060826 96.8189908,163.370367 C96.4388073,163.885413 96.0599083,164.401743 95.6829358,164.919358 C92.5143119,169.273486 89.4516514,173.704037 86.507156,178.212294 C81.0940367,186.499908 76.0707339,195.043119 71.4622936,203.804037 C66.8885321,212.498807 62.723211,221.408716 58.9868807,230.494587 C54.5730275,241.229633 50.7577064,252.211284 47.5666055,263.370826 C42.8207339,279.968532 39.4588073,296.957982 37.5110092,314.109908 C36.6234862,321.927431 36.0288073,329.778349 35.7256881,337.640183 C35.5773394,341.482477 35.5009174,345.326697 35.4880734,349.172202 L35.4874312,349.586422 L35.4874312,350.012844 L35.1875229,353.223853 C34.8927523,354.257798 34.6917431,355.323853 34.303211,356.325688 C33.9140367,357.327523 33.4304587,358.297248 32.8640367,359.209174 C31.726055,361.045872 30.2579817,362.651376 28.5343119,363.948624 C26.8106422,365.252294 24.8609174,366.222018 22.7840367,366.806422 C20.707156,367.397248 18.5390826,367.59633 16.389633,367.397248 C14.2401835,367.198165 12.1466055,366.600917 10.2148624,365.637615 C8.28247706,364.674312 6.5459633,363.357798 5.09266055,361.765138 C3.6393578,360.166055 2.49431193,358.316514 1.7159633,356.3 C1.32807339,355.298165 1.03266055,354.257798 0.835504587,353.198165 C0.638990826,352.144954 0.626788991,351.059633 0.540091743,349.98844 C0.539449541,349.978807 0.541376147,349.08422 0.541376147,349.082294 C0.54266055,348.623761 0.544587156,348.165229 0.547798165,347.706697 C0.56706422,344.660092 0.626146789,341.613486 0.723761468,338.568165 C1.13926606,325.648991 2.26247706,312.752936 4.09853211,299.958349 C6.25376147,284.93789 9.39027523,270.058716 13.4888073,255.448624 C17.7941284,240.099358 23.1597248,225.049358 29.5322936,210.437339 C36.2901835,194.943578 44.1789908,179.944954 53.1094495,165.593028 C56.5715596,160.028349 60.1910092,154.561284 63.9594495,149.199541 C65.9213761,146.408532 67.9250459,143.647706 69.9653211,140.914495 L72.1244037,138.519083 C72.9785321,137.866606 73.7761468,137.132569 74.686789,136.561651 C76.516422,135.415321 78.5419266,134.617706 80.6618349,134.209266 C81.7176147,134.005688 82.8016514,133.998624 83.8709174,133.893945 C84.9421101,133.987064 86.0126606,134.080183 87.083211,134.173303 Z" id="Path" fill="url(#linearGradient-15)"></path>
                            <path d="M350.411009,210.187523 C352.318349,210.196514 354.225688,210.238257 356.133028,210.321101 C359.909174,210.484862 363.672477,210.800826 367.422936,211.267706 C377.145872,212.480826 386.740367,214.720826 395.994495,217.945963 C405.569725,221.282202 414.772477,225.671009 423.397248,231.000642 C432.50367,236.630826 440.961468,243.310367 448.558716,250.860734 C455.956881,258.215872 462.533028,266.394312 468.120183,275.202752 C473.617431,283.872477 478.157798,293.149725 481.625688,302.815505 C484.682569,311.352294 486.898165,320.188349 488.240367,329.157339 C488.792661,332.874404 489.197248,336.614587 489.454128,340.365046 C489.569725,342.105413 489.653211,343.848349 489.711009,345.592569 L489.511927,348.810642 C489.248624,349.853578 489.088073,350.924771 488.72844,351.93945 C488.015596,353.975229 486.923853,355.863303 485.523853,357.500917 C484.117431,359.144954 482.422018,360.512844 480.527523,361.533945 C479.577064,362.041284 478.581651,362.465138 477.554128,362.792661 C475.499083,363.447706 473.341284,363.717431 471.183486,363.588991 C469.03211,363.46055 466.919266,362.927523 464.954128,362.02844 C462.995413,361.129358 461.216514,359.870642 459.707339,358.322936 C458.204587,356.775229 457.00367,354.957798 456.155963,352.973394 C455.738532,351.984404 455.411009,350.950459 455.179817,349.901101 C454.948624,348.851101 454.910092,347.767706 454.775229,346.701009 C454.768807,346.361927 454.755963,346.022202 454.743119,345.683119 C454.685321,344.258716 454.601835,342.836239 454.486239,341.415688 C454.274312,338.719083 453.953211,336.030826 453.529358,333.359266 C452.399083,326.253303 450.530275,319.265505 447.961468,312.544862 C446.43945,308.559358 444.666972,304.668257 442.669725,300.899174 C439.76055,295.425046 436.363303,290.211009 432.53578,285.335413 C428.977982,280.798257 425.047706,276.553945 420.789908,272.658991 C415.922018,268.200826 410.636697,264.198624 405.023853,260.728165 C401.048624,258.27367 396.912844,256.084404 392.648624,254.18156 C387.96055,252.087982 383.111927,250.342477 378.166972,248.964954 C373.119266,247.560459 367.968807,246.538716 362.773394,245.906789 C356.133028,245.099541 349.409174,244.926147 342.732844,245.378257 C335.255046,245.884312 327.833761,247.189908 320.636606,249.282844 C317.554037,250.178716 314.513211,251.21844 311.526972,252.396881 C310.040917,252.982569 308.570275,253.605505 307.111835,254.256697 L306.800367,254.396697 L306.463211,254.550183 L303.417248,255.60789 C302.354404,255.767798 301.301193,256.025963 300.228073,256.087615 C299.154954,256.148624 298.072202,256.110092 297.006147,255.973303 C294.864404,255.697798 292.792661,255.027982 290.895596,253.99789 C288.998532,252.967798 287.308257,251.594771 285.911468,249.948807 C284.514679,248.302844 283.435138,246.412202 282.726789,244.372569 C282.37422,243.357248 282.114771,242.304679 281.954862,241.241835 C281.633761,239.107156 281.710826,236.931376 282.182844,234.824312 C282.65422,232.71789 283.512202,230.716789 284.713119,228.922477 C285.914037,227.128807 287.436697,225.572752 289.204679,224.333303 C290.085138,223.716789 291.07156,223.267248 292.004679,222.73422 C292.272477,222.612202 292.540917,222.490826 292.809358,222.370092 C293.781651,221.935963 294.757798,221.509541 295.739083,221.095963 C297.848073,220.207798 299.979541,219.371009 302.129633,218.587523 C308.357064,216.318624 314.746972,214.497982 321.235138,213.142294 C327.231376,211.889358 333.310459,211.033945 339.419083,210.578624 C341.486972,210.424495 343.557431,210.315963 345.629817,210.253028 C346.75367,210.218349 347.877523,210.199725 349.001376,210.190092 C349.471468,210.188165 349.940917,210.186881 350.411009,210.187523 Z" id="Path" fill="url(#linearGradient-16)"></path>
                            <path d="M486.397248,196.64156 C486.66055,196.653119 486.917431,196.659541 487.180734,196.677523 C487.96422,196.730826 488.741284,196.837431 489.511927,196.995413 C491.817431,197.47 494.020183,198.414679 495.953211,199.756881 C496.595413,200.204495 497.211927,200.695138 497.789908,201.224954 C498.117431,201.52422 498.355046,201.764404 498.650459,202.064312 C498.855963,202.271101 499.061468,202.47789 499.266972,202.685321 C500.390826,203.826514 501.508257,204.98055 502.606422,206.147431 C506.010092,209.755321 509.291743,213.482661 512.43211,217.321743 C518.269725,224.453394 523.638532,231.96844 528.487156,239.804587 C533.444954,247.817982 537.863303,256.166606 541.697248,264.776606 C544.901835,271.979541 547.695413,279.36422 550.065138,286.884404 C550.829358,289.31578 551.548624,291.761284 552.222936,294.218991 C552.621101,295.671009 553.006422,297.127523 553.372477,298.58789 L553.481651,299.00789 C553.533028,299.262844 553.597248,299.516514 553.655046,299.772752 C553.757798,300.285229 553.834862,300.80156 553.892661,301.321743 C554.123853,303.401193 553.976147,305.519174 553.462385,307.546606 C553.012844,309.321009 552.280734,311.02156 551.304587,312.569908 C550.052294,314.561376 548.388991,316.290826 546.455963,317.628532 C544.734862,318.816606 542.795413,319.691284 540.766055,320.199266 C539.244037,320.57945 537.670642,320.754128 536.10367,320.716239 C534.016514,320.665505 531.93578,320.235872 529.99633,319.45367 C527.812844,318.573853 525.815596,317.249633 524.152294,315.581835 C522.488991,313.914679 521.172477,311.911009 520.299083,309.724954 C520.106422,309.23945 519.933028,308.744954 519.785321,308.244037 C519.644037,307.785505 519.586239,307.527339 519.477064,307.104128 C519.419266,306.862018 519.355046,306.62055 519.297248,306.37844 C519.200917,306.014312 519.111009,305.650183 519.014679,305.286697 C518.565138,303.59578 518.09633,301.911284 517.601835,300.234495 C516.542202,296.660642 515.373394,293.121468 514.088991,289.624037 C510.813761,280.733394 506.812844,272.113119 502.137615,263.876239 C496.955046,254.751193 490.950459,246.097523 484.220183,238.046239 C481.959633,235.338073 479.615596,232.698624 477.194495,230.131101 C476.019266,228.887798 474.824771,227.663119 473.617431,226.452569 L473.077982,225.885505 C472.904587,225.688349 472.731193,225.495046 472.56422,225.294679 C472.223853,224.892661 471.909174,224.475872 471.613761,224.046239 C470.573394,222.540275 469.770642,220.871835 469.244037,219.117982 C468.794495,217.615229 468.550459,216.05211 468.518349,214.483853 C468.473394,212.392202 468.807339,210.296055 469.500917,208.321927 C470.277982,206.10055 471.511009,204.043578 473.10367,202.307706 C474.336697,200.957798 475.788073,199.805046 477.380734,198.903394 C479.198165,197.873303 481.201835,197.173945 483.269725,196.848991 C483.789908,196.767431 484.310092,196.709633 484.830275,196.674954 C485.087156,196.657615 485.350459,196.651835 485.613761,196.640275 C485.877064,196.640917 486.133945,196.640917 486.397248,196.64156 Z" id="Path" fill="url(#linearGradient-17)"></path>
                            <path d="M208.659725,112.267156 C208.985963,112.290275 209.312202,112.304404 209.637798,112.336514 C210.288349,112.401376 210.934404,112.502202 211.573394,112.638991 C213.491009,113.05 215.336697,113.785963 217.010917,114.807064 C218.406422,115.657982 219.68055,116.704771 220.785138,117.908899 C221.890367,119.112385 222.824771,120.471284 223.55367,121.93422 C224.574128,123.982844 225.185505,126.229266 225.344128,128.512294 C225.502752,130.795321 225.207982,133.105321 224.481009,135.275321 C223.96211,136.824954 223.224862,138.300092 222.296881,139.645505 C221.555138,140.721193 220.692018,141.713394 219.728716,142.597706 C219.247064,143.039541 218.741651,143.454404 218.213119,143.839725 C217.757798,144.171743 217.523394,144.318165 217.116881,144.581468 C216.745688,144.822294 216.374495,145.064404 216.003945,145.307156 C215.634037,145.549908 215.264771,145.793945 214.896147,146.037982 C212.593853,147.567706 210.315963,149.132752 208.06633,150.738257 C203.752661,153.815688 199.538532,157.032477 195.432936,160.382844 C183.816147,169.861743 173.069541,180.404771 163.369725,191.837248 C157.083853,199.24633 151.23789,207.02789 145.872936,215.129266 C140.423853,223.359083 135.472477,231.918349 131.057339,240.746697 C127.109725,248.641284 123.590459,256.750367 120.523303,265.027064 C119.035321,269.041468 117.657156,273.095688 116.380459,277.182018 L116.062569,278.109358 C115.939266,278.411835 115.824312,278.717523 115.692661,279.016789 C115.428716,279.614679 115.132018,280.197798 114.803211,280.762936 C113.651743,282.740917 112.110459,284.48578 110.289817,285.872936 C108.729908,287.061009 106.969633,287.983211 105.104679,288.58945 C103.55055,289.094862 101.926422,289.380642 100.293303,289.435872 C97.6782569,289.524495 95.0522936,289.017798 92.6575229,287.963303 C90.2627523,286.908165 88.1165138,285.312294 86.4172477,283.323394 C84.9305505,281.583028 83.7919266,279.551743 83.0848624,277.375321 C82.5794495,275.821193 82.2936697,274.197064 82.2384404,272.563945 C82.1941284,271.257706 82.2968807,269.94633 82.5447706,268.663211 C82.606422,268.34211 82.6770642,268.022936 82.7573394,267.70633 C82.8883486,267.186147 82.9904587,266.86633 83.1349541,266.404587 C83.2120183,266.157982 83.2897248,265.911376 83.3674312,265.665413 C83.7559633,264.436239 84.1534862,263.208991 84.5593578,261.984954 C87.5854128,252.858624 91.086055,243.889633 95.0413761,235.126147 C101.617523,220.553303 109.452385,206.550092 118.422661,193.315596 C126.485505,181.422018 135.463486,170.150092 145.250642,159.628899 C155.371101,148.75 166.354679,138.67578 178.066514,129.53211 C182.443119,126.115596 186.92055,122.82945 191.492385,119.678807 C193.573761,118.244128 195.675046,116.839633 197.79367,115.460826 L198.11156,115.254679 C198.520642,114.98945 198.778165,114.818624 199.257248,114.545688 C199.541101,114.383853 199.82945,114.229725 200.122294,114.083945 C201.584587,113.355688 203.148991,112.833578 204.756422,112.538807 C205.399266,112.420642 206.048532,112.33844 206.700367,112.293486 C207.026606,112.270367 207.353486,112.266514 207.679725,112.253028 C208.006606,112.257523 208.333486,112.262661 208.659725,112.267156 Z" id="Path" fill="url(#linearGradient-18)"></path>
                            <path d="M586.047706,97.7309174 C586.362385,97.7649541 586.677064,97.7906422 586.985321,97.8330275 C587.614679,97.9184404 588.231193,98.0372477 588.841284,98.1894495 C590.986239,98.7224771 593.02844,99.6652294 594.820183,100.954128 C595.333945,101.322752 595.82844,101.718349 596.297248,102.139633 C596.714679,102.513394 597.029358,102.834495 597.414679,103.219817 C597.562385,103.366881 597.70367,103.513303 597.851376,103.660367 C599.020183,104.836881 600.182569,106.021743 601.338532,107.214954 C607.53578,113.627982 613.495413,120.277339 619.191743,127.144404 C627.148624,136.744679 634.598165,146.770092 641.488991,157.164128 C648.99633,168.47844 655.83578,180.231376 661.968807,192.342661 C666.721101,201.725229 671.043119,211.322936 674.92844,221.096606 C676.334862,224.635138 677.683486,228.196789 678.96789,231.778991 C679.616514,233.574587 680.245872,235.375963 680.862385,237.181193 L681.061468,237.768807 C681.157798,238.070642 681.254128,238.369266 681.344037,238.673028 C681.511009,239.28055 681.652294,239.897064 681.755046,240.519358 C682.114679,242.698991 682.063303,244.944128 681.594495,247.103211 C681.26055,248.645138 680.714679,250.140183 679.982569,251.53633 C678.800917,253.771193 677.137615,255.741468 675.133945,257.275688 C673.123853,258.809908 670.786239,259.899083 668.320183,260.448807 C666.477064,260.861101 664.563303,260.970275 662.675229,260.77055 C660.478899,260.538073 658.333945,259.884954 656.375229,258.855505 C654.981651,258.120183 653.684404,257.195413 652.534862,256.113303 C651.16055,254.815413 649.991743,253.292752 649.105505,251.622385 C648.80367,251.065596 648.540367,250.492752 648.302752,249.907064 C648.084404,249.363119 647.968807,248.990642 647.782569,248.462752 C647.66055,248.101193 647.538532,247.740275 647.416514,247.379358 C647.230275,246.839266 647.037615,246.299174 646.851376,245.759083 C645.900917,243.065046 644.918349,240.382569 643.897248,237.714862 C641.93211,232.575963 639.83211,227.489725 637.597248,222.461927 C631.637615,209.035413 624.721101,196.030183 616.931193,183.571468 C608.601835,170.24 599.26422,157.534679 589.033945,145.59422 C585.636697,141.62156 582.130275,137.73367 578.540367,133.935688 C576.478899,131.761835 574.391743,129.61945 572.272477,127.503394 L571.623853,126.816239 C571.077982,126.175321 570.930275,126.025046 570.43578,125.341743 C569.331193,123.80367 568.483486,122.086422 567.924771,120.276697 C567.462385,118.768807 567.205505,117.197982 567.16055,115.620734 C567.089908,113.096239 567.577982,110.563394 568.579817,108.243119 C569.446789,106.213119 570.711927,104.354587 572.272477,102.79211 C573.608257,101.453119 575.168807,100.334404 576.86422,99.4931193 C578.559633,98.6518349 580.389908,98.0892661 582.265138,97.8336697 C582.894495,97.7482569 583.523853,97.6968807 584.153211,97.6795413 C584.46789,97.6711927 584.782569,97.6795413 585.10367,97.6795413 C585.418349,97.6968807 585.733028,97.713578 586.047706,97.7309174 Z" id="Path" fill="url(#linearGradient-19)"></path>
                            <path d="M303.893761,146.195963 C304.153853,146.21844 304.415229,146.23578 304.674679,146.264037 C305.194862,146.321193 305.711193,146.401468 306.224312,146.504862 C308.531743,146.971101 310.738991,147.907431 312.677798,149.242569 C313.969266,150.132018 315.14,151.196789 316.148899,152.397706 C317.157156,153.599266 318.002936,154.93633 318.655413,156.363303 C319.525596,158.265505 320.050275,160.322477 320.196697,162.409633 C320.343119,164.496789 320.111284,166.607064 319.515321,168.612661 C318.993211,170.367156 318.194954,172.036881 317.156514,173.544771 C316.267064,174.836239 315.202294,176.006972 314.001376,177.015872 C312.799817,178.024128 311.462752,178.869908 310.03578,179.522385 C309.322936,179.848624 308.587615,180.126697 307.837523,180.354679 C307.380275,180.493394 307.121468,180.554404 306.699541,180.662294 C306.457431,180.724587 306.215321,180.787523 305.973211,180.850459 C305.610367,180.945505 305.248165,181.041193 304.885963,181.137523 C303.198899,181.590275 301.518257,182.065505 299.845963,182.567064 C296.637523,183.529083 293.457339,184.582936 290.309908,185.727982 C281.194495,189.044954 272.357798,193.123578 263.92055,197.908624 C254.922661,203.010917 246.380734,208.915321 238.425138,215.525505 C235.622569,217.854128 232.892569,220.270092 230.240917,222.768899 C228.910275,224.022477 227.600826,225.29789 226.308073,226.591284 L225.741651,227.133303 C225.544495,227.305413 225.351835,227.482018 225.151468,227.648991 C224.750092,227.98422 224.333945,228.301468 223.90367,228.59945 C222.184495,229.791376 220.251468,230.669908 218.223394,231.181101 C216.702018,231.565138 215.129908,231.742385 213.561651,231.707706 C211.207982,231.655688 208.871009,231.122661 206.727339,230.149725 C204.58367,229.176789 202.643578,227.767798 201.054771,226.030642 C199.819817,224.680092 198.799358,223.134954 198.042202,221.46844 C197.176514,219.564312 196.656972,217.505413 196.515688,215.418257 C196.357064,213.069725 196.678165,210.693578 197.455229,208.47156 C198.145596,206.496789 199.193028,204.649817 200.533303,203.04367 C200.700917,202.842661 200.873028,202.645505 201.048991,202.452844 C201.348257,202.125321 201.587156,201.888991 201.886422,201.589725 C202.092569,201.38422 202.299358,201.178716 202.506147,200.973853 C203.23055,200.256514 203.960092,199.544954 204.694771,198.83789 C209.313486,194.395138 214.135138,190.16367 219.139817,186.161468 C226.550183,180.234587 234.361927,174.811193 242.505688,169.941376 C249.817798,165.568624 257.396422,161.642844 265.186972,158.193578 C272.237064,155.071835 279.46055,152.34055 286.812477,150.015138 C289.23422,149.248991 291.670734,148.527156 294.11945,147.849633 C295.419908,147.489358 296.724862,147.143853 298.031743,146.807339 L298.449817,146.700734 C298.704771,146.642294 298.95844,146.577431 299.214037,146.524128 C299.725872,146.418165 300.242844,146.334679 300.761743,146.274954 C301.281284,146.214587 301.803394,146.177982 302.326147,146.165138 C302.587523,146.158716 302.848899,146.163853 303.110275,146.162569 C303.371009,146.174128 303.632385,146.185046 303.893761,146.195963 Z" id="Path" fill="url(#linearGradient-20)"></path>
                            <path d="M350.488073,140.315963 C351.708257,140.319817 352.922018,140.331376 354.13578,140.354495 C357.006422,140.409725 359.877064,140.522752 362.747706,140.693578 C370.775229,141.172661 378.777064,142.109633 386.701835,143.504495 C395.204587,145.001468 403.611009,147.025046 411.863303,149.564954 C420.545872,152.237156 429.048624,155.480275 437.307339,159.266055 C442.766055,161.767431 448.115596,164.505138 453.336697,167.468899 C454.20367,167.960826 455.070642,168.459817 455.924771,168.964587 C456.175229,169.109083 456.419266,169.25422 456.663303,169.399358 C457.03578,169.620275 457.331193,169.791101 457.710092,170.043486 C458.166055,170.344037 458.609174,170.66578 459.03945,171.008073 C460.953211,172.548073 462.53945,174.493303 463.656881,176.683853 C464.530275,178.386972 465.114679,180.232018 465.390826,182.124587 C465.583486,183.47578 465.622018,184.850092 465.5,186.210275 C465.377982,187.570459 465.088991,188.915229 464.658716,190.209908 C463.868807,192.541101 462.590826,194.698257 460.921101,196.503486 C459.80367,197.705688 458.525688,198.75055 457.119266,199.59633 C455.481651,200.584037 453.683486,201.29945 451.814679,201.706606 C450.215596,202.055321 448.565138,202.177339 446.927523,202.067523 C445.289908,201.957706 443.67156,201.616697 442.130275,201.057339 C441.366055,200.777982 440.614679,200.444037 439.888991,200.059358 C439.452294,199.827523 439.233945,199.692018 438.855046,199.467248 C438.546789,199.286147 438.244954,199.10633 437.936697,198.926514 C437.525688,198.687615 437.114679,198.45 436.70367,198.213028 C434.950459,197.211193 433.184404,196.23633 431.399083,195.294862 C427.815596,193.404862 424.16789,191.640734 420.462385,190.006972 C410.649541,185.680459 400.438532,182.271009 389.99633,179.834495 C381.583486,177.871927 373.022936,176.540642 364.417431,175.842569 C361.277064,175.588257 358.136697,175.418073 354.989908,175.330734 C353.333028,175.285138 351.669725,175.264587 350.012844,175.262661 L349.194037,175.24211 C348.921743,175.222844 348.648807,175.21 348.376514,175.18367 C347.833211,175.132294 347.291835,175.055229 346.754954,174.952477 C344.876514,174.594128 343.059725,173.924954 341.397064,172.979633 C339.258532,171.764587 337.385872,170.095505 335.932569,168.110459 C334.479908,166.125413 333.454954,163.835963 332.941835,161.429633 C332.600826,159.826697 332.485872,158.176881 332.603394,156.541835 C332.720275,154.907431 333.068349,153.289725 333.634771,151.751651 C334.39,149.700459 335.532477,147.79633 336.986422,146.163853 C338.441009,144.532018 340.201927,143.178257 342.152936,142.192477 C343.859908,141.330642 345.707523,140.751376 347.601376,140.485505 C348.14211,140.409083 348.686697,140.358991 349.231927,140.333945 C349.504862,140.321101 349.77844,140.321743 350.051376,140.315321 C350.199083,140.315321 350.340367,140.315963 350.488073,140.315963 Z" id="Path" fill="url(#linearGradient-21)"></path>
                            <path d="M451.506422,90.443211 C451.788991,90.4656881 452.065138,90.4811009 452.347706,90.5106422 C453.188991,90.5979817 454.017431,90.7463303 454.83945,90.9544037 C455.385321,91.0931193 455.924771,91.2581651 456.451376,91.4482569 C456.920183,91.6158716 457.286239,91.7712844 457.729358,91.9562385 C458.230275,92.1649541 458.731193,92.3755963 459.23211,92.5875229 C460.895413,93.2933028 462.558716,94.0151376 464.209174,94.7536697 C471.607339,98.0629358 478.86422,101.697798 485.947706,105.643486 C495.490826,110.960917 504.725688,116.84156 513.581651,123.241743 C522.546789,129.72156 531.126606,136.733119 539.269725,144.225046 C545.434862,149.898257 551.343119,155.84633 556.975229,162.044862 C559.017431,164.288073 561.021101,166.564037 562.986239,168.871468 C564.026606,170.093578 565.054128,171.325321 566.075229,172.563486 L566.409174,172.96422 C566.582569,173.18578 566.755963,173.403486 566.929358,173.629541 C567.263303,174.081651 567.577982,174.549174 567.866972,175.031468 C569.029358,176.961284 569.812844,179.113945 570.166055,181.340459 C570.474312,183.287615 570.442202,185.284862 570.088991,187.223028 C569.780734,188.884404 569.234862,190.500183 568.46422,192.004862 C567.565138,193.76 566.370642,195.360367 564.944954,196.718624 C563.512844,198.076881 561.855963,199.189817 560.057798,199.997064 C558.516514,200.688716 556.872477,201.154954 555.202752,201.377156 C552.96789,201.673211 550.681651,201.532569 548.498165,200.96422 C547.136697,200.609725 545.820183,200.089541 544.580734,199.419083 C543.341284,198.747982 542.185321,197.92789 541.144954,196.980642 C540.727523,196.601743 540.329358,196.202936 539.950459,195.785505 C539.60367,195.400183 539.404587,195.146514 539.089908,194.770826 C538.890826,194.528716 538.691743,194.28789 538.492661,194.047064 C538.197248,193.686147 537.895413,193.326514 537.593578,192.967523 C535.988073,191.053119 534.350459,189.159908 532.687156,187.29367 C529.777982,184.03 526.778899,180.843394 523.69633,177.738349 C514.236697,168.200367 504,159.434954 493.108257,151.566055 C483.199083,144.402936 472.750459,137.983486 461.877982,132.389266 C457.954128,130.370183 453.972477,128.458991 449.945872,126.657615 C447.916514,125.752752 445.880734,124.877431 443.83211,124.026514 L443.061468,123.683578 C442.811009,123.557064 442.554128,123.43633 442.310092,123.304037 C441.809174,123.038807 441.327523,122.749817 440.858716,122.437706 C439.452294,121.502018 438.180734,120.361468 437.101835,119.062294 C435.843119,117.546697 434.841284,115.81789 434.154128,113.969633 C433.274312,111.592844 432.914679,109.02789 433.120183,106.500183 C433.319266,103.972477 434.077064,101.497431 435.329358,99.2895413 C436.157798,97.8188991 437.204587,96.4709174 438.418349,95.2995413 C439.638532,94.1281651 441.025688,93.1353211 442.52844,92.3608257 C444.281651,91.4566055 446.182569,90.8529358 448.134862,90.5819266 C448.693578,90.5048624 449.252294,90.4541284 449.817431,90.4310092 C450.1,90.4194495 450.382569,90.4213761 450.658716,90.4168807 C450.941284,90.4258716 451.223853,90.4342202 451.506422,90.443211 Z" id="Path" fill="url(#linearGradient-22)"></path>
                            <path d="M243.128624,18.3766055 C243.437523,18.3977982 243.747706,18.4106422 244.056606,18.4401835 C244.674404,18.4992661 245.288349,18.5904587 245.895872,18.7150459 C248.024128,19.1498165 250.066972,19.9840367 251.890183,21.1637615 C253.453303,22.1745872 254.852018,23.4365138 256.018257,24.8872477 C256.989908,26.0958716 257.799083,27.4342202 258.418807,28.856055 C259.410367,31.1326606 259.908073,33.6166972 259.870826,36.0994495 C259.847064,37.6497248 259.615872,39.196789 259.185596,40.6866972 C258.840734,41.8786239 258.369358,43.0333028 257.780459,44.1256881 C257.044495,45.490367 256.126789,46.756789 255.057523,47.88 C253.774404,49.2286239 252.275505,50.3691743 250.634037,51.246422 C250.086239,51.5386239 249.524312,51.8019266 248.948899,52.0344037 C248.413303,52.2508257 248.045963,52.3702752 247.526422,52.5494495 C247.168716,52.6727523 246.811651,52.7966972 246.455229,52.9206422 C245.919633,53.1081651 245.385321,53.2963303 244.851009,53.4851376 C242.362477,54.3707339 239.883578,55.2833028 237.417523,56.2292661 C232.50211,58.1154128 227.63422,60.1255046 222.820275,62.2576147 C209.153578,68.3097248 195.922936,75.3411927 183.256147,83.2749541 C169.873945,91.6569725 157.12367,101.045321 145.140826,111.328257 C141.058991,114.830826 137.06578,118.437431 133.167615,122.142936 C131.281468,123.935321 129.419725,125.75211 127.576606,127.588807 L126.900367,128.227798 C126.664037,128.428165 126.432844,128.635596 126.190734,128.829541 C125.707798,129.218716 125.20367,129.580917 124.68156,129.916147 C122.853211,131.08945 120.807798,131.916606 118.678257,132.34367 C117.157523,132.648716 115.596972,132.749541 114.049908,132.643578 C111.572294,132.474037 109.138991,131.770826 106.952936,130.593028 C104.766881,129.414587 102.84156,127.768624 101.338165,125.792569 C100.210459,124.311009 99.3229358,122.650275 98.7179817,120.89 C98.0122018,118.835596 97.6943119,116.65211 97.7848624,114.48211 C97.8754128,112.31211 98.3744037,110.162661 99.2490826,108.174404 C99.8733028,106.755138 100.687615,105.419358 101.663761,104.214587 C101.858991,103.973119 102.060642,103.737431 102.268073,103.506881 C102.637982,103.097156 102.955229,102.786972 103.336055,102.408073 C103.774037,101.972661 104.212661,101.538532 104.653211,101.105046 C105.973578,99.8058716 107.303578,98.5163303 108.644495,97.2377064 C115.498073,90.7007339 122.615596,84.4399083 129.973303,78.4757798 C149.730642,62.4599083 171.227064,48.5947706 193.977064,37.223945 C203.11945,32.6546789 212.462202,28.4874312 221.971284,24.7401835 C225.091743,23.510367 228.229541,22.3261468 231.384679,21.1868807 C232.965138,20.6166055 234.550734,20.0585321 236.138899,19.5094495 L236.720734,19.3097248 C237.016789,19.2166055 237.310275,19.1157798 237.608257,19.0310092 C238.204862,18.8608257 238.810459,18.7227523 239.421835,18.616789 C240.033211,18.5114679 240.649725,18.4382569 241.268807,18.3977982 C241.577706,18.3778899 241.888532,18.3740367 242.198073,18.3624771 C242.508257,18.3669725 242.81844,18.3721101 243.128624,18.3766055 Z" id="Path" fill="url(#linearGradient-23)"></path>
                            <path d="M350.500917,70.3801835 C352.215596,70.3840367 353.930275,70.4013761 355.638532,70.4354128 C359.511009,70.5124771 363.377064,70.6685321 367.243119,70.9048624 C377.145872,71.5104587 387.016514,72.6400917 396.80367,74.2834862 C399.629358,74.7587156 402.448624,75.2763303 405.261468,75.8369725 C406,75.9840367 406.738532,76.1336697 407.470642,76.2865138 C408.1,76.4168807 408.729358,76.5421101 409.345872,76.7110092 C409.679817,76.8022018 410.007339,76.9030275 410.334862,77.0134862 C412.3,77.6762385 414.143119,78.6902752 415.748624,79.9952294 C417.36055,81.3001835 418.734862,82.8922018 419.788073,84.6762385 C420.66789,86.1622936 421.322936,87.7787156 421.727523,89.456789 C422.138532,91.1348624 422.292661,92.8726606 422.189908,94.5963303 C422.087156,96.32 421.727523,98.0269725 421.130275,99.6459633 C420.411009,101.588624 419.338532,103.399633 417.989908,104.969817 C416.866055,106.278624 415.543119,107.41789 414.085321,108.340092 C412.621101,109.262294 411.02844,109.966789 409.358716,110.42211 C407.695413,110.878073 405.961468,111.085505 404.240367,111.034771 C403.546789,111.014862 402.859633,110.953853 402.178899,110.851743 C401.581651,110.763119 401.273394,110.693119 400.753211,110.585229 C400.36789,110.50367 399.982569,110.424037 399.590826,110.344404 C399.077064,110.239725 398.556881,110.135046 398.043119,110.032294 C394.658716,109.367615 391.274312,108.767156 387.870642,108.24055 C381.66055,107.278532 375.411927,106.553486 369.144037,106.066697 C360.981651,105.433486 352.793578,105.208716 344.608073,105.385321 C331.573303,105.666606 318.560367,106.97156 305.734312,109.312385 C295.166881,111.24156 284.729174,113.873303 274.512385,117.190275 C270.564128,118.472752 266.648624,119.856697 262.771651,121.341468 C260.722385,122.126239 258.684679,122.94055 256.657248,123.779266 L255.68945,124.146606 C255.36,124.249358 255.033119,124.362385 254.701101,124.456147 C254.03578,124.642385 253.360826,124.790092 252.678165,124.896697 C250.288532,125.270459 247.826972,125.141376 245.489358,124.520367 C243.486972,123.988624 241.582202,123.097248 239.89,121.901468 C238.197798,120.705046 236.723303,119.206789 235.553211,117.495963 C234.578991,116.070917 233.817339,114.501376 233.301651,112.853486 C232.785963,111.205596 232.516239,109.481927 232.504037,107.755688 C232.489266,105.683303 232.846972,103.61156 233.554679,101.663761 C234.381193,99.3910092 235.682294,97.2974312 237.354587,95.55 C238.54844,94.302844 239.92789,93.2348624 241.433853,92.390367 C241.735046,92.2214679 242.041376,92.0615596 242.35156,91.9112844 C242.862752,91.6633945 243.195413,91.5285321 243.670642,91.3320183 C243.928165,91.226055 244.185688,91.1200917 244.443853,91.0141284 C245.475229,90.5922018 246.509174,90.1766972 247.545046,89.7669725 C253.526514,87.4030275 259.591468,85.2490826 265.723211,83.309633 C281.832202,78.2144037 298.407431,74.6077982 315.173394,72.526422 C322.655046,71.597156 330.174587,70.9716514 337.706972,70.6454128 C341.224312,70.493211 344.743578,70.4097248 348.264128,70.3853211 C349.009725,70.3808257 349.755321,70.3795413 350.500917,70.3801835 Z" id="Path" fill="url(#linearGradient-24)"></path>
                            <path d="M350.488073,0.508623853 C354.912844,0.516972477 359.331193,0.601743119 363.755963,0.773211009 C372.637615,1.11678899 381.512844,1.79559633 390.349541,2.81155963 C409.281651,4.98926606 428.033945,8.71917431 446.349541,13.9653211 C458.358716,17.4030275 470.175229,21.4893578 481.734862,26.1999083 C492.787156,30.7030275 503.608257,35.7770642 514.140367,41.3918349 C524.730275,47.036789 535.031193,53.2295413 544.985321,59.932844 C549.711927,63.1143119 554.355046,66.4145872 558.921101,69.8201835 L559.255046,70.0687156 C560.051376,70.7892661 560.918349,71.4385321 561.650459,72.2297248 C562.376147,73.0202752 563.037615,73.8821101 563.602752,74.7933945 C564.752294,76.6230275 565.548624,78.6498165 565.953211,80.7697248 C566.357798,82.889633 566.370642,85.0673394 565.985321,87.1911009 C565.6,89.3148624 564.822936,91.3493578 563.692661,93.1905505 C562.568807,95.0311009 561.111009,96.6475229 559.389908,97.9569725 C557.675229,99.266422 555.729358,100.246422 553.655046,100.846881 C551.580734,101.447982 549.416514,101.659908 547.265138,101.471101 C545.113761,101.282294 543.020183,100.696606 541.080734,99.743578 C540.117431,99.269633 539.244037,98.63 538.33211,98.0597248 C538.222936,97.9897248 538.120183,97.9017431 538.017431,97.8227523 C537.914679,97.7456881 537.805505,97.6692661 537.709174,97.5922018 C537.400917,97.3629358 537.092661,97.1343119 536.777982,96.9056881 C536.26422,96.5255046 535.750459,96.1459633 535.230275,95.7677064 C532.019266,93.4262385 528.763303,91.1412844 525.468807,88.9205505 C518.218349,84.0385321 510.762385,79.456422 503.133028,75.1934862 C486.044037,65.6477982 468.062385,57.7044037 449.49633,51.5148624 C432.317431,45.789633 414.644037,41.5665138 396.73945,38.9000917 C387.254128,37.4878899 377.704587,36.5104587 368.129358,35.967156 C360.885321,35.5555046 353.615596,35.3943119 346.356789,35.4758716 C334.743853,35.6068807 323.136697,36.3608257 311.60789,37.7711009 C307.633303,38.2572477 303.668349,38.8211009 299.715596,39.4633028 C297.678532,39.7946789 295.644679,40.1478899 293.614679,40.5197248 L293.18055,40.6 L292.73422,40.682844 L289.523211,40.9782569 C288.452661,40.8780734 287.369266,40.8761468 286.312844,40.6783486 C285.256422,40.4799083 284.214128,40.1825688 283.211651,39.7933945 C281.199633,39.0118349 279.348807,37.8642202 277.754862,36.4083486 C276.160275,34.9531193 274.849541,33.2146789 273.888807,31.2810092 C272.928073,29.3479817 272.334037,27.2531193 272.136239,25.1030275 C271.939083,22.953578 272.141376,20.7855046 272.734128,18.7099083 C273.326239,16.6336697 274.298532,14.6852294 275.600917,12.9634862 C276.903303,11.2417431 278.513303,9.77623853 280.349358,8.64146789 C281.263853,8.07633028 282.234862,7.5933945 283.237339,7.20614679 C284.239817,6.81889908 285.302018,6.60697248 286.339174,6.32633028 C286.350734,6.32311927 287.292844,6.14908257 287.296055,6.14844037 C287.942752,6.02963303 288.590092,5.91275229 289.237431,5.79779817 C292.971835,5.13376147 296.717156,4.53394495 300.47211,3.99706422 C310.862294,2.51036697 321.321835,1.5066055 331.803853,0.971651376 C335.506147,0.782201835 339.211651,0.651834862 342.917798,0.577981651 C344.610642,0.544587156 346.303486,0.524678899 347.99633,0.513761468 C348.827982,0.509908257 349.659633,0.507981651 350.488073,0.508623853 Z" id="Path" fill="url(#linearGradient-25)"></path>
                            <path d="M325.884692,325.183727 C332.407087,318.66089 341.185976,314.947661 350.596413,314.947661 C369.897261,314.947661 385.543752,330.593887 385.543752,349.894358 C385.543752,357.773922 382.94955,365.211907 378.226573,371.296638 C372.309266,378.920055 373.69234,389.896981 381.315757,395.814289 C388.939174,401.731597 399.916101,400.348522 405.833408,392.725105 C415.273155,380.563641 420.491092,365.602995 420.491092,349.894358 C420.491092,311.292872 389.198011,280.000321 350.596413,280.000321 C331.821815,280.000321 314.183832,287.460704 301.172354,300.473062 C294.348693,307.297186 294.349067,318.360902 301.173191,325.184563 C307.997314,332.008225 319.06103,332.00785 325.884692,325.183727 Z" id="Stroke-1" fill="url(#linearGradient-26)" fill-rule="nonzero"></path>
                        </g>
                        <g id="dots" transform="translate(0.000000, 6.000000)" fill="#235280">
                            <circle id="Oval" transform="translate(115.234848, 109.227064) rotate(-45.000000) translate(-115.234848, -109.227064) " cx="115.234848" cy="109.227064" r="17.4677224"></circle>
                            <circle id="Oval" cx="542.243119" cy="344" r="17.4678899"></circle>
                            <circle id="Oval" transform="translate(519.533212, 543.767406) rotate(-67.450649) translate(-519.533212, -543.767406) " cx="519.533212" cy="543.767406" r="17.4688437"></circle>
                            <circle id="Oval" cx="676.399083" cy="283.568807" r="17.4678899"></circle>
                            <circle id="Oval" cx="221.206422" cy="486.440367" r="17.4678899"></circle>
                            <circle id="Oval" cx="350.03211" cy="536.211009" r="17.4678899"></circle>
                            <circle id="Oval" transform="translate(249.545447, 586.034395) rotate(-67.450649) translate(-249.545447, -586.034395) " cx="249.545447" cy="586.034395" r="17.4688437"></circle>
                            <circle id="Oval" transform="translate(450.520880, 101.879428) rotate(-67.450649) translate(-450.520880, -101.879428) " cx="450.52088" cy="101.879428" r="17.4688437"></circle>
                            <circle id="Oval" cx="350.03211" cy="151.788991" r="17.4678899"></circle>
                            <circle id="Oval" transform="translate(299.347062, 232.645689) rotate(-24.463397) translate(-299.347062, -232.645689) " cx="299.347062" cy="232.645689" r="17.4673908"></circle>
                            <circle id="Oval" transform="translate(464.579404, 386.897509) rotate(-69.464742) translate(-464.579404, -386.897509) " cx="464.579404" cy="386.897509" r="17.4687012"></circle>
                            <circle id="Oval" transform="translate(657.523987, 468.948189) rotate(-45.000000) translate(-657.523987, -468.948189) " cx="657.523987" cy="468.948189" r="17.4677224"></circle>
                            <circle id="Oval" transform="translate(249.918084, 101.761230) rotate(-22.451503) translate(-249.918084, -101.761230) " cx="249.918084" cy="101.76123" r="17.467831"></circle>
                            <circle id="Oval" transform="translate(214.064303, 208.072202) rotate(-45.000000) translate(-214.064303, -208.072202) " cx="214.064303" cy="208.072202" r="17.4677224"></circle>
                            <circle id="Oval" transform="translate(307.120935, 458.483972) rotate(-69.464742) translate(-307.120935, -458.483972) " cx="307.120935" cy="458.483972" r="17.4687012"></circle>
                            <circle id="Oval" transform="translate(107.785422, 444.047789) rotate(-22.451503) translate(-107.785422, -444.047789) " cx="107.785422" cy="444.047789" r="17.467831"></circle>
                            <circle id="Oval" transform="translate(99.715636, 266.096949) rotate(-22.451503) translate(-99.715636, -266.096949) " cx="99.7156358" cy="266.096949" r="17.467831"></circle>
                            <circle id="Oval" transform="translate(584.745918, 109.231039) rotate(-45.000000) translate(-584.745918, -109.231039) " cx="584.745918" cy="109.231039" r="17.4677224"></circle>
                            <circle id="Oval" transform="translate(579.680795, 217.672528) rotate(-22.451503) translate(-579.680795, -217.672528) " cx="579.680795" cy="217.672528" r="17.467831"></circle>
                            <circle id="Oval" transform="translate(485.900781, 208.060366) rotate(-45.000000) translate(-485.900781, -208.060366) " cx="485.900781" cy="208.060366" r="17.4677224"></circle>
                            <circle id="Oval" cx="18.0137615" cy="344" r="17.4678899"></circle>
                            <circle id="Oval" cx="350.03211" cy="675.954128" r="17.4678899"></circle>
                            <circle id="Oval" transform="translate(159.044752, 615.628154) rotate(-45.000000) translate(-159.044752, -615.628154) " cx="159.044752" cy="615.628154" r="17.4677224"></circle>
                            <circle id="Oval" cx="289.536697" cy="17.5045872" r="17.4678899"></circle>
                            <circle id="Oval" transform="translate(227.735117, 346.107032) rotate(-69.464742) translate(-227.735117, -346.107032) " cx="227.735117" cy="346.107032" r="17.4687012"></circle>
                            <path d="M301.173651,294.471661 C307.997688,287.648266 319.061541,287.648266 325.885578,294.471661 C332.708972,301.295697 332.708972,312.35955 325.885578,319.182945 C319.061541,326.006982 307.997688,326.006982 301.173651,319.182945 C294.350257,312.35955 294.350257,301.295697 301.173651,294.471661" id="Fill-3"></path>
                        </g>
                    </g>
                </g>
            </g>
        </g>
    </g>
</svg>