<?xml version="1.0" encoding="UTF-8"?>
<svg width="39px" height="39px" viewBox="0 0 39 39" version="1.1" xmlns="http://www.w3.org/2000/svg" xmlns:xlink="http://www.w3.org/1999/xlink">
    <!-- Generator: Sketch 45.1 (43504) - http://www.bohemiancoding.com/sketch -->
    <title>Page 1</title>
    <desc>Created with Sketch.</desc>
    <defs>
        <polygon id="path-1" points="38.5268 39 0 39 0 0.5722 38.5268 0.5722 38.5268 39"></polygon>
        <polygon id="path-3" points="0 39.4282 38.527 39.4282 38.527 1.0002 0 1.0002"></polygon>
    </defs>
    <g id="Page-1" stroke="none" stroke-width="1" fill="none" fill-rule="evenodd">
        <g id="Development-(Primary-Navigation)" transform="translate(-495.000000, -317.000000)">
            <g id="Group-20" transform="translate(0.000000, 115.000000)">
                <g id="Group-10">
                    <g id="Page-1" transform="translate(495.000000, 201.000000)">
                        <g id="Group-3" transform="translate(0.000000, 0.428200)">
                            <mask id="mask-2" fill="white">
                                <use xlink:href="#path-1"></use>
                            </mask>
                            <g id="Clip-2"></g>
                            <path d="M15.4108,35.1572 L15.4108,31.3142 L3.8348,31.3142 C1.7168,31.3142 -0.0002,29.5952 -0.0002,27.4832 L-0.0002,4.4032 C-0.0002,2.2872 1.7308,0.5722 3.8348,0.5722 L34.6918,0.5722 C36.8098,0.5722 38.5268,2.2902 38.5268,4.4032 L38.5268,27.4832 C38.5268,29.5992 36.7968,31.3142 34.6918,31.3142 L23.1158,31.3142 L23.1158,35.1572 L28.8948,35.1572 L28.8948,39.0002 L9.6318,39.0002 L9.6318,35.1572 L15.4108,35.1572 Z" id="Fill-1" fill="#4092EB" mask="url(#mask-2)"></path>
                        </g>
                        <mask id="mask-4" fill="white">
                            <use xlink:href="#path-3"></use>
                        </mask>
                        <g id="Clip-5"></g>
                        <polygon id="Fill-4" fill="#235280" mask="url(#mask-4)" points="21.498 12.5282 32.982 12.5282 32.982 8.6852 21.498 8.6852"></polygon>
                        <polygon id="Fill-6" fill="#FF7452" mask="url(#mask-4)" points="6.162 12.5282 17.646 12.5282 17.646 8.6852 6.162 8.6852"></polygon>
                        <polygon id="Fill-7" fill="#FFFFFF" mask="url(#mask-4)" points="17.646 19.0342 27.203 19.0342 27.203 15.1912 17.646 15.1912"></polygon>
                        <polygon id="Fill-8" fill="#83DFB0" mask="url(#mask-4)" points="6.162 19.0342 13.793 19.0342 13.793 15.1912 6.162 15.1912"></polygon>
                    </g>
                </g>
            </g>
        </g>
    </g>
</svg>