<?xml version="1.0" encoding="UTF-8"?>
<svg width="80px" height="59px" viewBox="0 0 80 59" version="1.1" xmlns="http://www.w3.org/2000/svg" xmlns:xlink="http://www.w3.org/1999/xlink">
    <!-- Generator: Sketch 46.1 (44463) - http://www.bohemiancoding.com/sketch -->
    <title>hospitality</title>
    <desc>Created with Sketch.</desc>
    <defs></defs>
    <g id="solutions" stroke="none" stroke-width="1" fill="none" fill-rule="evenodd">
        <g id="Development" transform="translate(-1040.000000, -1811.000000)" fill-rule="nonzero" fill="#FF7452">
            <g id="results" transform="translate(0.000000, 1542.000000)">
                <g id="Group-4" transform="translate(970.000000, 121.000000)">
                    <g id="hospitality" transform="translate(70.000000, 148.000000)">
                        <path d="M36.3636364,7.4522736 L36.3636364,7.4522736 L36.3636364,0 L43.6363636,0 L43.6363636,7.4522736 C62.0120825,9.27672607 76.3636364,24.7805524 76.3636364,43.6363636 L3.63636364,43.6363636 C3.63636364,24.7805524 17.9879175,9.27672607 36.3636364,7.4522736 Z M0,50.9090909 L80,50.9090909 L80,58.1818182 L0,58.1818182 L0,50.9090909 Z M67.1918331,33.2956058 C64.8315029,27.0792753 60.4235022,21.8365898 54.5454545,18.4428973 L50.9090909,24.741264 C55.3228884,27.2895709 58.6217818,31.2131324 60.3927262,35.8772149 L67.1918331,33.2956058 Z" id="Combined-Shape"></path>
                    </g>
                </g>
            </g>
        </g>
    </g>
</svg>