<?xml version="1.0" encoding="UTF-8"?>
<svg width="14px" height="11px" viewBox="0 0 14 11" version="1.1" xmlns="http://www.w3.org/2000/svg" xmlns:xlink="http://www.w3.org/1999/xlink">
    <!-- Generator: Sketch 45.1 (43504) - http://www.bohemiancoding.com/sketch -->
    <title>Fill 1</title>
    <desc>Created with Sketch.</desc>
    <defs></defs>
    <g id="Page-1" stroke="none" stroke-width="1" fill="none" fill-rule="evenodd">
        <g id="Development-(Primary-Navigation)" transform="translate(-1003.000000, -345.000000)" fill="#ADADAD">
            <g id="Group-20" transform="translate(0.000000, 115.000000)">
                <g id="Group-10">
                    <path d="M1013.068,233.348 C1012.141,233.348 1011.302,233.723 1010.695,234.328 L1010.222,233.856 C1010.936,233.144 1011.917,232.698 1013.001,232.68 C1012.691,231.151 1011.336,230 1009.712,230 C1007.858,230 1006.356,231.499 1006.356,233.348 C1004.502,233.348 1003,234.847 1003,236.696 C1003,238.544 1004.502,240.043 1006.356,240.043 L1013.068,240.043 C1014.922,240.043 1016.424,238.544 1016.424,236.696 C1016.424,234.847 1014.922,233.348 1013.068,233.348" id="Fill-1"></path>
                </g>
            </g>
        </g>
    </g>
</svg>