<?xml version="1.0" encoding="UTF-8"?>
<svg width="66px" height="60px" viewBox="0 0 66 60" version="1.1" xmlns="http://www.w3.org/2000/svg" xmlns:xlink="http://www.w3.org/1999/xlink">
    <!-- Generator: Sketch 46.1 (44463) - http://www.bohemiancoding.com/sketch -->
    <title>hand-shake</title>
    <desc>Created with Sketch.</desc>
    <defs></defs>
    <g id="solutions" stroke="none" stroke-width="1" fill="none" fill-rule="evenodd">
        <g id="Development" transform="translate(-667.000000, -1809.000000)" fill-rule="nonzero" fill="#4094ED">
            <g id="results" transform="translate(0.000000, 1542.000000)">
                <g id="Group-2" transform="translate(591.000000, 121.000000)">
                    <g id="hand-shake" transform="translate(76.000000, 146.000000)">
                        <path d="M58.305,37.0916667 C59.4746667,35.922 59.4746667,34.0186668 58.305,32.8490001 L44.5163334,19.0606667 L44.5163334,19.0603333 L39.2133333,13.7573333 L33.9099999,19.0606667 C30.3776667,22.5926667 24.8043333,23.144 20.6573333,20.372 C19.9203333,19.8793333 19.4473333,19.0873333 19.36,18.199 C19.271,17.297 19.5873333,16.4123333 20.2276667,15.7723333 L30.7280001,5.27199999 C27.3279999,1.87233333 22.808,0 18,0 C13.192,0 8.67200001,1.87233333 5.27199999,5.27199999 C1.87233333,8.67166668 0,13.192 0,18 C0,22.8076667 1.87233333,27.3279999 5.27199999,30.7276668 L7.39333332,32.8490001 L11.636,28.6063332 C12.7693333,27.4733334 14.276,26.8490001 15.8786667,26.8490001 C17.4813333,26.8490001 18.988,27.4733334 20.1213333,28.6063332 C21.389,29.874 21.9636667,31.572 21.8576667,33.2343333 C23.4143333,33.135 24.9986667,33.639 26.2353333,34.7446668 L26.2373333,34.7366667 L26.341,34.8399999 C26.3883333,34.8843333 26.439,34.9239999 26.4853333,34.9703334 C26.531,35.016 26.5696667,35.0656668 26.6136667,35.1123333 L32.7643332,41.2573332 C32.7920001,41.2839999 32.8220001,41.307 32.8493334,41.3346666 C32.8749999,41.3603334 32.8966668,41.3886666 32.9216667,41.4146667 L39.1929999,47.6803332 C39.1996668,47.6866668 39.2066667,47.6919999 39.2133333,47.6983332 C39.2193333,47.7043332 39.2243334,47.7113334 39.2303334,47.7173334 L41.3346666,49.8196668 C42.5043333,50.9893332 44.4076668,50.9893332 45.5769999,49.8196668 C46.7466666,48.6500001 46.7469999,46.7469999 45.5773332,45.5773332 C45.5773332,45.5773332 45.5773332,45.5773332 45.5769999,45.5769999 L39.9363333,39.9363333 L31.7886666,31.7883333 L33.9099999,29.6673333 L38.1526668,33.9099999 L38.1526668,33.9096666 L47.6986668,43.4556666 C48.2649999,44.0223333 49.0186668,44.3346666 49.8196668,44.3346666 C50.6210001,44.3346666 51.3743334,44.0223333 51.9410001,43.4556666 C53.1106668,42.2859999 53.1106668,40.383 51.9413334,39.2133333 L51.9410001,39.213 L38.1523332,25.4246667 L40.2740001,23.3033333 L44.5166667,27.5456667 L44.5166667,27.5456667 L54.0623334,37.0916667 C54.6290001,37.6583334 55.3823334,37.9703334 56.1836667,37.9703334 C56.985,37.9703334 57.7383333,37.6583334 58.305,37.0916667" id="Fill-1"></path>
                        <path d="M37.0917999,49.8197001 C36.5251332,49.2530334 35.7717999,48.9410334 34.9704666,48.9410334 C34.1691333,48.9410334 33.4158,49.2530334 32.8491333,49.8197001 L28.6064667,54.0623667 C27.4368,55.2320334 27.4368,57.1350333 28.6064667,58.3050333 C29.7764667,59.4747 31.6794666,59.4747 32.8491333,58.3050333 L37.0917999,54.0623667 C38.2614666,52.8927 38.2614666,50.9893668 37.0917999,49.8197001" id="Fill-3"></path>
                        <path d="M60.4262667,5.27199999 C57.0266001,1.87233333 52.5066,0 47.6985999,0 C42.8906001,0 38.3702667,1.87233333 34.9706001,5.27199999 L22.3492667,17.8933333 C22.3489333,17.8936667 22.3486,17.894 22.3486,17.894 C25.3069333,19.8553333 29.2725999,19.4553333 31.7886,16.939 L39.2132667,9.51466668 L60.4262667,30.7276668 C63.8262666,27.3279999 65.6982666,22.8076667 65.6982666,18 C65.6982666,13.192 63.8262666,8.67166668 60.4262667,5.27199999" id="Fill-6"></path>
                        <path d="M18,30.7277334 C17.4333333,30.1610667 16.68,29.8490667 15.8786667,29.8490667 C15.0773333,29.8490667 14.324,30.1610667 13.7573333,30.7277334 L9.51466668,34.9704 C8.34500001,36.1400667 8.34500001,38.0433999 9.51466668,39.2130666 C10.0813333,39.7797333 10.8346667,40.0917333 11.636,40.0917333 C12.4373333,40.0917333 13.1906667,39.7797333 13.7573333,39.2130666 L18,34.9704 C19.1696667,33.8007333 19.1696667,31.8974001 18,30.7277334" id="Fill-8"></path>
                        <path d="M24.3639333,37.0918332 C23.7972667,36.5251668 23.0439333,36.2131668 22.2426,36.2131668 C21.4412667,36.2131668 20.6879333,36.5251668 20.1212667,37.0918332 L15.8786,41.3345001 C14.7089333,42.5041668 14.7089333,44.4075 15.8786,45.5771667 C16.4452667,46.1438334 17.1986,46.4558334 17.9999333,46.4558334 C18.8012667,46.4558334 19.5546,46.1438334 20.1212667,45.5771667 L24.3639333,41.3345001 C25.5336,40.1648334 25.5336,38.2614999 24.3639333,37.0918332" id="Fill-10"></path>
                        <path d="M30.7278666,43.4556 C30.1611999,42.8889333 29.4078666,42.5769333 28.6065333,42.5769333 C27.8055333,42.5769333 27.0522,42.8889333 26.4855333,43.4556 C26.4855333,43.4556 26.4855333,43.4556 26.4852,43.4556 L22.2425333,47.6985999 C21.0728667,48.8679333 21.0728667,50.7712668 22.2425333,51.9409332 C22.8092,52.5075999 23.5625333,52.8195999 24.3638667,52.8195999 C25.1652,52.8195999 25.9185333,52.5075999 26.4852,51.9409332 L30.7278666,47.6985999 C31.8975333,46.5285999 31.8975333,44.6252667 30.7278666,43.4556" id="Fill-12"></path>
                    </g>
                </g>
            </g>
        </g>
    </g>
</svg>