<?xml version="1.0" encoding="UTF-8"?>
<svg width="200px" height="60px" viewBox="0 0 200 60" version="1.1" xmlns="http://www.w3.org/2000/svg" xmlns:xlink="http://www.w3.org/1999/xlink">
    <!-- Generator: Sketch 46.1 (44463) - http://www.bohemiancoding.com/sketch -->
    <title>logo-techcrunch</title>
    <desc>Created with Sketch.</desc>
    <defs></defs>
    <g id="Page-1" stroke="none" stroke-width="1" fill="none" fill-rule="evenodd">
        <g id="techcrunch" fill-rule="nonzero" fill="#AEAEAE">
            <g id="logo-techcrunch" transform="translate(68.000000, 14.000000)">
                <rect id="Rectangle-path" x="42.8" y="0" width="21.2" height="10.8"></rect>
                <polygon id="Shape" points="0 10.8 10.8 10.8 10.8 32 21.2 32 21.2 10.8 32 10.8 32 0 0 0"></polygon>
                <polygon id="Shape" points="42.4 10.8 32 10.8 32 32 40.8 32 42.4 32 64 32 64 21.2 42.4 21.2"></polygon>
            </g>
        </g>
    </g>
</svg>