<?xml version="1.0" encoding="UTF-8"?>
<svg width="72px" height="72px" viewBox="0 0 72 72" version="1.1" xmlns="http://www.w3.org/2000/svg" xmlns:xlink="http://www.w3.org/1999/xlink">
    <!-- Generator: Sketch 45.2 (43514) - http://www.bohemiancoding.com/sketch -->
    <title>Combined-Shape</title>
    <desc>Created with Sketch.</desc>
    <defs></defs>
    <g id="Page-1" stroke="none" stroke-width="1" fill="none" fill-rule="evenodd">
        <g id="Prototyping" transform="translate(-236.000000, -1274.000000)" fill-rule="nonzero" fill="#69D1EE">
            <g id="benefits" transform="translate(0.000000, 952.000000)">
                <g id="feature" transform="translate(145.000000, 322.000000)">
                    <g id="quality-2" transform="translate(91.000000, 0.000000)">
                        <path d="M27.5402941,64.5469971 C26.2455671,63.1862813 23.6936164,62.1205377 21.7961402,62.1676905 L12.927271,62.388085 C11.0495895,62.434746 9.56476217,60.9702052 9.61191508,59.0727291 L9.83230942,50.2038598 C9.87897043,48.3261783 8.82806343,45.768082 7.45300297,44.4597059 L1.02592311,38.3443106 C-0.33479258,37.0495836 -0.349137356,34.9640654 1.02592311,33.6556894 L7.45300297,27.5402941 C8.81371865,26.2455671 9.87946233,23.6936164 9.83230942,21.7961402 L9.61191508,12.927271 C9.56525408,11.0495895 11.0297948,9.56476217 12.927271,9.61191508 L21.7961402,9.83230942 C23.6738218,9.87897043 26.231918,8.82806343 27.5402941,7.45300297 L33.6556894,1.02592311 C34.9504164,-0.33479258 37.0359346,-0.349137356 38.3443106,1.02592311 L44.4597059,7.45300297 C45.7544329,8.81371865 48.3063837,9.87946233 50.2038598,9.83230942 L59.0727291,9.61191508 C60.9504106,9.56525408 62.4352378,11.0297948 62.388085,12.927271 L62.1676905,21.7961402 C62.1210294,23.6738218 63.1719367,26.231918 64.5469971,27.5402941 L70.9740771,33.6556894 C72.3347925,34.9504164 72.3491374,37.0359346 70.9740771,38.3443106 L64.5469971,44.4597059 C63.1862813,45.7544329 62.1205377,48.3063837 62.1676905,50.2038598 L62.388085,59.0727291 C62.434746,60.9504106 60.9702052,62.4352378 59.0727291,62.388085 L50.2038598,62.1676905 C48.3261783,62.1210294 45.768082,63.1719367 44.4597059,64.5469971 L38.3443106,70.9740771 C37.0495836,72.3347925 34.9640654,72.3491374 33.6556894,70.9740771 L27.5402941,64.5469971 Z M31.7540092,31.2264004 L18,31.2218796 L29.1301996,39.3914959 L24.8757625,52.6153846 L36,44.4382335 L47.1247344,52.6153846 L42.8702972,39.3914959 L54,31.2218796 L40.2459908,31.2264004 L36.0004968,18 L31.7540092,31.2264004 Z" id="Combined-Shape"></path>
                    </g>
                </g>
            </g>
        </g>
    </g>
</svg>