<?xml version="1.0" encoding="utf-8"?>
<!-- Generator: Adobe Illustrator 18.0.0, SVG Export Plug-In . SVG Version: 6.00 Build 0)  -->
<!DOCTYPE svg PUBLIC "-//W3C//DTD SVG 1.1//EN" "http://www.w3.org/Graphics/SVG/1.1/DTD/svg11.dtd">
<svg version="1.1" id="Layer_1" xmlns="http://www.w3.org/2000/svg" xmlns:xlink="http://www.w3.org/1999/xlink" x="0px" y="0px"
	 viewBox="0 0 40.8 45" enable-background="new 0 0 40.8 45" xml:space="preserve">
<path fill="#235280" d="M31.8,45H8.4c-0.4,0-0.8-0.3-0.8-0.8V0.8C7.7,0.3,8,0,8.4,0h23.3c0.4,0,0.8,0.3,0.8,0.8v43.5
	C32.5,44.7,32.2,45,31.8,45z"/>
<circle fill="#69D0ED" cx="20.1" cy="39.9" r="1.9"/>
<rect x="7.7" y="5.5" fill="#1F7ED1" width="24.8" height="29.7"/>
</svg>
