<?xml version="1.0" encoding="utf-8"?>
<!-- Generator: Adobe Illustrator 18.0.0, SVG Export Plug-In . SVG Version: 6.00 Build 0)  -->
<!DOCTYPE svg PUBLIC "-//W3C//DTD SVG 1.1//EN" "http://www.w3.org/Graphics/SVG/1.1/DTD/svg11.dtd">
<svg version="1.1" id="Layer_1" xmlns="http://www.w3.org/2000/svg" xmlns:xlink="http://www.w3.org/1999/xlink" x="0px" y="0px"
	 viewBox="0 0 234.2 123.1" enable-background="new 0 0 234.2 123.1" xml:space="preserve">
<polygon fill="#69D0ED" points="-0.7,123.6 -0.7,0.5 233.5,62.1 "/>
<g>
	<g>
		<g>
			<path fill="#FFFFFF" d="M37.4,54c-9.6,0-10,7.5-9.9,9.4c0,0-0.5,8.7,9.7,8.7c8.7,0,9.2-5.5,9.2-5.5l-4,0c0,0-0.8,3-5.1,2.9
				c-5.6-0.1-5.8-5.5-5.8-5.5h15.5C46.8,64.1,48,54,37.4,54z M31.5,61.4c0,0,0.3-4.9,5.8-4.9c5.5,0,5.5,4.9,5.5,4.9H31.5z"/>
		</g>
	</g>
	<g>
		<g>
			<path fill="#FFFFFF" d="M57.6,54c-4.8,0-6.9,2.9-6.9,2.9v-9.7h-3.9l0.1,20.4c0,0,0,2.4-0.2,4h3.8l0.2-2.3c0,0,1.8,2.9,6.9,2.9
				c5.1,0,9.2-3.2,9.3-9C66.9,57.2,62.4,54,57.6,54z M56.7,69.5c-6.1,0.1-6-6.5-6-6.5s-0.2-6.3,6-6.5c6.2-0.2,6,6.6,6,6.6
				S62.8,69.4,56.7,69.5z"/>
		</g>
	</g>
	<g>
		<g>
			<path fill="#FFFFFF" d="M84.7,67.5c0-2.6,0.1-5,0-6.7c-0.1-1.9,0.1-6.6-8.3-6.9c0,0-8-0.7-8.8,5.2h4.1c0,0,0.3-2.7,4.5-2.6
				c3.9,0.1,4.6,2,4.6,4.4c0,0-3.4,0-4.5,0c-2,0-9.1,0.2-9.8,4.5c-0.8,5.1,3.8,6.7,7.4,6.7c3.6,0,5.6-1.1,7.1-3l0.2,2.4l3.6,0
				C84.7,71.5,84.7,70.1,84.7,67.5z M74.5,69.6c0,0-3.9,0-4.1-3.1c-0.2-3.3,6-3.1,6-3.1l4.4,0C80.8,63.4,81.5,69.7,74.5,69.6z"/>
		</g>
	</g>
	<polygon fill="#FFFFFF" points="82.5,54.6 87,54.6 93.6,67.7 100.2,54.6 104.3,54.6 92.4,78 88,78 91.5,71.5 	"/>
</g>
</svg>
