<?xml version="1.0" encoding="utf-8"?>
<!-- Generator: Adobe Illustrator 18.0.0, SVG Export Plug-In . SVG Version: 6.00 Build 0)  -->
<!DOCTYPE svg PUBLIC "-//W3C//DTD SVG 1.1//EN" "http://www.w3.org/Graphics/SVG/1.1/DTD/svg11.dtd">
<svg version="1.1" id="Layer_1" xmlns="http://www.w3.org/2000/svg" xmlns:xlink="http://www.w3.org/1999/xlink" x="0px" y="0px"
	 viewBox="0 0 234.2 123.1" enable-background="new 0 0 234.2 123.1" xml:space="preserve">
<polygon fill="#84E0B1" points="-0.4,123.1 -0.4,0 233.7,61.6 "/>
<path fill="#FFFFFF" d="M98.1,56.7c-5.5,0-7.3,3.7-7.3,7.8s1.7,7.4,7.3,7.4c5.5,0,7.3-3.3,7.3-7.4S103.6,56.7,98.1,56.7z M98.1,70.2
	c-2.5,0-3.9-2.6-3.9-5.9c0-3.3,1.5-5.9,3.9-5.9c2.5,0,3.9,2.6,3.9,5.9C102,67.5,100.6,70.2,98.1,70.2z"/>
<path fill="#FFFFFF" d="M132.3,68.6c0-5.2,0-14,0-19.8c-1.8,0.6-5.2,0.7-5.2,0.7v0.6c0,0,1.9-0.1,1.9,1.5c0,1.4,0,3.4,0,5.4
	c-0.7-0.3-1.6-0.4-2.7-0.4c-5.5,0-7.9,3.7-7.9,7.8s2.1,7.4,6.5,7.4c1.7,0,3.1-0.6,4.1-1.5v1.5c0,0,2.4-0.6,5.2-0.7
	c0-0.4,0-0.8,0-0.8S132.3,70.6,132.3,68.6z M121.8,64.3c0-3.3,1.5-5.9,3.9-5.9c1.1,0,2.5,0.3,3.3,1.1c0,4.8,0,9.5,0,9.5l0,0.1
	c-0.8,0.4-1.8,0.6-2.6,0.6C123.9,69.7,121.8,67.5,121.8,64.3z"/>
<path fill="#FFFFFF" d="M77.3,68.9c0-2.4,0-5.1,0-7.4c0-2.7-1.2-4.8-5-4.8c-2,0-3.4,0.8-4.1,1.3c0-0.3,0-0.7,0-1.1
	c-1.8,0.6-5.2,0.7-5.2,0.7v0.8c0,0,1.9-0.2,1.9,1.3c0,5.2,0,9.1,0,9.1c0,0.6-0.2,2-2,2c0,0.2,0,0.5,0,0.7c3.1-0.1,4.4-0.1,7.2,0
	c0-0.4,0-0.7,0-0.7s-1.9,0.1-1.9-2c0-4.4,0-5.7,0-9.6c0.7-0.2,1.7-0.5,2.9-0.5c3.1,0,2.9,3.2,2.9,3.9c0,5.2,0,6.2,0,6.2
	c0,0.6-0.2,2-2,2c0,0.2,0,0.5,0,0.7c3.1-0.1,4.4-0.1,7.2,0c0-0.4,0-0.7,0-0.7S77.3,70.9,77.3,68.9z"/>
<path fill="#FFFFFF" d="M88.5,50.2c1.8,0,2.9,2.1,2.9,2.1l1.6-2.2c0,0-0.9-1.5-4.1-1.5c-2.2,0-5.8,0.7-5.8,6.8c0,0.8,0,1.5,0,1.5
	c0,0.5-1.9,1.2-1.9,1.2v0.8c0,0,0.9,0,1.9,0c0,5.2,0,10,0,10c0,0.6-0.2,1.9-2,1.9c0,0.2,0,0.6,0,0.8c3.1-0.1,5-0.1,7.9,0
	c0-0.4,0-0.8,0-0.8s-2.6,0.4-2.6-1.9c0-4.5,0-5.8,0-10h3.2v-1.8h-3.2c0-0.1,0-0.1,0-0.1c0,0,0,0,0,0s0-2.5,0-3.7
	C86.4,52.3,86.7,50.2,88.5,50.2z"/>
<path fill="#FFFFFF" d="M42.1,53.8c-0.4,0-0.3,0-0.7,0c-1.5,3.7-4.4,4.4-4.4,4.4s0,0.4,0,0.7c0.7,0,0.9,0,1.9,0c0,5.2,0,8.9,0,8.9
	c0,1.7,0.7,3.9,3.5,3.9c1.8,0,3.1-0.1,4.6-1.5l-0.3-0.6c-2.5,1.1-4.4,0.1-4.4-1.9c0-3.4,0-5.9,0-8.9h5V57h-5
	C42.1,56,42.1,55,42.1,53.8z"/>
<path fill="#FFFFFF" d="M114.3,56.9c-1,0.1-2,0.8-2.4,1.3c0-0.4,0-0.8,0-1.3c-1.8,0.6-5.2,0.7-5.2,0.7v0.8c0,0,1.9-0.2,1.9,1.3
	c0,5.2,0,9.1,0,9.1c0,0.6-0.2,2-2,2c0,0.2,0,0.5,0,0.7c3.1-0.1,5.1-0.1,7.9,0c0-0.4,0-0.7,0-0.7s-2.6,0.1-2.6-2c0-4.3,0-5.7,0-9.3
	c0.3-0.2,1-0.5,1.7-0.5c1.9,0,2.3,1.4,2.3,1.4h0.6l1.3-2.5C117.9,58,117.3,56.7,114.3,56.9z"/>
<path fill="#FFFFFF" d="M32.5,60.5c-1-0.7-3.1-2.1-4.1-2.8c-1.6-1.1-1.3-2.8-1.3-2.8s0-2.5,3.6-2.5c4.3,0,4,2.9,4,2.9h0.7v-4.2
	c0,0-2.5-0.4-5.1-0.4c-5.2,0-6.1,3.4-6.1,5.4c0,3,2.2,4.4,2.2,4.4s3.3,2.1,4.3,2.9c1.5,1.1,2,2.4,1.9,3.3c-0.2,1.4-0.3,3.2-4.6,3.2
	c-3.5,0-3.5-3.1-3.5-3.1h-0.8V71c0,0,2.6,0.8,5.4,0.8c5.4,0,6.7-3.7,6.7-5.9C35.7,62.4,33.6,61.3,32.5,60.5z"/>
<path fill="#FFFFFF" d="M59.6,67.9c0-1.7,0-5.2,0-6.9c0-1.5-0.7-4.4-4.8-4.4c-4.1,0-5.1,3.4-5.1,3.4l0.7,0.4c0,0,1-1.8,3-1.8
	c1.4,0,2.8,1.1,2.8,2.5c0,1,0,1.2,0,1.2s-3,0.9-3.9,1.2c-3.4,1.2-3.9,2.9-3.8,4.4c0.1,1.4,0.7,3.8,4.2,3.8c2.2,0,3.7-1.4,3.7-1.4
	s0.5,1.4,2.3,1.4c1.9,0,3-1.9,3-1.9l-0.5-0.5C61.2,69.4,59.6,70.5,59.6,67.9z M56.2,69c0,0-1.3,0.8-2.5,0.6c-0.9-0.2-1.9-0.5-1.9-2
	c0-1.9,1.1-2.3,2.6-2.9c0.4-0.2,1.7-0.6,1.7-0.6V69z"/>
</svg>
