<?xml version="1.0" encoding="utf-8"?>
<!-- Generator: Adobe Illustrator 18.0.0, SVG Export Plug-In . SVG Version: 6.00 Build 0)  -->
<!DOCTYPE svg PUBLIC "-//W3C//DTD SVG 1.1//EN" "http://www.w3.org/Graphics/SVG/1.1/DTD/svg11.dtd">
<svg version="1.1" id="Layer_1" xmlns="http://www.w3.org/2000/svg" xmlns:xlink="http://www.w3.org/1999/xlink" x="0px" y="0px"
	 viewBox="0 0 234.2 123.1" enable-background="new 0 0 234.2 123.1" xml:space="preserve">
<g>
	<polygon fill="#FF7452" points="-0.2,123 -0.2,-0.1 233.9,61.5 	"/>
</g>
<rect x="76.2" y="57.2" fill="#FFFFFF" width="6.7" height="22.2"/>
<rect x="64.7" y="57.2" fill="#FFFFFF" width="6.7" height="22.2"/>
<rect x="53.4" y="46.6" fill="#FFFFFF" width="6.7" height="32.9"/>
<rect x="30.8" y="46.6" fill="#FFFFFF" width="6.7" height="32.9"/>
<rect x="42.2" y="46.6" fill="#FFFFFF" width="6.7" height="22.3"/>
<rect x="64.7" y="46.6" fill="#FFFFFF" width="6.7" height="6.7"/>
<rect x="76.2" y="46.6" fill="#FFFFFF" width="18.1" height="6.7"/>
</svg>
