<?xml version="1.0" encoding="utf-8"?>
<!-- Generator: Adobe Illustrator 18.0.0, SVG Export Plug-In . SVG Version: 6.00 Build 0)  -->
<!DOCTYPE svg PUBLIC "-//W3C//DTD SVG 1.1//EN" "http://www.w3.org/Graphics/SVG/1.1/DTD/svg11.dtd">
<svg version="1.1" id="Layer_1" xmlns="http://www.w3.org/2000/svg" xmlns:xlink="http://www.w3.org/1999/xlink" x="0px" y="0px"
	 viewBox="0 0 76 91.4" enable-background="new 0 0 76 91.4" xml:space="preserve">
<g>
	<g>
		<rect x="10.7" y="0" fill="#4092EB" width="31.6" height="9"/>
		<rect x="10.7" y="9" fill="#FF7452" width="57.3" height="9"/>
		<rect x="10.7" y="17.7" fill="#84E0B1" width="65.3" height="41.7"/>
	</g>
	
		<rect x="26.5" y="35.1" transform="matrix(0.9491 -0.3151 0.3151 0.9491 -10.2668 15.6847)" fill="#235280" width="33.8" height="9"/>
</g>
</svg>
