<?xml version="1.0" encoding="utf-8"?>
<!-- Generator: Adobe Illustrator 18.0.0, SVG Export Plug-In . SVG Version: 6.00 Build 0)  -->
<!DOCTYPE svg PUBLIC "-//W3C//DTD SVG 1.1//EN" "http://www.w3.org/Graphics/SVG/1.1/DTD/svg11.dtd">
<svg version="1.1" id="Layer_1" xmlns="http://www.w3.org/2000/svg" xmlns:xlink="http://www.w3.org/1999/xlink" x="0px" y="0px"
	 viewBox="0 0 234.2 123.1" enable-background="new 0 0 234.2 123.1" xml:space="preserve">
<polygon fill="#4093EC" points="-0.1,123.6 -0.1,0.5 234.1,62 "/>
<path fill="#FFFFFF" d="M75.3,56.9c-0.3-0.7-0.8-1.2-1.6-1.4v-0.4c0.5,0,2.2,0.1,2.6,0.1c0.4,0,2-0.1,2.6-0.1v0.4
	c-0.5,0.1-1,0.4-1,0.8c0,0.3,0.2,0.8,0.6,1.7l3.8,8.6l3.6-8.6c0.3-0.7,0.5-1.2,0.5-1.6c0-0.5-0.4-0.8-1-0.9v-0.4
	c0.5,0,1.6,0.1,2,0.1c0.3,0,1.7-0.1,2.2-0.1v0.4c-0.9,0.2-1.4,0.8-1.9,1.9l-5.3,12.4h-1.2L75.3,56.9z"/>
<path fill="#FFFFFF" d="M24.4,69.3c0.7-0.2,1.2-0.5,1.2-1.2V56.7c0-0.7-0.4-1.1-1.2-1.2V55c0.4,0,1.9,0.1,2.3,0.1
	c0.4,0,2.1-0.1,2.4-0.1v0.4c-0.7,0.2-1.2,0.5-1.2,1.2v4.8h8.5v-4.8c0-0.8-0.5-1.1-1.2-1.2V55c0.4,0,2,0.1,2.4,0.1
	c0.4,0,2-0.1,2.3-0.1v0.4c-0.7,0.2-1.2,0.5-1.2,1.2v11.4c0,0.7,0.5,1.1,1.2,1.2v0.4c-0.4,0-1.9,0-2.3,0c-0.4,0-2,0-2.4,0v-0.4
	c0.7-0.2,1.2-0.5,1.2-1.2v-5.4h-8.5v5.4c0,0.8,0.5,1.1,1.2,1.2v0.4c-0.4,0-2,0-2.4,0c-0.4,0-1.9,0-2.3,0V69.3z"/>
<path fill="#FFFFFF" d="M126.2,68.6c0.5,0.1,1.5,0.2,2.3,0.2c4.4,0,6.7-2.6,6.7-6.3c0-3.8-2.4-6.5-6.5-6.5c-0.8,0-1.9,0.1-2.4,0.2
	V68.6z M122.5,69.3c0.9-0.2,1.4-0.5,1.4-1.3V56.7c0-0.8-0.5-1.1-1.3-1.2V55c0.5,0,2.1,0.1,2.5,0.1c0.7,0,2.7-0.2,4.3-0.2
	c5.2,0,8.4,2.9,8.4,7.3c0,4.3-3.3,7.5-8.7,7.5c-1.6,0-3.4-0.1-4.1-0.1c-0.4,0-1.9,0.1-2.4,0.1V69.3z"/>
<path fill="#FFFFFF" d="M63.4,62c0.5,0.1,1.2,0.1,1.8,0.1c2.7,0,3.6-1.6,3.6-3c0-2-1.3-3.2-3.7-3.2c-0.5,0-1.2,0.1-1.7,0.2V62z
	 M63.4,68c0,0.8,0.5,1.2,1.4,1.4v0.4c-0.5,0-2.1-0.1-2.5-0.1c-0.4,0-2,0.1-2.4,0.1v-0.4c0.8-0.2,1.3-0.6,1.3-1.4V56.7
	c0-0.7-0.4-1.1-1.3-1.3V55c0.5,0,2,0.1,2.5,0.1c0.7,0,2.8-0.1,3.6-0.1c3.5,0,5.5,1.5,5.5,3.9c0,2-1.5,3.3-3.7,3.8c0,0,0.5,0.3,1,0.9
	c0.6,0.7,2.3,3.2,3,4c0.7,0.8,1.6,1.8,2.5,1.8v0.3C73.7,69.9,73,70,72.4,70c-1.2,0-2.1-0.4-3.1-1.5c-0.8-1-2.2-3-3-4.1
	c-0.5-0.6-1.1-1.2-2.3-1.3c-0.2,0-0.4-0.1-0.7-0.1V68z"/>
<path fill="#FFFFFF" d="M109.7,62c0.5,0.1,1.2,0.1,1.8,0.1c2.7,0,3.6-1.6,3.6-3c0-2-1.3-3.2-3.7-3.2c-0.5,0-1.2,0.1-1.7,0.2V62z
	 M109.7,68c0,0.8,0.5,1.2,1.4,1.4v0.4c-0.5,0-2.1-0.1-2.5-0.1c-0.4,0-2,0.1-2.4,0.1v-0.4c0.8-0.2,1.3-0.6,1.3-1.4V56.7
	c0-0.7-0.4-1.1-1.3-1.3V55c0.5,0,2,0.1,2.5,0.1c0.7,0,2.8-0.1,3.6-0.1c3.5,0,5.5,1.5,5.5,3.9c0,2-1.5,3.3-3.7,3.8c0,0,0.5,0.3,1,0.9
	c0.6,0.7,2.3,3.2,3,4c0.7,0.8,1.6,1.8,2.5,1.8v0.3c-0.4,0.1-1.2,0.2-1.7,0.2c-1.2,0-2.2-0.4-3.1-1.5c-0.8-1-2.2-3-3-4.1
	c-0.5-0.6-1.1-1.2-2.2-1.3c-0.2,0-0.4-0.1-0.7-0.1V68z"/>
<path fill="#FFFFFF" d="M51.5,63.8l-2.3-5.4L47,63.8H51.5z M42.1,69.3c0.9-0.2,1.4-0.8,1.8-1.6l4.7-11.3c0.2-0.5,0.4-1.4,0.4-1.4
	h1.3c0,0,0.2,1,0.4,1.4l5,11.3c0.4,0.8,0.7,1.3,1.7,1.6l0,0.4c-0.5,0-2.2,0-2.6,0c-0.4,0-2,0-2.5,0l0-0.4c0.7-0.2,1-0.5,1-0.9
	c0-0.3-0.1-0.6-0.3-1L52,65h-5.5l-1,2.4c-0.1,0.3-0.2,0.7-0.2,0.9c0,0.4,0.2,0.7,1,1l0,0.4c-0.5,0-1.8,0-2.1,0l-2.1,0L42.1,69.3z"/>
<path fill="#FFFFFF" d="M98,63.8l-2.3-5.4l-2.2,5.4H98z M88.7,69.3c0.9-0.2,1.4-0.8,1.8-1.6l4.7-11.3c0.2-0.5,0.4-1.4,0.4-1.4h1.3
	c0,0,0.2,1,0.4,1.4l5,11.3c0.4,0.8,0.7,1.3,1.7,1.6l0,0.4c-0.5,0-2.2,0-2.6,0c-0.4,0-2,0-2.5,0v-0.4c0.7-0.2,1-0.5,1-0.9
	c0-0.3-0.1-0.6-0.3-1L98.5,65h-5.5l-1,2.4c-0.1,0.3-0.2,0.7-0.2,0.9c0,0.4,0.2,0.7,1,1v0.4c-0.5,0-1.8,0-2.1,0l-2.1,0L88.7,69.3z"/>
</svg>
