<?xml version="1.0" encoding="UTF-8"?>
<svg width="26px" height="23px" viewBox="0 0 26 23" version="1.1" xmlns="http://www.w3.org/2000/svg" xmlns:xlink="http://www.w3.org/1999/xlink">
    <!-- Generator: Sketch 45.1 (43504) - http://www.bohemiancoding.com/sketch -->
    <title>Page 1</title>
    <desc>Created with Sketch.</desc>
    <defs></defs>
    <g id="Page-1" stroke="none" stroke-width="1" fill="none" fill-rule="evenodd" opacity="0.400000006">
        <g id="Innovation" transform="translate(-795.000000, -5280.000000)" fill="#4094ED">
            <g id="Group-17" transform="translate(0.000000, 5006.000000)">
                <g id="Group-15" transform="translate(565.000000, 254.000000)">
                    <path d="M236.296,20.0089 L245.523,25.3829 L248.625,19.9999 L236.296,20.0089 Z M236.204,20.0089 L230,30.7699 L236.212,30.7659 L236.205,20.0089 L236.204,20.0089 Z M246.551,25.9809 L255.765,31.3479 L246.559,36.7259 L249.671,42.1089 L255.875,31.3479 L249.657,20.5949 L246.551,25.9809 Z M237.354,30.7649 L242.422,30.7619 L244.952,26.3719 L237.348,21.9429 L237.354,30.7649 Z M243.453,31.3559 L245.986,35.7369 L253.498,31.3489 L245.981,26.9709 L243.453,31.3559 Z M237.355,31.9559 L237.361,40.7769 L244.959,36.3379 L242.423,31.9519 L237.355,31.9559 Z M230.001,31.9599 L236.219,42.7129 L236.22,42.7129 L236.213,31.9559 L230.001,31.9599 Z M236.311,42.7129 L248.64,42.7049 L245.531,37.3269 L236.311,42.7129 Z" id="Page-1"></path>
                </g>
            </g>
        </g>
    </g>
</svg>
