<?xml version="1.0" encoding="UTF-8"?>
<svg width="1230px" height="480px" viewBox="0 0 1230 480" version="1.1" xmlns="http://www.w3.org/2000/svg" xmlns:xlink="http://www.w3.org/1999/xlink">
    <!-- Generator: Sketch 46 (44423) - http://www.bohemiancoding.com/sketch -->
    <title>divider-ai</title>
    <desc>Created with Sketch.</desc>
    <defs>
        <linearGradient x1="100%" y1="0%" x2="100%" y2="100%" id="linearGradient-1">
            <stop stop-color="#69D1EE" offset="0%"></stop>
            <stop stop-color="#4094ED" offset="100%"></stop>
        </linearGradient>
        <radialGradient cx="100%" cy="50%" fx="100%" fy="50%" r="111.803399%" gradientTransform="translate(1.000000,0.500000),scale(1.000000,0.552713),rotate(-137.866617),translate(-1.000000,-0.500000)" id="radialGradient-2">
            <stop stop-color="#69D1EE" offset="0%"></stop>
            <stop stop-color="#4094ED" offset="100%"></stop>
        </radialGradient>
        <linearGradient x1="3.06161713e-15%" y1="0%" x2="100%" y2="100%" id="linearGradient-3">
            <stop stop-color="#69D1EE" offset="0%"></stop>
            <stop stop-color="#4094ED" offset="100%"></stop>
        </linearGradient>
        <radialGradient cx="74.9983724%" cy="100%" fx="74.9983724%" fy="100%" r="74.9983724%" gradientTransform="translate(0.749984,1.000000),scale(0.341598,1.000000),rotate(180.000000),translate(-0.749984,-1.000000)" id="radialGradient-4">
            <stop stop-color="#69D1EE" offset="0%"></stop>
            <stop stop-color="#4094ED" offset="100%"></stop>
        </radialGradient>
        <linearGradient x1="100%" y1="50%" x2="3.061617e-15%" y2="50%" id="linearGradient-5">
            <stop stop-color="#69D1EE" offset="0%"></stop>
            <stop stop-color="#4094ED" offset="100%"></stop>
        </linearGradient>
        <radialGradient cx="21.3606771%" cy="0%" fx="21.3606771%" fy="0%" r="78.6393229%" gradientTransform="translate(0.213607,0.000000),scale(0.268474,1.000000),translate(-0.213607,-0.000000)" id="radialGradient-6">
            <stop stop-color="#69D1EE" offset="0%"></stop>
            <stop stop-color="#4094ED" offset="100%"></stop>
        </radialGradient>
        <radialGradient cx="0%" cy="0%" fx="0%" fy="0%" r="100%" gradientTransform="translate(0.000000,0.000000),scale(1.000000,0.538462),rotate(90.000000),translate(-0.000000,-0.000000)" id="radialGradient-7">
            <stop stop-color="#69D1EE" offset="0%"></stop>
            <stop stop-color="#4094ED" offset="100%"></stop>
        </radialGradient>
        <radialGradient cx="0%" cy="100%" fx="0%" fy="100%" r="100%" gradientTransform="translate(0.000000,1.000000),scale(1.000000,0.846154),translate(-0.000000,-1.000000)" id="radialGradient-8">
            <stop stop-color="#69D1EE" offset="0%"></stop>
            <stop stop-color="#4094ED" offset="100%"></stop>
        </radialGradient>
        <linearGradient x1="100%" y1="0%" x2="0%" y2="100%" id="linearGradient-9">
            <stop stop-color="#69D1EE" offset="0%"></stop>
            <stop stop-color="#4094ED" offset="100%"></stop>
        </linearGradient>
        <linearGradient x1="100%" y1="100%" x2="0%" y2="0%" id="linearGradient-10">
            <stop stop-color="#69D1EE" offset="0%"></stop>
            <stop stop-color="#4094ED" offset="100%"></stop>
        </linearGradient>
        <radialGradient cx="50%" cy="100%" fx="50%" fy="100%" r="111.803399%" gradientTransform="translate(0.500000,1.000000),scale(0.552713,1.000000),rotate(-132.133383),translate(-0.500000,-1.000000)" id="radialGradient-11">
            <stop stop-color="#69D1EE" offset="0%"></stop>
            <stop stop-color="#4094ED" offset="100%"></stop>
        </radialGradient>
        <linearGradient x1="3.06161713e-15%" y1="100%" x2="100%" y2="0%" id="linearGradient-12">
            <stop stop-color="#69D1EE" offset="0%"></stop>
            <stop stop-color="#4094ED" offset="100%"></stop>
        </linearGradient>
        <radialGradient cx="0%" cy="100%" fx="0%" fy="100%" r="100%" gradientTransform="translate(0.000000,1.000000),scale(1.000000,0.636364),rotate(-90.000000),translate(-0.000000,-1.000000)" id="radialGradient-13">
            <stop stop-color="#69D1EE" offset="0%"></stop>
            <stop stop-color="#4094ED" offset="100%"></stop>
        </radialGradient>
    </defs>
    <g id="solutions" stroke="none" stroke-width="1" fill="none" fill-rule="evenodd">
        <g id="AI" transform="translate(-115.000000, -1542.000000)">
            <g id="banner" transform="translate(0.000000, 1542.000000)">
                <g id="divider-ai" transform="translate(115.000000, -61.000000)">
                    <polygon id="Stroke-2" fill="url(#linearGradient-1)" fill-rule="nonzero" points="210 15.218 210 255.218 240 255.218 240 15.218"></polygon>
                    <polygon id="Stroke-3" fill="url(#radialGradient-2)" fill-rule="nonzero" points="803.786797 345.218 724.393398 424.611398 745.606602 445.824602 835.606602 355.824602 835.606602 334.611398 745.606602 244.611398 724.393398 265.824602"></polygon>
                    <polygon id="Stroke-4" fill="url(#linearGradient-3)" fill-rule="nonzero" points="544.393398 355.824602 634.393398 445.824602 655.606602 424.611398 565.606602 334.611398"></polygon>
                    <polygon id="Stroke-6" fill="url(#radialGradient-4)" fill-rule="nonzero" points="345 150.218 345 180.218 525 180.218 535.606602 175.824602 595.606602 115.824602 574.393398 94.6113983 518.786797 150.218"></polygon>
                    <polygon id="Stroke-7" fill="url(#linearGradient-3)" fill-rule="nonzero" points="535.606602 574.611398 385.606602 424.611398 364.393398 445.824602 514.393398 595.824602"></polygon>
                    <polygon id="Stroke-8" fill="url(#linearGradient-5)" fill-rule="nonzero" points="334.393398 34.6113983 274.393398 94.6113983 295.606602 115.824602 355.606602 55.8246017"></polygon>
                    <polygon id="Stroke-9" fill="url(#radialGradient-6)" fill-rule="nonzero" points="1155 480.218 1155 450.218 825 450.218 814.393398 454.611398 724.393398 544.611398 745.606602 565.824602 831.213203 480.218"></polygon>
                    <polygon id="Fill-10" fill="#FFFFFF" points="1155 450.218 1170 465.218 1155 480.218 1140 465.218"></polygon>
                    <path d="M810,465.218 C810,473.497 816.721,480.218 825,480.218 C833.279,480.218 840,473.497 840,465.218 C840,456.939 833.279,450.218 825,450.218 C816.721,450.218 810,456.939 810,465.218 Z" id="Fill-11" fill="#FF7452"></path>
                    <polygon id="Stroke-12" fill="url(#radialGradient-7)" fill-rule="nonzero" points="300 270.218 375 270.218 375 240.218 285 240.218 270 255.218 270 435.218 300 435.218"></polygon>
                    <polygon id="Stroke-13" fill="url(#linearGradient-1)" fill-rule="nonzero" points="450 225.218 450 405.218 480 405.218 480 225.218"></polygon>
                    <polygon id="Fill-14" fill="#FFFFFF" points="295.607 115.825 274.393 115.825 274.393 94.611 295.607 94.611"></polygon>
                    <polygon id="Fill-15" fill="#4094ED" points="574.393 115.825 595.6062 115.825 595.6062 94.6118 574.393 94.6118"></polygon>
                    <polygon id="Fill-16" fill="#4094ED" points="360 255.218 375 240.218 390 255.218 375 270.218"></polygon>
                    <polygon id="Fill-17" fill="#4094ED" points="450 225.218 465 210.218 480 225.218 465 240.218"></polygon>
                    <polygon id="Fill-18" fill="#FFFFFF" points="450 405.218 465 390.218 480 405.218 465 420.218"></polygon>
                    <path d="M285,270.218 C293.279,270.218 300,263.497 300,255.218 C300,246.939 293.279,240.218 285,240.218 C276.721,240.218 270,246.939 270,255.218 C270,263.497 276.721,270.218 285,270.218 Z" id="Fill-21" fill="#FFFFFF"></path>
                    <path d="M285,450.218 C293.279,450.218 300,443.497 300,435.218 C300,426.939 293.279,420.218 285,420.218 C276.721,420.218 270,426.939 270,435.218 C270,443.497 276.721,450.218 285,450.218 Z" id="Fill-22" fill="#FF7452"></path>
                    <polygon id="Stroke-23" fill="url(#radialGradient-8)" fill-rule="nonzero" points="870 15.218 840 15.218 840 195.218 855 210.218 1005 210.218 1005 180.218 870 180.218"></polygon>
                    <path d="M870,195.218 C870,186.939 863.279,180.218 855,180.218 C846.721,180.218 840,186.939 840,195.218 C840,203.497 846.721,210.218 855,210.218 C863.279,210.218 870,203.497 870,195.218 Z" id="Fill-24" fill="#4094ED"></path>
                    <path d="M1020,195.218 C1020,186.939 1013.28,180.218 1005,180.218 C996.72,180.218 990,186.939 990,195.218 C990,203.497 996.72,210.218 1005,210.218 C1013.28,210.218 1020,203.497 1020,195.218 Z" id="Fill-25" fill="#FF7452"></path>
                    <polygon id="Stroke-31" fill="url(#linearGradient-9)" fill-rule="nonzero" points="625.603602 265.827602 775.609602 115.821602 754.396398 94.6083983 604.390398 244.614398"></polygon>
                    <path d="M775.61,94.62 C781.463,100.474 781.463,109.979 775.61,115.833 C769.756,121.687 760.25,121.687 754.396,115.833 C748.542,109.979 748.542,100.474 754.396,94.62 C760.25,88.766 769.756,88.766 775.61,94.62 Z" id="Fill-32" fill="#4094ED"></path>
                    <path d="M625.604,244.614 C631.458,250.468 631.458,259.974 625.604,265.828 C619.75,271.681 610.244,271.681 604.39,265.828 C598.537,259.974 598.537,250.468 604.39,244.614 C610.244,238.76 619.75,238.76 625.604,244.614 Z" id="Fill-33" fill="#FFFFFF"></path>
                    <polygon id="Stroke-34" fill="url(#linearGradient-10)" fill-rule="nonzero" points="1045.60671 394.614504 895.603708 244.608504 874.390292 265.821496 1024.39329 415.827496"></polygon>
                    <path d="M874.39,244.62 C868.537,250.474 868.537,259.979 874.39,265.833 C880.244,271.687 889.75,271.687 895.604,265.833 C901.458,259.979 901.458,250.474 895.604,244.62 C889.75,238.766 880.244,238.766 874.39,244.62 Z" id="Fill-35" fill="#235280"></path>
                    <path d="M1024.4,394.614 C1018.54,400.468 1018.54,409.974 1024.4,415.828 C1030.25,421.681 1039.76,421.681 1045.61,415.828 C1051.46,409.974 1051.46,400.468 1045.61,394.614 C1039.76,388.76 1030.25,388.76 1024.4,394.614 Z" id="Fill-36" fill="#4094ED"></path>
                    <polygon id="Fill-40" fill="#235280" points="240 255.218 225 270.218 210 255.218 225 240.218"></polygon>
                    <path d="M555,330.218 C563.279,330.218 570,336.939 570,345.218 C570,353.497 563.279,360.218 555,360.218 C546.721,360.218 540,353.497 540,345.218 C540,336.939 546.721,330.218 555,330.218 Z" id="Fill-45" fill="#FF7452"></path>
                    <path d="M345,150.218 C353.279,150.218 360,156.939 360,165.218 C360,173.497 353.279,180.218 345,180.218 C336.721,180.218 330,173.497 330,165.218 C330,156.939 336.721,150.218 345,150.218 Z" id="Fill-47" fill="#235280"></path>
                    <path d="M525,150.218 C533.279,150.218 540,156.939 540,165.218 C540,173.497 533.279,180.218 525,180.218 C516.721,180.218 510,173.497 510,165.218 C510,156.939 516.721,150.218 525,150.218 Z" id="Fill-48" fill="#FF7452"></path>
                    <polygon id="Fill-49" fill="#235280" points="634.393 445.825 655.607 445.825 655.607 424.611 634.393 424.611"></polygon>
                    <path d="M375,420.218 C366.721,420.218 360,426.939 360,435.218 C360,443.497 366.721,450.218 375,450.218 C383.279,450.218 390,443.497 390,435.218 C390,426.939 383.279,420.218 375,420.218 Z" id="Fill-50" fill="#FF7452"></path>
                    <path d="M750,435.218 C750,426.939 743.279,420.218 735,420.218 C726.721,420.218 720,426.939 720,435.218 C720,443.497 726.721,450.218 735,450.218 C743.279,450.218 750,443.497 750,435.218 Z" id="Fill-51" fill="#FF7452"></path>
                    <polygon id="Fill-52" fill="#FFFFFF" points="724.393 265.825 745.6062 265.825 745.6062 244.6118 724.393 244.6118"></polygon>
                    <polygon id="Fill-53" fill="#4094ED" points="835.607 355.825 814.393 355.825 814.393 334.611 835.607 334.611"></polygon>
                    <polygon id="Stroke-54" fill="url(#radialGradient-11)" fill-rule="nonzero" points="225 564.004797 145.606602 484.611398 124.393398 505.824602 214.393398 595.824602 235.606602 595.824602 325.606602 505.824602 304.393398 484.611398"></polygon>
                    <path d="M135,510.218 C143.279,510.218 150,503.4967 150,495.218 C150,486.939 143.279,480.218 135,480.218 C126.721,480.218 120,486.939 120,495.218 C120,503.4967 126.721,510.218 135,510.218 Z" id="Fill-55" fill="#FF7452"></path>
                    <polygon id="Fill-56" fill="#4094ED" points="304.393 505.8246 325.6062 505.8246 325.6062 484.6114 304.393 484.6114"></polygon>
                    <path d="M720,555.218 C720,563.4967 726.721,570.218 735,570.218 C743.279,570.218 750,563.4967 750,555.218 C750,546.9393 743.279,540.218 735,540.218 C726.721,540.218 720,546.9393 720,555.218 Z" id="Fill-57" fill="#69D1EE"></path>
                    <polygon id="Stroke-1" fill="url(#linearGradient-12)" fill-rule="nonzero" points="25.6036982 505.609405 175.609598 355.603605 154.396402 334.390395 4.39050182 484.396195"></polygon>
                    <polygon id="Stroke-3" fill="url(#radialGradient-13)" fill-rule="nonzero" points="1140 255 1110 255 1110 404.9999 1125 419.9999 1215 419.9999 1215 389.9999 1140 389.9999"></polygon>
                    <polygon id="Stroke-4" fill="url(#linearGradient-10)" fill-rule="nonzero" points="34.3905751 115.603778 124.396575 205.606778 145.609425 184.393222 55.6034249 94.3902215"></polygon>
                    <polygon id="Fill-5" fill="#4094ED" points="124.396 184.393 124.396 205.606 145.61 205.606 145.61 184.393"></polygon>
                    <path d="M55.604,94.39 C61.458,100.244 61.458,109.75 55.604,115.604 C49.75,121.457 40.244,121.457 34.3905,115.604 C28.5365,109.75 28.5365,100.244 34.3905,94.39 C40.244,88.536 49.75,88.536 55.604,94.39 Z" id="Fill-6" fill="#FFFFFF"></path>
                    <path d="M175.61,334.402 C181.463,340.256 181.463,349.761 175.61,355.615 C169.756,361.469 160.25,361.469 154.396,355.615 C148.542,349.761 148.542,340.256 154.396,334.402 C160.25,328.548 169.756,328.548 175.61,334.402 Z" id="Fill-7" fill="#FFFFFF"></path>
                    <path d="M25.6037,484.3962 C31.4576,490.2501 31.4576,499.7555 25.6037,505.6094 C19.7497,511.4633 10.2444,511.4633 4.3905,505.6094 C-1.4635,499.7555 -1.4635,490.2501 4.3905,484.3962 C10.2444,478.5423 19.7497,478.5423 25.6037,484.3962 Z" id="Fill-8" fill="#4094ED"></path>
                    <polygon id="Stroke-10" fill="url(#linearGradient-5)" fill-rule="nonzero" points="105 270 15 270 15 300 105 300"></polygon>
                    <polygon id="Fill-11" fill="#4094ED" points="120 285 105 300 90 285 105 270"></polygon>
                    <path d="M15,270 C6.7213,270 0,276.721 0,285 C0,293.279 6.7213,300 15,300 C23.2787,300 30,293.279 30,285 C30,276.721 23.2787,270 15,270 Z" id="Fill-13" fill="#FF7452"></path>
                    <polygon id="Fill-14" fill="#235280" points="1230 404.9999 1215 419.9999 1200 404.9999 1215 389.9999"></polygon>
                    <path d="M1125,389.9999 C1116.72,389.9999 1110,396.7211 1110,404.9999 C1110,413.2786 1116.72,419.9999 1125,419.9999 C1133.28,419.9999 1140,413.2786 1140,404.9999 C1140,396.7211 1133.28,389.9999 1125,389.9999 Z" id="Fill-15" fill="#4094ED"></path>
                    <path d="M1125,240 C1116.72,240 1110,246.721 1110,255 C1110,263.279 1116.72,270 1125,270 C1133.28,270 1140,263.279 1140,255 C1140,246.721 1133.28,240 1125,240 Z" id="Fill-16" fill="#FF7452"></path>
                    <polygon id="Stroke-17" fill="url(#linearGradient-9)" fill-rule="nonzero" points="1174.3934 94.3933983 1084.3934 184.393398 1105.6066 205.606602 1195.6066 115.606602"></polygon>
                    <path d="M1185,90 C1176.72,90 1170,96.721 1170,105 C1170,113.279 1176.72,120 1185,120 C1193.28,120 1200,113.279 1200,105 C1200,96.721 1193.28,90 1185,90 Z" id="Fill-18" fill="#FF7452"></path>
                    <polygon id="Fill-19" fill="#235280" points="1084.39 205.606 1105.6032 205.606 1105.6032 184.3928 1084.39 184.3928"></polygon>
                </g>
            </g>
        </g>
    </g>
</svg>