<?xml version="1.0" encoding="UTF-8"?>
<svg width="200px" height="60px" viewBox="0 0 200 60" version="1.1" xmlns="http://www.w3.org/2000/svg" xmlns:xlink="http://www.w3.org/1999/xlink">
    <!-- Generator: Sketch 46.1 (44463) - http://www.bohemiancoding.com/sketch -->
    <title>logo-staples</title>
    <desc>Created with Sketch.</desc>
    <defs></defs>
    <g id="Page-1" stroke="none" stroke-width="1" fill="none" fill-rule="evenodd">
        <g id="staples" fill-rule="nonzero" fill="#ADADAD">
            <g id="logo-staples" transform="translate(39.000000, 18.000000)">
                <path d="M9.11125926,23.9998518 C0.892148148,23.9808889 0.0189629629,18.6471112 0,16.3691852 L4.34681482,16.3691852 C4.36577778,17.4512592 4.8594074,19.9758518 8.78844444,19.9758518 C10.0413333,19.9758518 11.0284444,19.7860741 11.7496296,19.4253334 C12.6798518,18.9318518 13.1543704,18.1534814 13.1543704,17.0906666 C13.1543704,15.4201482 11.7117037,14.9266667 9.35792592,14.3192592 L7.08014815,13.7688889 C3.60651852,12.8957038 0.322666667,12.0794074 0.322666667,7.04933333 C0.322666667,6.06222222 0.531555556,4.16414815 1.82222222,2.58859259 C3.22681482,0.880296296 5.46666667,0.0260740741 8.50385185,0.0260740741 C11.408,0.0260740741 13.6099259,0.918222222 15.0905185,2.6645926 C16.609037,4.46785186 16.7988148,6.57481482 16.7988148,7.40992592 L12.4709629,7.40992592 C12.3570371,6.47985185 12.0724445,4.03125926 8.18103703,4.03125926 C7.232,4.03125926 6.35881482,4.24 5.73244445,4.61955556 C4.95422222,5.09422223 4.55555556,5.79644444 4.55555556,6.70770371 C4.55555556,8.47288889 5.92222223,8.81451852 6.75748148,9.0234074 L11.9014815,10.3900741 C14.8057777,11.1493333 17.4822222,12.421037 17.4822222,16.5211852 C17.4822222,19.4632592 16.3242962,21.5703703 13.9894814,22.8231112 C12.0724445,23.886074 9.92740741,23.9998518 9.11125926,23.9998518" id="Fill-1"></path>
                <polyline id="Fill-4" points="28.1118518 23.3925926 23.5942223 23.3925926 23.5942223 4.73348148 17.1974815 4.73348148 17.1974815 0.633481482 34.4897778 0.633481482 34.4897778 4.73348148 28.1118518 4.73348148 28.1118518 23.3925926"></polyline>
                <polyline id="Fill-6" points="100.565037 23.3925926 84.4117037 23.3925926 84.3925926 0.614518518 100.052593 0.614518518 100.052593 4.75244444 88.8343704 4.75244444 88.8343704 9.42192593 99.1413334 9.42192593 99.1413334 13.541037 88.8343704 13.541037 88.8343704 19.2734815 100.565037 19.2734815 100.565037 23.3925926"></polyline>
                <path d="M37.6028148,14.717926 L42.8797037,14.717926 L40.2792593,5.85348148 L37.6028148,14.717926 Z M45.4991111,23.3925926 L44.1324444,18.7229629 L36.3878519,18.7229629 L34.9263703,23.3925926 L30.161926,23.3925926 L37.7357038,0.633481482 L42.8986667,0.633481482 L50.3964444,23.3925926 L45.4991111,23.3925926 L45.4991111,23.3925926 Z" id="Fill-7"></path>
                <path d="M55.8820741,11.2062222 L59.9441482,11.2253333 C63.1900741,11.2253333 63.1900741,8.77659259 63.1900741,7.73259259 C63.1900741,5.53081482 62.0702222,4.63866667 59.3558519,4.63866667 L55.8820741,4.63866667 L55.8820741,11.2062222 Z M55.8820741,23.3925926 L51.3834074,23.3925926 L51.3644444,0.633481482 L61.0831111,0.633481482 C65.1641482,0.633481482 67.7077037,3.44266667 67.7077037,7.94148148 C67.7077037,9.11837038 67.3660741,10.9025185 66.454963,12.3641482 C65.2589629,14.2623703 63.3989629,15.2303704 60.9122963,15.2303704 L55.8820741,15.2303704 L55.8820741,23.3925926 L55.8820741,23.3925926 Z" id="Fill-8"></path>
                <path d="M68.6948148,20.868 L68.6948148,4.22103703 C68.6948148,1.90533334 70.6308148,0.0260740741 73.0416296,0.0260740741 C75.3194074,0.0260740741 77.1035556,1.60162963 77.4263704,3.82237037 L78.8688889,11.2442963 L74.730963,12.0414815 L73.2124445,4.18311112 C73.2124445,4.18311112 73.1934815,4.08814814 73.0985185,4.08814814 C73.0416296,4.10711111 73.0226666,4.16414815 73.0226666,4.20207408 L73.0416296,19.2734815 L83.4434074,19.2734815 L83.4434074,23.3925926 L70.9725926,23.3925926 C69.7008889,23.3925926 68.6948148,22.1017777 68.6948148,20.868" id="Fill-9"></path>
                <path d="M118.218074,1.69644444 L118.502815,1.69644444 C118.730519,1.69644444 118.958222,1.67748148 118.958222,1.4117037 C118.958222,1.18385185 118.749481,1.14607407 118.578667,1.14607407 L118.218074,1.14607407 L118.218074,1.69644444 Z M117.952296,0.918222222 L118.616593,0.937185185 C119.034222,0.918222222 119.224,1.08903704 119.224,1.43066666 C119.224,1.73437037 119.034222,1.86725926 118.768444,1.88622222 L119.262074,2.6645926 L118.977333,2.6645926 L118.502815,1.90533334 L118.218074,1.90533334 L118.218074,2.6645926 L117.952296,2.6645926 L117.952296,0.937185185 L117.952296,0.918222222 Z" id="Fill-11"></path>
                <path d="M118.521778,0.538666667 C117.83837,0.538666667 117.268889,1.108 117.268889,1.79140741 C117.268889,2.49362963 117.83837,3.04414814 118.521778,3.04414814 C119.224,3.04414814 119.774519,2.49362963 119.774519,1.79140741 C119.774519,1.108 119.224,0.538666667 118.521778,0.538666667 Z M120.021334,1.79140741 C120.021334,2.60755555 119.356889,3.29096297 118.521778,3.29096297 C117.705481,3.29096297 117.041185,2.60755555 117.041185,1.79140741 C117.041185,0.975111112 117.705481,0.310814815 118.521778,0.310814815 C119.356889,0.310814815 120.021334,0.975111112 120.021334,1.79140741 L120.021334,1.79140741 Z" id="Fill-13"></path>
                <path d="M110.416593,23.9998518 C102.216444,23.9808889 101.324296,18.6471112 101.324296,16.3691852 L105.652148,16.3691852 C105.690074,17.4512592 106.164741,19.9758518 110.093778,19.9758518 C111.346667,19.9758518 112.352593,19.7860741 113.073926,19.4253334 C114.004148,18.9318518 114.459704,18.1534814 114.459704,17.0906666 C114.459704,15.4201482 113.036,14.9266667 110.663259,14.3192592 L108.404444,13.7688889 C104.930667,12.8957038 101.646963,12.0794074 101.646963,7.04933333 C101.646963,6.06222222 101.836889,4.16414815 103.146667,2.58859259 C104.532148,0.880296296 106.790963,0.0260740741 109.809037,0.0260740741 C112.713333,0.0260740741 114.934222,0.918222222 116.395704,2.6645926 C117.933333,4.46785186 118.104,6.57481482 118.123111,7.40992592 L113.776296,7.40992592 C113.681333,6.47985185 113.37763,4.03125926 109.48637,4.03125926 C108.537333,4.03125926 107.683259,4.24 107.037778,4.61955556 C106.259556,5.09422223 105.860889,5.79644444 105.860889,6.70770371 C105.860889,8.47288889 107.246519,8.81451852 108.062815,9.0234074 L113.225926,10.3900741 C116.110963,11.1493333 118.806519,12.421037 118.806519,16.5211852 C118.806519,19.4632592 117.629481,21.5703703 115.313778,22.8231112 C113.37763,23.886074 111.251704,23.9998518 110.416593,23.9998518" id="Fill-14"></path>
            </g>
        </g>
    </g>
</svg>