<?xml version="1.0" encoding="UTF-8"?>
<svg width="200px" height="60px" viewBox="0 0 200 60" version="1.1" xmlns="http://www.w3.org/2000/svg" xmlns:xlink="http://www.w3.org/1999/xlink">
    <!-- Generator: Sketch 46.1 (44463) - http://www.bohemiancoding.com/sketch -->
    <title>logo-liberty</title>
    <desc>Created with Sketch.</desc>
    <defs></defs>
    <g id="Page-1" stroke="none" stroke-width="1" fill="none" fill-rule="evenodd">
        <g id="liberty" fill-rule="nonzero">
            <g id="logo-liberty" transform="translate(50.000000, 6.000000)">
                <path d="M35.9708943,20.2754078 C35.8544827,20.121079 35.5653314,20.247177 35.5653314,20.247177 L30.9482985,21.9636135 C30.5915534,21.0865746 30.17848,20.2622334 29.7090786,19.498118 L31.2036529,15.4084065 C31.2036529,15.4084065 31.3914134,15.0037642 31.2167962,14.902133 C31.0440563,14.8005019 30.7642931,15.0715182 30.7642931,15.0715182 L28.0473973,17.3036386 C26.9903052,16.1668757 25.7473301,15.2503137 24.318472,14.6010037 C23.7871095,14.3638645 23.2313382,14.1643664 22.6530356,14.0006273 L21.8118682,10.7653701 C21.8118682,10.7653701 21.7386415,10.4416562 21.5227168,10.4416562 C21.3049146,10.4416562 21.2467088,10.7484316 21.2467088,10.7484316 L20.7078358,13.6053952 C20.1182676,13.530113 19.5080457,13.4887076 18.8790477,13.4887076 C16.8531109,13.4887076 15.0543645,13.8726475 13.4809308,14.5821831 C12.8049926,14.8851945 12.1703618,15.2484316 11.5789159,15.6643664 C11.4794029,15.7340026 11.3855226,15.8092848 11.2897647,15.8826851 C10.7302381,14.4353827 10.2871231,13.2553325 10.2045084,12.9015056 C10.516191,12.6173149 11.1695979,11.5878293 11.3291943,10.8914681 C11.5507519,9.91656211 11.4831581,9.45734002 11.2503349,8.7195734 C11.0813504,8.1813049 10.7415038,7.67691343 10.7621574,7.33626098 C10.7809334,7.08406525 10.9142435,6.90150564 11.030655,6.78293601 C10.9686941,6.42534505 10.7358709,6.27101631 10.4598629,6.23525722 C10.2045084,6.19949812 10.0073598,6.27478043 9.78204713,6.28607277 C9.72571894,6.18067754 9.61118499,6.19949812 9.69755486,5.83061481 C9.82523206,5.27352572 10.8954674,5.01003764 11.7685541,4.67126725 C12.8763417,4.24027603 13.4959516,3.4404015 13.5335037,2.15683814 C13.5597902,1.22333751 13.041571,0.534504391 12.3900417,0.222082811 C12.2586093,0.598494354 11.7197364,1.10476788 11.3460928,1.31179423 C10.9762045,1.51505646 10.4636181,1.59410289 10.0937297,1.50752823 C10.1744668,0.820577165 9.85902897,0.237139273 9.35770819,0 C9.19811169,0.293601004 8.5972778,0.696361355 7.69227175,0.66813049 C6.78726571,0.639899623 6.73093754,0.425345044 5.45979834,0.429109159 C3.65166385,0.432873275 2.15333435,1.52634881 1.97120657,3.12986198 C1.85103979,4.17440401 2.25096985,5.04767879 2.55326439,5.50125471 C2.32795169,5.67252196 1.80034443,6.18067754 1.70458653,6.33312421 C1.57503172,6.18067754 1.21453139,5.97741531 0.784559638,6.25972397 C0.876562327,6.48745295 0.893460781,6.76599749 0.82023415,7.03136763 C0.745129915,7.29297365 0.0860902425,8.57841907 0.0109860063,9.61543287 C-0.116691195,11.3713927 0.893460781,12.5589711 1.74401626,12.8977415 C1.55625567,13.1819323 1.51682594,13.4830614 1.65013596,13.7296111 C1.73650583,13.8933501 1.91112318,14.0514429 2.27162351,14.0514429 C2.06320926,14.2772898 1.98434981,14.6179423 2.11953744,14.9567126 C2.27162351,15.3331243 2.70159526,15.880803 3.07899405,15.880803 C3.06209559,16.2007529 3.21230407,16.9554579 3.28740831,17.2584692 C3.15409828,17.5031367 3.02266588,17.6894605 3.04331954,18.1411543 C3.06209559,18.6135508 3.36251254,18.9937265 3.73803373,19.0708909 C3.83379163,19.2967378 3.90326304,19.5470514 4.03469546,19.6976161 C4.16800547,19.8481807 4.28441705,20.0326223 4.56605793,20.218946 C4.84957642,20.4090339 5.17064703,20.5614805 5.5461682,20.5614805 C5.92168939,20.5614805 6.25402563,20.5784191 6.42488777,20.5238394 C6.4323982,20.6311167 6.4680727,21.6304894 6.51125764,22.7390213 C5.56494427,25.3795483 5.09178758,28.4435382 5.09178758,31.727729 L5.09178758,31.7296111 C5.09366518,37.6185696 6.76661204,42.8638645 9.9660525,46.2440401 C9.9660525,46.2440401 10.1500579,46.4717692 10.6645219,46.8048933 C10.6645219,46.8048933 11.6652859,45.0884567 13.1861467,43.1405269 C13.5710558,42.6474278 14.0160484,42.1675031 14.5004707,41.706399 C15.2515131,41.053325 15.9781466,40.4736512 16.6841264,39.9579674 C18.6518574,38.6141781 20.9293934,37.5884567 23.0341895,37.1555835 C20.6195884,38.4015056 19.2526913,39.0715182 16.9826658,41.02133 C15.5462973,42.2559599 13.255618,44.4335006 11.6915724,47.4203262 C12.0182757,47.6800502 12.4576355,47.9454204 12.9739772,48 C13.3063134,47.6104141 15.0074243,44.4824341 17.6191742,41.968005 C22.9027572,37.0069009 29.1270207,35.8607277 32.3884222,35.9228356 C32.57055,34.5790464 32.6644303,33.1750314 32.6644303,31.727729 C32.6644303,29.3563362 32.4165862,27.1053952 31.9265311,25.0407779 L35.8169306,20.7007529 C35.8169306,20.7007529 36.0873058,20.4297365 35.9708943,20.2754078" id="Fill-1" fill="#ADADAD"></path>
                <path d="M6.95555077,18.2727273 C6.72854796,18.1408954 6.10239855,17.8357986 5.60866745,17.8565151 C5.09601943,17.8772316 4.6647141,17.9789305 4.26178412,18.2331777 C4.09153201,18.1201789 4.03856469,17.8941813 4.14828272,17.6286342 C4.25610905,17.3649703 4.41311933,17.3273041 4.41311933,17.3273041 L4.26935088,14.8526307 C4.26935088,14.8526307 4.96738451,14.3592028 5.15844521,14.3027034 C5.34572253,14.2462039 5.43274027,14.0974222 5.43274027,13.9090909 C5.74108575,14.1181387 6.19887474,14.5814337 6.44101107,14.9298466 C6.67179726,15.2518931 6.80421556,15.6097226 6.82313247,16.0071017 C6.84015767,16.4025974 6.84583275,16.875309 6.76449007,17.3649703 C6.91960866,17.4986857 7.06716048,17.6116844 7.08796908,17.8188489 C7.10688597,18.0278965 7.03121837,18.1013458 6.95555077,18.2727273" id="Fill-2" fill="#FFFFFF"></path>
                <path d="M29.5416363,25.9090909 C29.5140925,25.4306914 28.9668892,24.1393866 28.6363636,23.8590745 L34.3636364,21.2727273 L29.5416363,25.9090909" id="Fill-3" fill="#FFFFFF"></path>
                <path d="M13.3636364,16.3636364 L18.2727273,20.8001908 C17.7987332,21.0650875 17.0868128,21.780123 16.8916388,22.3636364 L13.3636364,16.3636364" id="Fill-4" fill="#FFFFFF"></path>
                <path d="M16.3636364,25.2043518 C16.1943573,25.4705302 16.1341693,25.6321386 16.0777429,25.9553553 C16.0194357,26.2804732 16.0626959,26.4591931 16.1003135,26.7272727 L14.5768026,25.6644603 C14.5937305,25.3032181 14.5015674,24.7157243 14.4771159,24.4077178 C14.4752351,24.3734948 14.4639499,24.3202591 14.4545455,24.2727273 L16.3636364,25.2043518" id="Fill-5" fill="#FFFFFF"></path>
                <path d="M8.01885814,25.6143995 C7.92474162,25.4430791 7.49180565,16.2689697 7.47298235,15.9508034 L7.96238823,15.591219 L7.96238823,15.4970869 C7.60474547,15.4782605 7.18686814,15.3464756 7.05698735,15.1375025 L6.92522423,12.3267196 C6.4320537,12.2890668 5.9294715,12.1328076 5.73935614,11.9445435 C5.50406485,11.7073307 5.31959648,11.4192866 5.58500506,10.9090909 C5.82970799,11.0804112 6.54687584,11.2875018 7.16992717,11.2875018 C7.30169029,11.2875018 7.57839284,11.584959 7.7365086,11.6470862 C7.9172123,11.7167439 8.21838515,11.8842989 8.36332459,11.9483087 C8.49132305,12.0047879 8.57038092,12.3060105 8.60802752,12.418969 C8.64567413,12.5319275 13.1896195,24.332321 13.266795,24.4622233 C13.3420882,24.5958908 13.6074969,26.5745463 13.6225554,26.7270403 C13.6432611,26.8795342 14.3227823,28.4628353 14.4545455,28.6153292 C13.8521998,28.5983854 12.862094,28.9429087 12.0489274,29.7373833 C11.2583486,30.5111487 10.5562394,32.2149387 10.3981236,33 C10.3397714,32.5839363 8.11485698,25.7838372 8.01885814,25.6143995" id="Fill-6" fill="#FFFFFF"></path>
                <path d="M13.7243924,36.884261 C13.5259226,38.7100708 13.0817282,40.2915554 12.4163817,41.4222695 C11.9873087,42.1495631 10.7851485,43.6249841 10.3636364,44.1818181 C10.8191719,43.2727012 11.1726372,41.0718807 11.1423942,39.3616046 C11.1234924,38.2536183 10.7889289,35.8027907 11.0819082,34.1796382 C11.3975697,32.4371642 11.8909091,31.4598635 13.0552655,30.3840751 C13.6468947,29.836711 14.8622862,29.1378274 16.5974798,29.6113258 L18,32.2553408 C17.249595,32.1113972 16.2572458,32.2420828 15.5956796,32.7496731 C14.350045,33.7080338 13.9323133,34.9997374 13.7243924,36.884261" id="Fill-7" fill="#FFFFFF"></path>
                <path d="M13.9090909,40.3636364 C14.2430427,39.5958288 14.6827458,37.411256 14.8070501,36.6811785 C14.9666048,35.741699 15.1131726,34.3720963 16.2133581,33.4514818 C16.7532467,32.9987206 17.6400742,32.9402389 17.9925789,33.0439968 L19.5528757,36.2699204 C19.6901669,36.6113778 20.148423,36.7321141 20.4545455,36.7151356 C18.9944341,37.1961943 15.3135436,38.9732821 13.9090909,40.3636364" id="Fill-8" fill="#FFFFFF"></path>
                <path d="M27.1593213,30.0524582 C26.9068327,30.4422005 26.9978029,30.8153188 27.1351863,31.0776098 C27.2929917,31.3694548 28.1191489,32.8859404 28.1191489,32.8859404 C28.3790635,33.573069 28.5832821,33.9203276 28.8302011,34.3636364 C29.2776255,34.3636364 29.7603242,34.3525536 30.2727273,34.3636364 C29.7269066,33.1482314 28.4830293,30.8023889 28.4830293,30.8023889 L28.3920592,28.9090909 C28.0300353,29.1252039 27.4099533,29.6627158 27.1593213,30.0524582" id="Fill-9" fill="#FFFFFF"></path>
                <path d="M20.4545455,19.9367626 C21.0700413,19.8227833 22.4628099,19.9538595 22.9090909,20.1818181 L21.4958677,12 L20.4545455,19.9367626" id="Fill-10" fill="#FFFFFF"></path>
                <path d="M5.5012527,10.1222727 C6.74602723,10.1260909 7.33556122,10.6663636 7.62759043,10.9527273 C7.66409408,10.5136364 7.59838751,10.1260909 7.20597325,9.79390909 C6.88109075,9.51709091 6.3098086,9.27272727 5.43189577,9.27272727 C4.84601216,9.27272727 4.25830336,9.45218181 3.89144166,9.77672727 C3.55560806,10.0764545 3.50085259,10.4124545 3.57385989,10.9107273 C3.68154566,10.548 4.47732527,10.1184545 5.5012527,10.1222727" id="Fill-12" fill="#FFFFFF"></path>
                <path d="M3.2765882,3.5824855 C3.24841756,4.05987067 3.3761245,4.55554644 3.60336774,4.85002541 C3.73295273,5.01647004 4.03719574,5.33838494 4.26256094,5.3255815 C4.58370635,5.30546182 4.88419327,4.70918764 5.63728863,4.73845263 C6.12557989,4.75674324 6.4467253,5.42983803 6.86177286,5.45361583 C7.18104022,5.47373551 7.35194217,5.16096593 7.67308757,5.12621375 C7.95103798,5.09877782 8.04869623,5.23412841 8.21772013,5.39874398 C8.33040273,5.14267531 8.49379249,4.96891443 8.9144742,4.66529015 C9.42154589,4.29947777 11.1549798,3.95012694 11.8911728,3.30812622 C12.2573913,2.98621133 12.3400252,2.39359526 12.2235865,1.99303071 C11.9456361,2.37530465 11.1737603,2.77586921 10.4206649,2.8142795 C10.0431782,2.83074106 9.13983939,2.66795455 8.81869398,2.50516804 C8.98020571,2.23629595 9.03279092,1.9308426 8.90132789,1.63636364 C8.65530421,1.82109889 7.5960878,1.92169729 7.18104022,1.92169729 C6.7678707,1.92169729 5.95843404,1.75708172 5.33116757,1.79000483 C3.95831792,1.86133825 3.32166125,2.8142795 3.2765882,3.5824855" id="Fill-13" fill="#FFFFFF"></path>
                <path d="M5.61734419,7.84307179 C8.58606308,7.89952951 9.927984,9.23266049 9.96734202,10.327212 C10.1172773,9.99757171 10.0966612,9.68796479 10.0779193,9.32190014 C10.0629258,9.0323266 9.60937149,8.20913644 9.59062958,7.93595387 C9.57188767,7.66095007 9.64685532,7.47882835 9.70308105,7.22203673 C9.51378773,7.25846107 8.85782081,7.51525269 8.57481794,7.29670663 C8.27307315,7.06176962 8.48298257,6.47533769 8.08752822,6.32781909 C7.69207388,6.1803005 7.07359077,6.63924723 6.67813643,6.58461072 C6.28268208,6.52815298 5.94532766,6 5.5311314,6 C5.11693515,6 4.91077411,6.49354986 4.40286829,6.60282289 C4.01303651,6.6884201 3.53886613,6.45894673 3.30646642,6.47533769 C3.05157642,6.49354986 2.89601855,6.68659888 2.78356707,6.92335711 C2.67111561,7.16193657 2.57928023,7.25846107 2.27940964,7.33313098 C2.04138735,7.39140993 1.69841036,7.1874336 1.52973315,7.22203673 C1.65905234,7.35134315 1.72464903,7.87039005 1.60657499,8.1727121 C1.45663969,8.5551677 1.13427881,8.95947792 1.09492079,9.43663682 C1.06493373,9.8591592 1.20924645,10.0540294 1.32169793,10.3636364 C1.24485609,8.81195933 3.02533774,7.79572014 5.61734419,7.84307179" id="Fill-14" fill="#FFFFFF"></path>
                <path d="M3.78441983,13.5882353 C3.58556625,13.6269593 3.16978148,13.977411 2.96550462,14.3414162 C3.02516069,14.5776323 3.26016947,15.12364 3.49156273,15.2727273 C3.54398777,15.0210215 3.80249743,14.5989305 3.93084837,14.5021206 C4.11162436,14.3646506 4.29240034,14.2697769 4.43882889,14.192329 C4.58344967,14.1148811 4.63587471,14.035497 4.63587471,13.8593029 C4.63587471,13.6869813 4.61418159,13.6037249 4.5418712,13.4294671 C4.68649199,13.4120413 4.9558482,13.4352756 5.04804396,13.2978057 C5.13662418,13.1622718 5.18181819,12.9860779 5.18181819,12.8137563 C5.18181819,12.6375622 5.10770003,12.5988383 4.94500164,12.5794763 C4.78230325,12.5620506 4.30505467,12.546561 4.07185364,12.5678591 C4.07185364,12.5678591 4.43882889,12.3664946 4.54548672,12.3064724 C4.65576007,12.2503227 4.69191526,12.1341508 4.70999286,12.0373409 C4.72807046,11.9385949 4.72445494,11.7217407 4.67564543,11.4545455 C4.12970195,11.4739074 3.16978148,11.9966809 2.91488735,12.2290245 L3.11554869,12.7556703 L2.75218896,12.7382445 C2.69795617,13.0054398 2.73411136,13.4159137 2.84257695,13.6482574 C3.16978148,13.5882353 3.54760329,13.5708095 3.78441983,13.5882353" id="Fill-15" fill="#FFFFFF"></path>
                <path d="M25.5566717,24.835656 C24.9320061,24.4318047 23.7128701,23.8373508 23.3429774,23.7222343 L23.8808315,22.331401 C24.3375357,22.5597467 26.0114886,23.5806977 26.2662617,23.8373508 L25.5566717,24.835656 Z M22.6069665,23.4957757 C22.1502623,23.1843951 20.6480451,23.2391226 20.0214923,23.3825465 L19.5685626,22.0747478 C19.9101471,21.8199819 20.5631209,21.6501378 21.1575911,21.6501378 C21.7539487,21.6501378 22.4069225,21.7935616 22.8598523,22.0200203 L22.6069665,23.4957757 Z M18.1210745,24.4601121 C17.8644142,23.6033436 18.5456961,22.757898 18.8570853,22.4465173 L19.3402105,23.5523904 C18.9740922,23.7524288 18.4041555,24.1845874 18.1210745,24.4601121 Z M19.5987579,26.7020526 C19.5987579,26.7020526 20.2215363,26.3453802 20.8065706,26.2189408 C21.6727988,26.0339996 22.6333874,26.5548544 23.3146692,27.0889194 L23.1844519,27.2946193 L22.2087658,27.5248523 C22.0181578,27.3550083 21.6595884,27.2814093 21.2727108,27.2983936 C20.9254646,27.315378 20.6480451,27.4399302 20.6480451,27.4399302 L20.8386531,27.7531981 L20.391385,27.8664274 C20.191341,27.6116614 19.8799518,27.2983936 19.5987579,27.2134717 L19.5987579,26.7020526 Z M28.3101073,25.2262972 C28.2402806,24.860189 27.3193234,23.7599775 25.7472797,22.5691825 C24.5205948,21.6388149 22.7220862,20.7197702 21.2425155,20.7273189 C18.7457401,20.7424161 17.7134377,22.4559532 17.5247169,23.3523519 C17.4114845,23.8939654 17.4379054,24.4789836 17.553025,24.8016871 C17.1548242,25.1413751 17.0038477,25.4168998 16.9283594,25.8037666 C16.8736303,26.0830656 16.9283594,26.4850297 17.1850195,26.7303599 C17.1548242,26.3604774 17.4058228,25.9320932 17.6096412,25.6527942 C17.8379933,25.3395264 18.2154348,25.2187485 18.5570193,25.0111614 L18.6136355,25.6943117 C18.2890358,25.8811401 17.8927223,26.2774427 17.8644142,26.4850297 L17.8927223,27.6116614 L18.7514017,27.1002423 L18.9155888,27.4399302 L18.6041996,29.4271047 L19.0854374,29.3421828 L19.9648761,29.7045166 L19.1137455,30.4197485 L19.1137455,30.7065961 C19.1137455,30.7065961 19.2420756,30.5292035 19.5440288,30.5443007 C19.8440948,30.5556237 20.6178498,30.9028603 20.6178498,30.9028603 L20.5895418,31.0745914 L20.2498444,31.0745914 C19.9082598,31.0745914 19.0854374,31.0745914 19.0854374,31.0745914 C19.026934,31.2727427 19.2043315,31.4256022 19.3175639,31.5086371 C19.5157207,31.4539095 19.7214263,31.3520032 19.8346588,31.3520032 C19.9460041,31.3520032 20.210213,31.4180537 20.436678,31.446361 L20.1649201,31.810582 C20.1649201,31.810582 20.0233795,31.9181498 19.7667193,31.8671966 C19.6270659,31.8407764 19.4836382,32.0370405 19.4836382,32.1993359 C19.4836382,32.3710671 19.5930962,32.7994513 19.5930962,32.7994513 C19.7327495,33.4373098 20.3857233,33.3070961 20.4687604,33.3014346 C20.8839461,33.2655787 22.2351867,32.7768054 22.2351867,32.7768054 L20.9367879,34.5979103 L21.5048373,36.5454545 C22.3616295,36.1944436 24.9206828,35.2829476 27.7024266,34.8262561 C27.3985861,34.3223856 27.3476316,34.1223472 26.9758516,33.3731465 L25.5566717,30.1083679 L25.7567156,29.6252561 C26.0681049,29.7403726 26.5493428,29.5120268 26.8607321,29.2572608 C27.1758957,29.0024948 27.5439011,28.5458033 27.6854417,28.26273 C27.4872849,28.1513878 27.3193234,28.177808 27.1457004,28.2910373 C26.9758516,28.4061538 26.8437472,28.6250638 26.6078462,28.5193831 C26.351186,28.4061538 26.4757418,28.1249677 26.5040498,27.8702017 C26.532358,27.6173229 26.2096454,27.6116614 25.9831806,27.8079255 C25.7567156,28.0079641 25.2735906,27.923042 24.9603141,27.6116614 C24.6489249,27.2983936 23.1467078,26.0490969 22.6069665,25.7396033 C21.8275499,25.2923475 20.7895857,25.1791182 20.0214923,25.3168805 C19.5742241,25.3961411 19.2552861,25.5942924 19.0854374,25.5093705 L18.5249369,24.6412789 L18.6136355,24.5846643 C18.8117923,24.6714735 18.9986259,24.8299946 19.2552861,24.7450725 C19.5100591,24.6582634 20.3328815,24.471435 21.0726669,24.4601121 C22.2087658,24.4431277 23.5883143,24.8564147 24.1941079,25.114955 C24.222416,25.8509455 25.7076483,26.7869745 26.3794941,26.8718965 C26.9456563,26.9436084 27.2891281,26.7869745 27.6288255,26.5888233 L26.1813374,25.3168805 L26.9475436,24.3468828 C26.9475436,24.3468828 28.1685667,25.5093705 28.3403026,25.7396033 C28.3950317,25.6056154 28.3403026,25.3848181 28.3101073,25.2262972 L28.3101073,25.2262972 Z" id="Fill-16" fill="#FFFFFF"></path>
                <path d="M25.3636364,21.2422191 C25.9097038,21.4379533 27.06619,22.4147777 27.3438203,22.6363636 L30.2727273,16.3636364 L25.3636364,21.2422191" id="Fill-17" fill="#FFFFFF"></path>
                <path d="M43.7226527,25.0313677 C43.7226527,26.0138017 44.1341435,26.3224592 45.615888,26.3224592 C47.0938573,26.3224592 47.775271,25.8726475 48.7417082,23.8814304 L49.0909091,23.8814304 L48.7417082,27 L39.5454545,27 L39.5454545,26.6499373 C40.9252701,26.3017566 41.0687257,25.9930991 41.0687257,24.7020076 L41.0687257,17.0307403 C41.0687257,15.9636135 40.8006903,15.6568382 39.5454545,15.3481807 L39.5454545,15 L45.2440362,15 L45.2440362,15.3481807 C44.0510903,15.6568382 43.7226527,15.9033877 43.7226527,16.9498118 L43.7226527,25.0313677" id="Fill-18" fill="#ADADAD"></path>
                <path d="M51.9009611,14.1818181 C52.630163,14.1818181 53.2179889,14.7773573 53.2179889,15.5119183 C53.2179889,16.2502365 52.630163,16.8664411 51.9009611,16.8664411 C51.1698991,16.8664411 50.5616108,16.2502365 50.5616108,15.5119183 C50.5616108,14.7773573 51.1698991,14.1818181 51.9009611,14.1818181 Z M53.0356884,25.3392535 C53.0356884,26.1189026 53.4207517,26.54724 54.2727273,26.6505669 L54.2727273,27 L49.4659478,27 L49.4659478,26.6505669 C50.5002239,26.4457917 50.7439113,26.1583548 50.7439113,25.1776878 L50.7439113,21.0615165 C50.7439113,20.1184229 50.4797616,19.8535301 49.3636364,19.6280895 L49.3636364,19.2786564 L52.6896896,18.9930982 L53.0356884,18.9930982 L53.0356884,25.3392535 L53.0356884,25.3392535 Z" id="Fill-19" fill="#ADADAD"></path>
                <path d="M58.011983,14.1818181 L57.6640206,14.1818181 L54.5454545,14.4066835 L54.5454545,14.7552247 C55.2600869,14.8770268 55.7071999,15.2443068 55.7071999,15.8982901 L55.7071999,26.9672852 C56.8689453,27.1902767 58.011983,27.2727273 59.4599555,27.2727273 C63.2108403,27.2727273 64.6363636,25.3107774 64.6363636,22.9421961 C64.6363636,20.6954169 63.0480837,18.96208 60.9696633,18.96208 C59.8677824,18.96208 58.9286581,19.4099367 58.011983,20.3712359 L58.011983,14.1818181 Z M58.011983,20.9202821 C58.7883507,20.2063347 59.1924361,20.0020821 59.8060471,20.0020821 C61.1698352,20.0020821 62.088381,21.3100486 62.088381,23.1895479 C62.088381,25.7005439 60.9472141,26.7218073 59.2354637,26.7218073 C58.3169178,26.7218073 58.011983,26.3114281 58.011983,25.4344533 L58.011983,20.9202821 L58.011983,20.9202821 Z" id="Fill-20" fill="#ADADAD"></path>
                <path d="M73.9090909,22.3486932 C73.6199815,20.1888286 72.0260763,18.8181819 69.8064015,18.8181819 C67.3413642,18.8181819 65.4545455,20.6654095 65.4545455,23.0959722 C65.4545455,25.486502 67.2766949,27.2727273 69.7227119,27.2727273 C71.6095307,27.2727273 73.2053379,26.2337809 73.9090909,24.5504971 L73.5591165,24.5504971 C72.8116167,25.6942913 71.900542,26.2547504 70.759321,26.2547504 C69.3080683,26.2547504 67.8587177,24.9241365 67.98235,22.3486932 L73.9090909,22.3486932 Z M67.98235,21.870206 C68.043215,20.373742 68.6861028,19.378641 69.6409245,19.378641 C70.5938439,19.378641 71.2975969,20.4156811 71.3812864,21.870206 L67.98235,21.870206 L67.98235,21.870206 Z" id="Fill-21" fill="#ADADAD"></path>
                <path d="M81.3112033,21.7618743 C80.6402023,21.1175945 80.1108572,20.7750894 79.5833759,20.7750894 C78.893736,20.7750894 78.465041,21.056499 77.8779151,21.8637002 L77.8779151,24.9703141 C77.8779151,25.8811925 78.0605764,26.1607507 79.1770475,26.3829163 L79.1770475,26.7272727 L74.3029711,26.7272727 L74.3029711,26.3829163 C75.3206559,26.1403856 75.5797369,25.8367595 75.5797369,24.9703141 L75.5797369,20.9546732 C75.5797369,19.9864019 75.1566335,19.5439223 74.1818181,19.4624617 L74.1818181,19.1181052 L77.5312313,18.8181819 L77.8779151,18.8181819 L77.8779151,21.2379341 L77.9170569,21.2379341 C78.670069,19.5828013 79.5032285,18.8181819 80.4594049,18.8181819 C80.9645195,18.8181819 81.4528591,19.0403473 81.8181819,19.4624617 L81.3112033,21.7618743" id="Fill-22" fill="#ADADAD"></path>
                <path d="M94.4227844,19.0546982 L94.4227844,19.4014057 C95.4075303,19.6045837 95.6311653,20.2141177 94.9358295,21.8395417 L93.868395,24.2963178 L92.2315369,20.9466768 C91.7579567,19.9699312 91.7579567,19.5225668 92.639342,19.4014057 L92.639342,19.0546982 L85.7968612,19.0546982 L85.7968612,16.0909091 L85.4078491,16.0909091 C84.3216217,17.4721467 83.0512243,18.6912147 82.0909091,19.2802445 L82.0909091,19.6660962 L83.4834601,19.6660962 L83.4834601,24.5833766 C83.4834601,26.3299618 84.6504967,27.0196486 86.1031849,27.0196486 C87.2514287,27.0196486 88.0106603,26.6132926 88.5819632,25.6570512 L88.3376561,25.435233 C87.9693159,25.8639572 87.6178895,26.044767 87.2119637,26.044767 C86.1257363,26.044767 85.7968612,25.3140718 85.7968612,24.0726356 L85.7968612,19.6660962 L87.8697138,19.6660962 C88.9935269,19.6660962 89.3224019,20.0724523 89.8147749,21.1088464 L92.639342,27.0196486 C91.6978196,29.5379374 90.8784509,30.5538273 89.4464349,30.5538273 C89.1382319,30.5538273 88.8920454,30.5333232 88.3996725,30.3711536 L87.929851,32.6862643 C88.2173818,32.7272727 88.3808797,32.7272727 88.5857218,32.7272727 C90.1812357,32.7272727 91.0626209,32.0562261 91.8838689,30.1884798 L95.7739911,21.3716731 C96.4091899,19.9494271 96.6553763,19.6660962 97.6363636,19.4014057 L97.6363636,19.0546982 L94.4227844,19.0546982" id="Fill-23" fill="#ADADAD"></path>
                <path d="M54.6390005,40.8753796 C54.7811028,41.9219679 55.2934194,42.5149091 56.4545455,42.7407915 L56.4545455,43.0909091 L50.5647755,43.0909091 L50.5647755,42.7407915 C51.8680039,42.4151444 52.0942459,41.6565562 51.8680039,40.0979679 L50.8901152,33.2424385 L50.8489803,33.2424385 L46.9804298,43.0909091 L46.550383,43.0909091 L42.7192279,33.2424385 L42.6799628,33.2424385 L41.6403716,40.3012621 C41.4365669,41.6979679 41.7002043,42.6410268 43.0464373,42.7407915 L43.0464373,43.0909091 L38.7272727,43.0909091 L38.7272727,42.7407915 C40.0099338,42.6824385 40.5596457,41.9426738 40.8438503,40.0979679 L42.0274137,32.2617326 C41.5581019,31.7685562 40.9055527,31.4598502 40.2941386,31.4410268 L40.2941386,31.0909091 L44.5946054,31.0909091 L47.7115091,39.0080855 L50.8695477,31.0909091 L54.9063774,31.0909091 L54.9063774,31.4410268 C53.6816791,31.6669091 53.3974743,32.2805562 53.5582745,33.3892621 L54.6390005,40.8753796" id="Fill-24" fill="#ADADAD"></path>
                <path d="M57.3848069,36.9259813 C57.3848069,36.0528851 57.1008717,35.7421543 56.1818181,35.5743979 L56.1818181,35.221728 L59.3387298,34.9090909 L59.6843088,34.9090909 L59.6843088,40.6852516 C59.6843088,41.6212565 60.2745953,42.0578047 61.1114571,42.0578047 C61.882939,42.0578047 62.3518058,41.7261043 63.0224159,40.6414062 L63.0224159,36.7372553 C63.0224159,36.0929179 62.6151931,35.7192785 61.8212951,35.5743979 L61.8212951,35.221728 L64.9763388,34.9090909 L65.3237858,34.9090909 L65.3237858,41.1408629 C65.3237858,42.1798094 65.5273972,42.4295378 66.5454545,42.6983294 L66.5454545,43.0529056 L63.0224159,43.3636364 L63.0224159,41.4535001 L62.9831881,41.4535001 C62.1276463,42.7822077 61.1693649,43.3636364 59.9290162,43.3636364 C58.3430884,43.3636364 57.3848069,42.4695706 57.3848069,40.9750128 L57.3848069,36.9259813" id="Fill-25" fill="#ADADAD"></path>
                <path d="M67.0909091,35.7499341 L67.0909091,35.3646446 C68.0608867,34.7764732 69.3434548,33.5591817 70.4346797,32.1818181 L70.8306275,32.1818181 L70.8306275,35.1412883 L73.3881858,35.1412883 L73.3881858,35.7499341 L70.8306275,35.7499341 L70.8306275,40.1500519 C70.8306275,41.389679 71.1602684,42.1193094 72.2533877,42.1193094 C72.666386,42.1193094 73.0168662,41.9350405 73.3881858,41.5088025 L73.6363636,41.7321586 C73.058545,42.6870066 72.2950665,43.0909091 71.1375345,43.0909091 C69.6730957,43.0909091 68.4947244,42.4040886 68.4947244,40.6563261 L68.4947244,35.7499341 L67.0909091,35.7499341 Z" id="Fill-26" fill="#ADADAD"></path>
                <path d="M74.8374845,36.9259813 C74.8374845,36.0528851 74.5535492,35.7421543 73.6363636,35.5743979 L73.6363636,35.221728 L76.7932752,34.9090909 L77.1407222,34.9090909 L77.1407222,40.6852516 C77.1407222,41.6212565 77.7291407,42.0578047 78.5641345,42.0578047 C79.3374845,42.0578047 79.8063511,41.7261043 80.4769614,40.6414062 L80.4769614,36.7372553 C80.4769614,36.0929179 80.0697385,35.7192785 79.2758406,35.5743979 L79.2758406,35.221728 L82.4308842,34.9090909 L82.7764633,34.9090909 L82.7764633,41.1408629 C82.7764633,42.1798094 82.9819427,42.4295378 84,42.6983294 L84,43.0529056 L80.4769614,43.3636364 L80.4769614,41.4535001 L80.4358655,41.4535001 C79.5803237,42.7822077 78.6257783,43.3636364 77.3835616,43.3636364 C75.7957659,43.3636364 74.8374845,42.4695706 74.8374845,40.9750128 L74.8374845,36.9259813" id="Fill-27" fill="#ADADAD"></path>
                <path d="M91.5775679,37.8391104 C91.5775679,35.6792457 89.8302243,34.9090909 88.1622196,34.9090909 C86.3506494,34.9090909 85.0963401,35.887035 84.6826446,37.5703187 L84.9924439,37.5703187 C85.4854782,36.6953162 86.2675325,36.2606743 87.3197167,36.2606743 C88.7194805,36.2606743 89.2540732,36.9259813 89.2540732,38.3195039 C87.359386,39.0229374 84.2727273,39.1906939 84.2727273,41.3086194 C84.2727273,42.4505073 85.3230224,43.3636364 86.6,43.3636364 C87.5445101,43.3636364 88.2661157,43.1367839 89.04817,42.4295378 L89.233294,42.2655939 C89.6224321,43.0529056 90.1589138,43.3636364 91.1053129,43.3636364 C92.2387249,43.3636364 92.9168831,42.8241468 93,41.848109 L92.6731996,41.848109 C92.5881936,42.3265963 92.3822905,42.5744183 92.0517119,42.5744183 C91.7041323,42.5744183 91.5775679,42.2655939 91.5775679,41.5373782 L91.5775679,37.8391104 Z M89.233294,41.7032285 C88.6968123,42.2427181 88.2453365,42.5153223 87.7730815,42.5153223 C87.1327037,42.5153223 86.7001181,41.9529568 86.7001181,41.1008302 C86.7001181,40.0428206 87.2970484,39.5643333 89.233294,38.7312699 L89.233294,41.7032285 L89.233294,41.7032285 Z" id="Fill-28" fill="#ADADAD"></path>
                <path d="M94.7378134,32.383095 C94.7378134,31.2969039 94.385283,30.9079047 93.2727273,30.8440111 L93.2727273,30.498234 L96.7203232,30.2727273 L97.0709583,30.2727273 L97.0709583,41.2060482 C97.0709583,42.2302249 97.3002926,42.4764031 98.4545455,42.7413735 L98.4545455,43.0909091 L93.2727273,43.0909091 L93.2727273,42.7413735 C94.4080269,42.5609681 94.7378134,42.1888819 94.7378134,41.2060482 L94.7378134,32.383095" id="Fill-29" fill="#ADADAD"></path>
            </g>
        </g>
    </g>
</svg>