<?xml version="1.0" encoding="UTF-8"?>
<svg width="200px" height="60px" viewBox="0 0 200 60" version="1.1" xmlns="http://www.w3.org/2000/svg" xmlns:xlink="http://www.w3.org/1999/xlink">
    <!-- Generator: Sketch 46.1 (44463) - http://www.bohemiancoding.com/sketch -->
    <title>logo-dow</title>
    <desc>Created with Sketch.</desc>
    <defs></defs>
    <g id="Page-1" stroke="none" stroke-width="1" fill="none" fill-rule="evenodd">
        <g id="dow" fill-rule="nonzero" fill="#ADADAD">
            <g id="logo-dow" transform="translate(72.000000, 2.000000)">
                <path d="M9.36973591,49.3347304 C8.96922117,49.3433359 8.56899063,49.3915536 8.31707504,49.4762601 C7.793994,49.6521461 7.25395589,50.09621 7.00696267,50.5537259 C6.8388462,50.8651344 6.81939324,51.0360281 6.79391623,52.4267297 C6.77548135,53.4330204 6.7994162,54.0675613 6.8636261,54.2796994 C7.07889426,54.9909223 7.63692761,55.5431836 8.38253958,55.7828842 C8.61849443,55.8587389 9.02012253,55.8906995 9.53821348,55.8748139 C10.7841711,55.8366087 11.4908504,55.4372014 11.8897227,54.5459558 C12.0524813,54.1822986 12.0839698,53.9463883 12.1128905,52.873937 C12.1516159,51.4378616 12.0610322,50.8600165 11.7173266,50.3535491 C11.4452876,49.9526934 10.9149372,49.5745998 10.4237024,49.431022 C10.1709844,49.3571576 9.77025065,49.3261251 9.36973591,49.3347304 L9.36973591,49.3347304 Z M9.48042213,50.571175 C9.83743706,50.581113 10.1896157,50.7041919 10.4253348,50.9474553 L10.6666241,51.1964247 L10.6902966,52.5353003 C10.7171276,54.0523779 10.6550392,54.2612206 10.0996438,54.5220438 C9.49639542,54.8053382 8.69841014,54.6315755 8.3320946,54.1370389 C8.17440966,53.924153 8.15904489,53.7877842 8.15904489,52.6067112 C8.15904489,51.4713609 8.17862323,51.2812595 8.31707504,51.0791296 C8.5544358,50.7325898 9.02140223,50.5583971 9.48042213,50.571175 L9.48042213,50.571175 Z" id="path3551"></path>
                <path d="M26.6316626,55.9266646 C25.946139,55.7213428 25.5136844,55.2240026 25.4003091,54.5105607 L25.3333334,54.0891614 L26.0241962,54.0891614 C26.7145974,54.0891614 26.7151262,54.0893284 26.8207025,54.3428727 C27.004932,54.7852857 27.5371199,54.9004488 27.9401415,54.5851111 L28.1601003,54.4130083 L28.1823305,51.9337769 L28.2045606,49.4545455 L28.8761652,49.4545455 L29.5477698,49.4545455 L29.5700503,51.9130705 C29.5961085,54.7889232 29.5532685,55.0618579 29.002133,55.5311147 C28.8181134,55.6877932 28.5212221,55.8595963 28.3423655,55.9128985 C27.9747626,56.0224525 26.9782525,56.0304708 26.6316626,55.9266646 Z" id="path3547"></path>
                <path d="M33.8124904,49.3333442 C33.1219987,49.332684 32.9569399,49.3617603 32.5210525,49.5613852 C31.9036322,49.8441487 31.6902758,50.0371221 31.4112392,50.5646061 C31.2052825,50.9539502 31.1910748,51.0569341 31.1612512,52.3931255 C31.1358774,53.5300354 31.1565015,53.9005622 31.2660629,54.2737006 C31.4812775,55.0067496 32.1464205,55.6178374 32.9375325,55.8093933 C33.4159011,55.9252254 34.4465349,55.8910416 34.9070045,55.7441232 C35.5436239,55.5410037 36.1683021,54.9249124 36.3462269,54.3246273 C36.5262599,53.7172288 36.5324762,51.474507 36.3558265,50.8854752 C36.1823514,50.3070391 35.76108,49.8552616 35.1301353,49.571055 C34.6695075,49.363564 34.5056321,49.3340043 33.8124904,49.3333442 Z M33.8313729,50.5749203 C34.1111094,50.5801929 34.3915876,50.6408686 34.5782453,50.7550967 C35.0160492,51.0230275 35.0624303,51.2053204 35.0624303,52.6614574 C35.0624303,53.8754227 35.0497893,53.9825743 34.8817723,54.1940872 C34.7824105,54.3191633 34.577312,54.4726886 34.4260692,54.535263 C33.806799,54.7914767 33.0199535,54.6070524 32.7311591,54.1380041 C32.5820413,53.8958127 32.5628755,53.7229388 32.5628755,52.5989266 C32.5628755,51.1974206 32.6171479,51.0032835 33.0893835,50.7270552 C33.2727497,50.6197962 33.5516279,50.569651 33.8313729,50.5749203 L33.8313729,50.5749203 Z" id="path3545"></path>
                <path d="M52.3594636,55.8854852 C51.8797537,55.7347477 51.4062954,55.394959 51.1510944,55.0182743 C50.9250704,54.6846521 50.7253349,54.0442383 50.8062064,53.9124781 C50.8338517,53.8674415 51.1471736,53.8305932 51.5024837,53.8305932 C52.1478741,53.8305932 52.1486151,53.8308447 52.2675789,54.0970197 C52.4692042,54.5481394 52.7756668,54.7106879 53.4245701,54.7106879 C54.0973394,54.7106879 54.3428924,54.5538022 54.3428924,54.1239582 C54.3428924,53.730783 54.1287723,53.5917247 53.1209877,53.3304036 C51.961058,53.0296317 51.8381234,52.9771018 51.4341821,52.6096446 C50.7182258,51.9583628 50.6614201,50.7865025 51.310723,50.0628468 C52.2719742,48.9915067 54.5312818,49.1252594 55.3028284,50.2991808 C55.4195114,50.476726 55.5371102,50.7592917 55.5641562,50.9271048 L55.6133283,51.2322185 L54.943431,51.2322185 C54.3222895,51.2322185 54.2623372,51.2167498 54.119782,51.019695 C53.6458408,50.3645944 52.2617935,50.5208079 52.2617935,51.2293997 C52.2617935,51.5888295 52.5539798,51.7669641 53.5597832,52.0207339 C54.5730536,52.2763888 54.8568239,52.4027612 55.2400458,52.7690047 C55.5240409,53.0404267 55.7584143,53.6514386 55.7575735,54.1182165 C55.7561584,54.9272449 55.2183109,55.6395071 54.4311893,55.8748695 C53.8882971,56.0372051 52.8590772,56.042479 52.3594636,55.8854852 L52.3594636,55.8854852 Z" id="path3541"></path>
                <path d="M0.0436541327,49.4545455 L0.0218266493,52.6666667 L0,55.8787879 L1.60089145,55.8787879 C3.51439245,55.8787879 3.9704836,55.7857657 4.55182258,55.2771622 C5.22484415,54.6883435 5.29258174,54.4743565 5.3250661,52.8329393 C5.34784184,51.6820641 5.32705936,51.3249666 5.21853493,51.0002166 C5.02458291,50.4198297 4.6091168,49.9800717 3.98952302,49.6990164 C3.46479189,49.4609913 3.45722499,49.4600744 1.7533569,49.4572975 L0.0436541327,49.4545455 L0.0436541327,49.4545455 Z M1.41975636,50.7393939 L2.30637152,50.7393939 C3.04237604,50.7393939 3.23830965,50.7671691 3.45849935,50.9024279 C3.90656324,51.1776641 3.96346048,51.3797343 3.96346048,52.6943515 C3.96346048,54.0216397 3.89978114,54.2023657 3.33193297,54.4901601 C3.1176455,54.5987638 2.84222573,54.6351407 2.23290768,54.6352237 L1.41975636,54.6353895 L1.41975636,52.6873933 L1.41975636,50.7393973 L1.41975636,50.7393939 Z" id="path3539"></path>
                <path d="M14.6535292,55.8114288 C14.5176353,55.2348644 13.4545454,49.738915 13.4545454,49.6129243 C13.4545454,49.4813544 13.5352053,49.4628653 14.1091763,49.4628653 L14.7638071,49.4628653 L14.8444422,49.86096 C14.8887865,50.079912 15.0662134,51.0409086 15.2387289,51.9965078 C15.4112443,52.952107 15.5636092,53.7225855 15.5773267,53.7086823 C15.5910443,53.6947791 15.7913421,53.0449251 16.0224238,52.2645622 C16.2535137,51.4841993 16.5358605,50.5327058 16.6498758,50.1501327 L16.8571689,49.4545455 L17.2805774,49.4796573 L17.703986,49.5047699 L18.3216481,51.6209854 C18.6613622,52.7849039 18.94996,53.726397 18.9629912,53.7131938 C18.9760143,53.6999896 19.1561119,52.7719762 19.3632065,51.6509423 C19.5703011,50.5299075 19.7602962,49.5789857 19.7854162,49.5377816 C19.8405096,49.4474367 21.0358966,49.4363848 21.0897663,49.5257223 C21.1106197,49.5602936 20.8435449,51.031149 20.496265,52.7942897 L19.8648606,56 L19.1175887,56 L18.3703085,56 L17.8429062,54.2819069 C17.5528366,53.3369556 17.2932779,52.5645396 17.2661239,52.5654262 C17.2389617,52.5663147 17.0987186,52.9528847 16.9544651,53.4244728 C16.8102117,53.8960617 16.5726804,54.6684778 16.4266162,55.1409535 L16.1610463,56 L15.4295096,56 C14.7391751,56 14.6954757,55.9893797 14.6535292,55.8114288 L14.6535292,55.8114288 Z" id="path3535"></path>
                <polygon id="path3533" points="38.0824064 52.7502374 38.104215 49.5004749 38.770637 49.4775102 39.437059 49.4545455 40.7282515 51.5313945 42.0194441 53.6082426 42.0417193 51.533393 42.0640027 49.4585425 42.7289669 49.4585425 43.3939394 49.4585425 43.3939394 52.7292712 43.3939394 56 42.7066917 55.9996645 42.0194441 55.9993291 40.7699029 53.9908785 39.5203617 51.9824279 39.4980533 53.9911771 39.4757448 55.999927 38.7681713 55.999927 38.0606061 55.999927 38.0824064 52.7501645"></polygon>
                <polygon id="path3531" points="45.0909091 52.7272727 45.0909091 49.4545455 47.2517482 49.4769313 49.4125874 49.4993171 49.4125874 50.1284155 49.4125874 50.7575138 47.965035 50.7804642 46.5174825 50.8034153 46.5174825 51.4283483 46.5174825 52.0532811 47.7972028 52.0764352 49.0769231 52.0995902 49.1015776 52.7077187 49.1262321 53.3158471 47.8218573 53.3158471 46.5174825 53.3158471 46.5174825 54.0288251 46.5174825 54.7418033 47.986014 54.7418033 49.4545455 54.7418033 49.4545455 55.3709017 49.4545455 56 47.2727272 56 45.0909091 56"></polygon>
                <path d="M12.3636363,18.5454545 L12.3636363,0 L22.5944938,0.0255497635 L32.8253512,0.0510986954 L33.7004958,0.269778427 C37.9437304,1.3300695 41.055953,4.03400797 42.578913,7.98345458 C42.9455153,8.93416838 43.2817876,10.4745224 43.3435561,11.4861113 L43.3939394,12.3111476 L40.3026119,12.3111476 L37.2112843,12.3111476 L37.163193,11.9161682 C37.003375,10.6036217 36.588448,9.55799305 35.8448168,8.59383498 C35.1010523,7.62950313 33.9819506,6.84764926 32.742004,6.42606486 L32.0752272,6.19936081 L25.3449483,6.17576766 L18.6146694,6.15217532 L18.6146694,18.54486 L18.6146694,30.9375455 L21.6985123,30.9375455 L24.7823554,30.9375455 L24.7823554,34.0142273 L24.7823554,37.0909091 L18.5729958,37.0909091 L12.3636363,37.0909091 L12.3636363,18.5454545 Z" id="path3529"></path>
                <path d="M29.4545454,34.0188926 L29.4545454,30.9468753 L30.5597231,30.890943 C31.167571,30.8601798 31.9025516,30.7794747 32.1930174,30.711597 C33.9760402,30.294934 35.7027366,28.937423 36.5068305,27.3201232 C37.1794374,25.9672845 37.1551902,26.1805752 37.1900722,21.3089074 L37.2211423,16.969697 L40.3075408,16.969697 L43.3939394,16.969697 L43.362444,21.6826193 L43.3309484,26.3955418 L43.1151761,27.2675362 C42.5087546,29.7181753 41.4563001,31.5932589 39.7129636,33.3290171 C38.2979941,34.7378412 36.7344387,35.7184803 34.8893925,36.354298 C33.5115152,36.8291264 32.6045688,36.9868553 30.9350666,37.0420034 L29.4545454,37.0909091 L29.4545454,34.0188926 L29.4545454,34.0188926 Z" id="path3525"></path>
            </g>
        </g>
    </g>
</svg>