<?xml version="1.0" encoding="UTF-8" standalone="no"?>
<!DOCTYPE svg PUBLIC "-//W3C//DTD SVG 1.1//EN" "http://www.w3.org/Graphics/SVG/1.1/DTD/svg11.dtd">
<svg width="100%" height="100%" viewBox="0 0 200 200" version="1.1" xmlns="http://www.w3.org/2000/svg" xmlns:xlink="http://www.w3.org/1999/xlink" xml:space="preserve" style="fill-rule:evenodd;clip-rule:evenodd;stroke-linejoin:round;stroke-miterlimit:1.41421;">
    <g transform="matrix(1,0,0,1,-660,0)">
        <g id="reliable" transform="matrix(1,0,0,1,660,0)">
            <rect x="0" y="0" width="200" height="200" style="fill:none;"/>
            <g transform="matrix(1,0,0,1,-710,-50)">
                <rect x="760" y="130" width="50" height="50" style="fill:rgb(35,82,128);"/>
            </g>
            <g transform="matrix(1.2,0,0,1.2,-842,-56)">
                <rect x="760" y="130" width="50" height="50" style="fill:white;"/>
            </g>
            <g transform="matrix(1,0,0,1,-685,-25)">
                <rect x="760" y="130" width="50" height="50" style="fill:rgb(255,116,82);"/>
            </g>
            <g transform="matrix(1.2,0,0,1.2,-817,-31)">
                <rect x="760" y="130" width="50" height="50" style="fill:white;"/>
            </g>
            <g transform="matrix(2.62967e-18,-0.0429457,0.00574449,3.51748e-19,58.295,59.4671)">
                <rect x="-481" y="-1444" width="1400" height="8704" style="fill:url(#_Linear1);fill-rule:nonzero;"/>
            </g>
            <g transform="matrix(1,0,0,1,-660,0)">
                <rect x="760" y="130" width="50" height="50" style="fill:rgb(105,209,238);"/>
            </g>
        </g>
    </g>
    <defs>
        <linearGradient id="_Linear1" x1="0" y1="0" x2="1" y2="0" gradientUnits="userSpaceOnUse" gradientTransform="matrix(-1018.61,-6.58524e-12,5.77098e-13,-11623.3,537.612,2908)"><stop offset="0" style="stop-color:white;stop-opacity:1"/><stop offset="1" style="stop-color:rgb(133,225,178);stop-opacity:1"/></linearGradient>
    </defs>
</svg>
