<?xml version="1.0" encoding="UTF-8"?>
<svg width="68px" height="55px" viewBox="0 0 68 55" version="1.1" xmlns="http://www.w3.org/2000/svg" xmlns:xlink="http://www.w3.org/1999/xlink">
    <!-- Generator: Sketch 45 (43475) - http://www.bohemiancoding.com/sketch -->
    <title>Page 1</title>
    <desc>Created with Sketch.</desc>
    <defs>
        <polygon id="path-1" points="54.2837 54 0.7337 54 0.7337 0.5873 54.2837 0.5873 54.2837 54"></polygon>
    </defs>
    <g id="Page-1" stroke="none" stroke-width="1" fill="none" fill-rule="evenodd">
        <g id="Maintenance" transform="translate(-145.000000, -249.000000)">
            <g id="Page-1" transform="translate(145.000000, 249.000000)">
                <g id="Group-3" transform="translate(0.000000, 3.438600)" fill="#69CFEC">
                    <path d="M23.8099,9.0613 L4.3229,9.0613 C1.9359,9.0613 -0.0001,7.1253 -0.0001,4.7383 L-0.0001,4.7383 C-0.0001,2.3503 1.9359,0.4143 4.3229,0.4143 L23.8099,0.4143 L23.8099,9.0613 Z" id="Fill-1"></path>
                </g>
                <path d="M26.6996,2.3949 C29.9006,5.5879 29.9006,10.7649 26.6996,13.9589 C23.4986,17.1519 18.3076,17.1519 15.1066,13.9589 C11.9046,10.7649 11.9046,5.5879 15.1066,2.3949 C18.3076,-0.7981 23.4986,-0.7981 26.6996,2.3949" id="Fill-4" fill="#235280"></path>
                <g id="Group-8" transform="translate(13.000000, 0.438600)">
                    <mask id="mask-2" fill="white">
                        <use xlink:href="#path-1"></use>
                    </mask>
                    <g id="Clip-7"></g>
                    <path d="M39.7597,30.5523 L54.2837,45.0353 L45.2957,54.0003 L30.7757,39.5133 C27.9567,40.9543 24.7617,41.7663 21.3767,41.7663 C9.9757,41.7663 0.7337,32.5483 0.7337,21.1773 C0.7337,18.5213 1.2377,15.9833 2.1557,13.6523 L16.3317,27.7923 C16.3317,27.7923 22.5857,28.2063 25.5047,25.2943 C28.4237,22.3833 28.0087,16.1453 28.0087,16.1453 L13.8327,2.0053 C16.1697,1.0893 18.7137,0.5873 21.3767,0.5873 C32.7767,0.5873 42.0187,9.8053 42.0187,21.1773 C42.0187,24.5533 41.2037,27.7403 39.7597,30.5523" id="Fill-6" fill="#FF7452" mask="url(#mask-2)"></path>
                </g>
            </g>
        </g>
    </g>
</svg>