<?xml version="1.0" encoding="UTF-8"?>
<svg width="509px" height="522px" viewBox="0 0 509 522" version="1.1" xmlns="http://www.w3.org/2000/svg" xmlns:xlink="http://www.w3.org/1999/xlink">
    <!-- Generator: Sketch 45.2 (43514) - http://www.bohemiancoding.com/sketch -->
    <title>illustration</title>
    <desc>Created with Sketch.</desc>
    <defs></defs>
    <g id="Page-1" stroke="none" stroke-width="1" fill="none" fill-rule="evenodd">
        <g id="Prototyping" transform="translate(-862.000000, -193.000000)" stroke-width="2" stroke="#FFFFFF">
            <g id="hero" transform="translate(0.000000, 164.000000)">
                <g id="bkg">
                    <g id="illustration" transform="translate(863.000000, 30.000000)">
                        <path d="M248.931753,300.357325 C248.931753,315.927566 236.309223,328.550096 220.738982,328.550096 C205.168741,328.550096 192.546211,315.927566 192.546211,300.357325 C192.546211,284.787084 205.168741,272.164554 220.738982,272.164554 C236.309223,272.164554 248.931753,284.787084 248.931753,300.357325 Z" id="Stroke-3"></path>
                        <path d="M91.1821566,229.616494 C91.1821566,239.996916 82.7673976,248.411675 72.3869759,248.411675 C62.0065542,248.411675 53.5917952,239.996916 53.5917952,229.616494 C53.5917952,219.236072 62.0065542,210.821313 72.3869759,210.821313 C82.7673976,210.821313 91.1821566,219.236072 91.1821566,229.616494 Z" id="Stroke-5"></path>
                        <path d="M274.606127,398.048175 C274.606127,401.638054 271.696006,404.548175 268.106127,404.548175 C264.516247,404.548175 261.606127,401.638054 261.606127,398.048175 C261.606127,394.458295 264.516247,391.548175 268.106127,391.548175 C271.696006,391.548175 274.606127,394.458295 274.606127,398.048175 Z" id="Stroke-7"></path>
                        <path d="M7.86327711,123.210319 C7.86327711,125.310681 6.16074699,127.012428 4.06116867,127.012428 C1.96080723,127.012428 0.258277108,125.310681 0.258277108,123.210319 C0.258277108,121.110741 1.96080723,119.408211 4.06116867,119.408211 C6.16074699,119.408211 7.86327711,121.110741 7.86327711,123.210319 Z" id="Stroke-9"></path>
                        <path d="M61.1967952,14.6018976 C61.1967952,16.702259 59.4942651,18.404006 57.3946867,18.404006 C55.2943253,18.404006 53.5917952,16.702259 53.5917952,14.6018976 C53.5917952,12.5015361 55.2943253,10.7997892 57.3946867,10.7997892 C59.4942651,10.7997892 61.1967952,12.5015361 61.1967952,14.6018976 Z" id="Stroke-11"></path>
                        <path d="M471.837741,55.3347349 C471.837741,57.4343133 470.135211,59.1368434 468.035633,59.1368434 C465.935271,59.1368434 464.232741,57.4343133 464.232741,55.3347349 C464.232741,53.2343735 465.935271,51.5326265 468.035633,51.5326265 C470.135211,51.5326265 471.837741,53.2343735 471.837741,55.3347349 Z" id="Stroke-13"></path>
                        <path d="M469.629072,320.981825 C469.629072,336.552066 457.006542,349.174596 441.436301,349.174596 C425.86606,349.174596 413.24353,336.552066 413.24353,320.981825 C413.24353,305.411584 425.86606,292.789054 441.436301,292.789054 C457.006542,292.789054 469.629072,305.411584 469.629072,320.981825 Z" id="Stroke-15"></path>
                        <path d="M40.0428193,268.848458 C40.0428193,272.652133 36.9588434,275.736108 33.1551687,275.736108 C29.351494,275.736108 26.2675181,272.652133 26.2675181,268.848458 C26.2675181,265.044783 29.351494,261.960807 33.1551687,261.960807 C36.9588434,261.960807 40.0428193,265.044783 40.0428193,268.848458 Z" id="Stroke-17"></path>
                        <path d="M36.6311024,449.31156 C36.6311024,453.115235 33.5471265,456.199211 29.7434518,456.199211 C25.9397771,456.199211 22.8558012,453.115235 22.8558012,449.31156 C22.8558012,445.507886 25.9397771,442.42391 29.7434518,442.42391 C33.5471265,442.42391 36.6311024,445.507886 36.6311024,449.31156 Z" id="Stroke-19"></path>
                        <path d="M431.887253,243.971783 C431.887253,251.756904 425.575988,258.068169 417.790867,258.068169 C410.005747,258.068169 403.694482,251.756904 403.694482,243.971783 C403.694482,236.186663 410.005747,229.875398 417.790867,229.875398 C425.575988,229.875398 431.887253,236.186663 431.887253,243.971783 Z" id="Stroke-21"></path>
                        <path d="M458.142867,320.982217 C458.142867,330.209084 450.663169,337.688783 441.436301,337.688783 C432.209434,337.688783 424.728952,330.209084 424.728952,320.982217 C424.728952,311.755349 432.209434,304.275651 441.436301,304.275651 C450.663169,304.275651 458.142867,311.755349 458.142867,320.982217 Z" id="Stroke-23"></path>
                        <path d="M446.969446,320.981825 C446.969446,324.037608 444.492398,326.51544 441.435831,326.51544 C438.380048,326.51544 435.903,324.037608 435.903,320.981825 C435.903,317.926042 438.380048,315.448994 441.435831,315.448994 C444.492398,315.448994 446.969446,317.926042 446.969446,320.981825 Z" id="Stroke-25"></path>
                        <path d="M271.611036,505.872289 C271.611036,513.65741 265.299771,519.968675 257.514651,519.968675 C249.72953,519.968675 243.418265,513.65741 243.418265,505.872289 C243.418265,498.087169 249.72953,491.775904 257.514651,491.775904 C265.299771,491.775904 271.611036,498.087169 271.611036,505.872289 Z" id="Stroke-27"></path>
                        <path d="M182.062651,32.5015663 C182.062651,50.0460843 167.840181,64.2677711 150.295663,64.2677711 C132.751145,64.2677711 118.529458,50.0460843 118.529458,32.5015663 C118.529458,14.9570482 132.751145,0.735361446 150.295663,0.735361446 C167.840181,0.735361446 182.062651,14.9570482 182.062651,32.5015663 Z" id="Stroke-29"></path>
                        <path d="M441.436301,123.210319 C441.436301,176.369355 398.342867,219.462789 345.183831,219.462789 C292.025578,219.462789 248.932145,176.369355 248.932145,123.210319 C248.932145,70.0520663 292.025578,26.9578494 345.183831,26.9578494 C398.342867,26.9578494 441.436301,70.0520663 441.436301,123.210319 Z" id="Stroke-31"></path>
                        <polygon id="Stroke-33" points="234.538012 85.3128916 319.116325 85.3128916 319.116325 0.734578313 234.538012 0.734578313"></polygon>
                        <polygon id="Stroke-35" points="268.106205 258.068012 310.395361 258.068012 310.395361 180.143976 268.106205 180.143976"></polygon>
                        <polygon id="Stroke-36" points="464.233133 258.281024 506.522289 258.281024 506.522289 102.007711 464.233133 102.007711"></polygon>
                        <polygon id="Stroke-37" points="310.395361 258.068012 352.684518 258.068012 352.684518 180.143976 310.395361 180.143976"></polygon>
                        <polygon id="Stroke-38" points="81.6556627 93.1442169 99.013012 93.1442169 99.013012 75.7868675 81.6556627 75.7868675"></polygon>
                        <polygon id="Stroke-39" points="352.315193 308.954163 361.281277 317.920247 370.246578 308.954163 361.281277 299.988078"></polygon>
                        <polygon id="Stroke-40" points="98.2973072 501.977223 107.263392 510.943307 116.228693 501.977223 107.263392 493.011139"></polygon>
                        <polygon id="Stroke-41" points="355.703572 491.775904 364.669657 500.741988 373.634958 491.775904 364.669657 482.809819"></polygon>
                        <polygon id="Stroke-42" points="413.955554 14.6018976 422.921639 23.5679819 431.88694 14.6018976 422.921639 5.63581325"></polygon>
                        <polygon id="Stroke-43" points="220.738982 300.357325 220.738982 173.489855 93.871512 173.489855"></polygon>
                        <polygon id="Stroke-44" points="493.928343 439.343849 434.537139 439.343849 434.537139 498.735054"></polygon>
                        <polygon id="Stroke-45" points="210.921711 409.44103 91.3099639 289.829283 81.342253 299.796994 200.954 419.408741"></polygon>
                        <polygon id="Stroke-46" points="190.986446 429.37653 71.3746988 309.764783 61.406988 319.732494 181.018735 439.344241"></polygon>
                        <polygon id="Stroke-47" points="181.018735 439.343849 61.406988 319.732102 51.4392771 329.699813 171.051024 449.31156"></polygon>
                        <polygon id="Stroke-48" points="200.954157 419.408741 81.3424096 299.796994 71.3746988 309.764705 190.986446 429.376452"></polygon>
                        <polygon id="Stroke-49" points="171.051181 449.31156 51.4394337 329.699813 41.4717229 339.667524 161.08347 459.279271"></polygon>
                        <polygon id="Stroke-50" points="409.85938 381.498705 385.889259 366.65756 378.468295 378.64262 402.438416 393.483765"></polygon>
                        <polygon id="Stroke-51" points="417.28003 369.51388 393.30991 354.671952 385.888946 366.657795 409.859066 381.49894"></polygon>
                        <polygon id="Stroke-52" points="395.017922 405.468825 371.047801 390.627681 363.62762 402.612741 387.596958 417.453886"></polygon>
                        <polygon id="Stroke-53" points="387.597271 417.454042 363.627151 402.612898 356.206187 414.597958 380.176307 429.439102"></polygon>
                        <polygon id="Stroke-54" points="402.438729 393.483922 378.468608 378.642777 371.047645 390.627837 395.017765 405.468982"></polygon>
                        <polygon id="Stroke-55" points="380.17662 429.439259 356.2065 414.597331 348.785536 426.583175 372.755657 441.424319"></polygon>
                        <path d="M153.306964,94.2301867 L196.401181,137.324404" id="Stroke-56"></path>
                        <path d="M267,350.891928 L267,445.204578" id="Stroke-57"></path>
                    </g>
                </g>
            </g>
        </g>
    </g>
</svg>