<?xml version="1.0" encoding="UTF-8"?>
<svg width="21px" height="21px" viewBox="0 0 21 21" version="1.1" xmlns="http://www.w3.org/2000/svg" xmlns:xlink="http://www.w3.org/1999/xlink">
    <!-- Generator: Sketch 45.2 (43514) - http://www.bohemiancoding.com/sketch -->
    <title>quality-1</title>
    <desc>Created with Sketch.</desc>
    <defs></defs>
    <g id="Page-1" stroke="none" stroke-width="1" fill="none" fill-rule="evenodd">
        <g id="Development" transform="translate(-147.000000, -457.000000)" fill-rule="nonzero" fill="#4094ED">
            <g id="hero" transform="translate(0.000000, 164.000000)">
                <g id="benefit" transform="translate(145.000000, 283.000000)">
                    <g id="quality-1" transform="translate(2.000000, 10.000000)">
                        <path d="M8.03258579,18.8262075 C7.65495707,18.429332 6.91063813,18.1184901 6.35720757,18.132243 L3.77045405,18.1965248 C3.22279693,18.2101343 2.7897223,17.7829765 2.80347523,17.229546 L2.86775691,14.6427924 C2.88136637,14.0951353 2.57485183,13.3490239 2.17379253,12.9674142 L0.299227572,11.1837573 C-0.0976478369,10.8061286 -0.10183173,10.1978524 0.299227572,9.81624273 L2.17379253,8.03258579 C2.57066794,7.65495707 2.88150984,6.91063813 2.86775691,6.35720757 L2.80347523,3.77045405 C2.78986577,3.22279693 3.21702348,2.7897223 3.77045405,2.80347523 L6.35720757,2.86775691 C6.90486468,2.88136637 7.65097607,2.57485183 8.03258579,2.17379253 L9.81624273,0.299227572 C10.1938715,-0.0976478369 10.8021476,-0.10183173 11.1837573,0.299227572 L12.9674142,2.17379253 C13.3450429,2.57066794 14.0893619,2.88150984 14.6427924,2.86775691 L17.229546,2.80347523 C17.7772031,2.78986577 18.2102777,3.21702348 18.1965248,3.77045405 L18.132243,6.35720757 C18.1186336,6.90486468 18.4251482,7.65097607 18.8262075,8.03258579 L20.7007725,9.81624273 C21.0976478,10.1938715 21.1018317,10.8021476 20.7007725,11.1837573 L18.8262075,12.9674142 C18.429332,13.3450429 18.1184901,14.0893619 18.132243,14.6427924 L18.1965248,17.229546 C18.2101343,17.7772031 17.7829765,18.2102777 17.229546,18.1965248 L14.6427924,18.132243 C14.0951353,18.1186336 13.3490239,18.4251482 12.9674142,18.8262075 L11.1837573,20.7007725 C10.8061286,21.0976478 10.1978524,21.1018317 9.81624273,20.7007725 L8.03258579,18.8262075 Z M9.26158601,9.06566567 L5.25,9.06436146 L8.49630821,11.4212026 L7.25543073,15.2361437 L10.5,12.8771288 L13.7447142,15.2361437 L12.5038367,11.4212026 L15.75,9.06436146 L11.738414,9.06566567 L10.5001449,5.25 L9.26158601,9.06566567 Z" id="Combined-Shape"></path>
                    </g>
                </g>
            </g>
        </g>
    </g>
</svg>