<?xml version="1.0" encoding="UTF-8"?>
<svg width="1120px" height="390px" viewBox="0 0 1120 390" version="1.1" xmlns="http://www.w3.org/2000/svg" xmlns:xlink="http://www.w3.org/1999/xlink">
    <!-- Generator: Sketch 46 (44423) - http://www.bohemiancoding.com/sketch -->
    <title>divider-design</title>
    <desc>Created with Sketch.</desc>
    <defs></defs>
    <g id="solutions" stroke="none" stroke-width="1" fill="none" fill-rule="evenodd">
        <g id="Design" transform="translate(-140.000000, -1592.000000)">
            <g id="banner" transform="translate(0.000000, 1542.000000)">
                <g id="divider-design">
                    <rect id="spacer" fill="#FFFFFF" opacity="0" x="0" y="0" width="1400" height="480"></rect>
                    <path d="M1025,302.5 C1026.38,302.5 1027.5,303.62 1027.5,305 C1027.5,306.38 1026.38,307.5 1025,307.5 C1023.62,307.5 1022.5,306.38 1022.5,305 C1022.5,303.62 1023.62,302.5 1025,302.5 Z" id="Fill-1" fill="#FFFFFF"></path>
                    <path d="M785,402.5 C786.38,402.5 787.5,403.6202 787.5,405 C787.5,406.3798 786.38,407.5 785,407.5 C783.62,407.5 782.5,406.3798 782.5,405 C782.5,403.6202 783.62,402.5 785,402.5 Z" id="Fill-2" fill="#FFFFFF"></path>
                    <path d="M625,272.5 C626.38,272.5 627.5,273.62 627.5,275 C627.5,276.38 626.38,277.5 625,277.5 C623.62,277.5 622.5,276.38 622.5,275 C622.5,273.62 623.62,272.5 625,272.5 Z" id="Fill-3" fill="#FFFFFF"></path>
                    <path d="M265,402.5 C266.38,402.5 267.5,403.6202 267.5,405 C267.5,406.3798 266.38,407.5 265,407.5 C263.62,407.5 262.5,406.3798 262.5,405 C262.5,403.6202 263.62,402.5 265,402.5 Z" id="Fill-4" fill="#FFFFFF"></path>
                    <path d="M355,52.5 C356.38,52.5 357.5,53.62 357.5,55 C357.5,56.38 356.38,57.5 355,57.5 C353.62,57.5 352.5,56.38 352.5,55 C352.5,53.62 353.62,52.5 355,52.5 Z" id="Fill-5" fill="#69D1EE"></path>
                    <path d="M330,132.5 C334.139,132.5 337.5,135.861 337.5,140 C337.5,144.139 334.139,147.5 330,147.5 C325.861,147.5 322.5,144.139 322.5,140 C322.5,135.861 325.861,132.5 330,132.5 Z" id="Fill-6" fill="#FFFFFF"></path>
                    <path d="M320,402.5 C324.139,402.5 327.5,405.8606 327.5,410 C327.5,414.1394 324.139,417.5 320,417.5 C315.861,417.5 312.5,414.1394 312.5,410 C312.5,405.8606 315.861,402.5 320,402.5 Z" id="Fill-7" fill="#69D1EE"></path>
                    <polygon id="Fill-8" fill="#85E1B2" points="1208.04 265 1234.02 250 1260 265 1260 295 1234.02 310 1208.04 295"></polygon>
                    <polygon id="Fill-9" fill="#85E1B2" points="440 354.0192 485 328.038 530 354.0192 530 405.9808 485 431.9616 440 405.9808"></polygon>
                    <polygon id="Fill-10" fill="#4094ED" points="530 354.0192 575 328.038 620 354.0192 620 405.9808 575 431.9616 530 405.9808"></polygon>
                    <polygon id="Fill-11" fill="#85E1B2" points="977.01 57.5 990 50 1002.99 57.5 1002.99 72.5 990 80 977.01 72.5"></polygon>
                    <polygon id="Fill-12" fill="#FFFFFF" points="427.01 232.5 440 225 452.99 232.5 452.99 247.5 440 255 427.01 247.5"></polygon>
                    <polygon id="Fill-13" fill="#85E1B2" points="1220 170 1140 170 1180 130"></polygon>
                    <polygon id="Fill-14" fill="#4094ED" points="1220 170 1140 170 1180 210"></polygon>
                    <polygon id="Fill-15" fill="#235280" points="940 115 840 115 890 65"></polygon>
                    <polygon id="Fill-16" fill="#69D1EE" points="940 115 840 115 890 165"></polygon>
                    <path d="M160,350 L200,350 L200.1293,350.0004 C211.1155,350.0699 220,358.9974 220,370 C220,381.0458 211.0458,390 200,390 L160,390 L160,350 Z" id="Fill-17" fill="#235280"></path>
                    <path d="M140,370 C140,358.9542 148.9542,350 160,350 C171.0458,350 180,358.9542 180,370 C180,381.0458 171.0458,390 160,390 C148.9542,390 140,381.0458 140,370 Z" id="Fill-18" fill="#69D1EE"></path>
                    <path d="M1020,130 C1036.557,130 1050,143.443 1050,160 C1050,176.557 1036.557,190 1020,190 C1003.443,190 990,176.557 990,160 C990,143.443 1003.443,130 1020,130 Z" id="Fill-19" fill="#4094ED"></path>
                    <path d="M1020,190 C1036.557,190 1050,203.443 1050,220 C1050,236.557 1036.557,250 1020,250 C1003.443,250 990,236.557 990,220 C990,203.443 1003.443,190 1020,190 Z" id="Fill-20" fill="#235280"></path>
                    <path d="M223.4315,50 C232.5759,50 240,57.424 240,66.569 C240,75.713 232.5759,83.137 223.4315,83.137 C214.287,83.137 206.8629,75.713 206.8629,66.569 C206.8629,57.424 214.287,50 223.4315,50 Z" id="Fill-21" fill="#4094ED"></path>
                    <path d="M200,73.431 C209.1444,73.431 216.5685,80.856 216.5685,90 C216.5685,99.144 209.1444,106.569 200,106.569 C190.8556,106.569 183.4315,99.144 183.4315,90 C183.4315,80.856 190.8556,73.431 200,73.431 Z" id="Fill-22" fill="#235280"></path>
                    <path d="M176.5685,96.863 C185.713,96.863 193.1371,104.287 193.1371,113.431 C193.1371,122.576 185.713,130 176.5685,130 C167.4241,130 160,122.576 160,113.431 C160,104.287 167.4241,96.863 176.5685,96.863 Z" id="Fill-23" fill="#85E1B2"></path>
                    <path d="M825,295 C833.279,295 840,301.721 840,310 C840,318.279 833.279,325 825,325 C816.721,325 810,318.279 810,310 C810,301.721 816.721,295 825,295 Z" id="Fill-24" fill="#69D1EE"></path>
                    <path d="M825,295 C833.279,295 840,301.721 840,310 C840,318.279 833.279,325 825,325 C816.721,325 810,318.279 810,310 C810,301.721 816.721,295 825,295 Z" id="Fill-25" fill="#69D1EE"></path>
                    <path d="M880,420 C885.519,420 890,424.4808 890,430 C890,435.5192 885.519,440 880,440 C874.481,440 870,435.5192 870,430 C870,424.4808 874.481,420 880,420 Z" id="Fill-26" fill="#235280"></path>
                    <polygon id="Fill-27" fill="#85E1B2" points="948.567 420 1048.567 420 1048.567 320"></polygon>
                    <polygon id="Fill-28" fill="#85E1B2" points="660 270 740 270 740 90.001 660 90.001"></polygon>
                    <polygon id="Fill-29" fill="#235280" points="740 270 755 270 755 90 740 90"></polygon>
                    <polygon id="Fill-30" fill="#235280" points="770 270 785 270 785 90 770 90"></polygon>
                    <polygon id="Fill-31" fill="#85E1B2" points="755 270 770 270 770 90 755 90"></polygon>
                    <polygon id="Fill-32" fill="#235280" points="550 190 610 190 610 130 550 130"></polygon>
                    <polygon id="Fill-33" fill="#85E1B2" points="490 160 550 160 550 130 490 130"></polygon>
                    <polygon id="Fill-34" fill="#4094ED" points="490 190 550 190 550 160 490 160"></polygon>
                    <path d="M900,235 L840,235" id="Stroke-36" stroke="#69D1EE" stroke-width="4" stroke-linecap="round" stroke-linejoin="round"></path>
                    <path d="M870,240 C867.239,240 865,237.762 865,235 C865,232.239 867.239,230 870,230 C872.761,230 875,232.239 875,235 C875,237.762 872.761,240 870,240 Z" id="Fill-37" fill="#4094ED"></path>
                    <polygon id="Fill-38" fill="#69D1EE" points="226.2132 239.497 212.0711 253.64 282.782 324.35 296.924 310.208"></polygon>
                    <polygon id="Fill-39" fill="#FFFFFF" points="240.355 225.355 226.2132 239.497 296.924 310.208 311.066 296.066"></polygon>
                    <polygon id="Fill-40" fill="#235280" points="219.1421 175.858 205 190 311.066 296.066 325.208 281.924"></polygon>
                    <polygon id="Fill-41" fill="#4094ED" points="233.2843 161.716 219.1421 175.858 325.208 281.924 339.35 267.782"></polygon>
                </g>
            </g>
        </g>
    </g>
</svg>