<?xml version="1.0" encoding="UTF-8"?>
<svg width="26px" height="21px" viewBox="0 0 26 21" version="1.1" xmlns="http://www.w3.org/2000/svg" xmlns:xlink="http://www.w3.org/1999/xlink">
    <!-- Generator: Sketch 45.2 (43514) - http://www.bohemiancoding.com/sketch -->
    <title>Page 1</title>
    <desc>Created with Sketch.</desc>
    <defs>
        <polygon id="path-1" points="25.6052696 -3.04347826e-05 0 -3.04347826e-05 0 20.9496609 25.6052696 20.9496609"></polygon>
    </defs>
    <g id="Page-1" stroke="none" stroke-width="1" fill="none" fill-rule="evenodd">
        <g id="Design" transform="translate(-145.000000, -457.000000)">
            <g id="hero" transform="translate(0.000000, 164.000000)">
                <g id="benefit" transform="translate(145.000000, 283.000000)">
                    <g id="Page-1" transform="translate(0.000000, 10.000000)">
                        <mask id="mask-2" fill="white">
                            <use xlink:href="#path-1"></use>
                        </mask>
                        <g id="Clip-2"></g>
                        <path d="M25.6052696,18.6220087 L25.6052696,20.9496609 L23.2776174,18.6220087 L25.6052696,18.6220087 Z M25.6052696,11.6366174 L25.6052696,18.6220087 L16.2937478,18.6220087 C14.9993565,18.6220087 13.9664,17.5808348 13.9664,16.296487 L13.9664,11.6366174 C13.9664,10.3431391 15.008487,9.31109565 16.2937478,9.31109565 L23.2779217,9.31109565 C24.572313,9.31109565 25.6052696,10.3522696 25.6052696,11.6366174 L25.6052696,11.6366174 Z M-0.00012173913,16.2943565 L4.65548696,16.2943565 L-0.00012173913,20.9496609 L-0.00012173913,16.2943565 Z M20.9496609,6.98313913 L16.2937478,6.98313913 C13.7214,6.98313913 11.6387478,9.0587913 11.6387478,11.6366174 L11.6387478,16.2943565 L-0.00012173913,16.2943565 L-0.00012173913,2.33453043 C-0.00012173913,1.04531304 1.03892174,-0.00012173913 2.32205217,-0.00012173913 L18.6277913,-0.00012173913 C19.9100087,-0.00012173913 20.9496609,1.04409565 20.9496609,2.33453043 L20.9496609,6.98313913 Z" id="Fill-1" fill="#69D1EE" mask="url(#mask-2)"></path>
                    </g>
                </g>
            </g>
        </g>
    </g>
</svg>