<?xml version="1.0" encoding="UTF-8"?>
<svg width="20px" height="20px" viewBox="0 0 20 20" version="1.1" xmlns="http://www.w3.org/2000/svg" xmlns:xlink="http://www.w3.org/1999/xlink">
    <!-- Generator: Sketch 45.2 (43514) - http://www.bohemiancoding.com/sketch -->
    <title>milestone</title>
    <desc>Created with Sketch.</desc>
    <defs></defs>
    <g id="Page-1" stroke="none" stroke-width="1" fill="none" fill-rule="evenodd">
        <g id="Design" transform="translate(-413.000000, -457.000000)" fill-rule="nonzero" fill="#85E1B2">
            <g id="hero" transform="translate(0.000000, 164.000000)">
                <g id="benefit" transform="translate(411.000000, 283.000000)">
                    <g id="milestone" transform="translate(2.000000, 10.000000)">
                        <path d="M10,20 C4.4771525,20 0,15.5228475 0,10 C0,4.4771525 4.4771525,0 10,0 C15.5228475,0 20,4.4771525 20,10 C20,15.5228475 15.5228475,20 10,20 Z M8.6243932,11.1708851 L6.41472168,8.9612136 L5,10.3759353 L8.6226791,13.9986143 L8.6243932,13.9969002 L8.6261074,13.9986143 L14.8100004,7.8147213 L13.3952787,6.39999962 L8.6243932,11.1708851 L8.6243932,11.1708851 Z" id="Combined-Shape"></path>
                    </g>
                </g>
            </g>
        </g>
    </g>
</svg>