<?xml version="1.0" encoding="utf-8"?>
<!-- Generator: Adobe Illustrator 18.0.0, SVG Export Plug-In . SVG Version: 6.00 Build 0)  -->
<!DOCTYPE svg PUBLIC "-//W3C//DTD SVG 1.1//EN" "http://www.w3.org/Graphics/SVG/1.1/DTD/svg11.dtd">
<svg version="1.1"
	 id="_x31_" xmlns:cc="http://creativecommons.org/ns#" xmlns:dc="http://purl.org/dc/elements/1.1/" xmlns:sodipodi="http://sodipodi.sourceforge.net/DTD/sodipodi-0.dtd" xmlns:inkscape="http://www.inkscape.org/namespaces/inkscape" xmlns:svg="http://www.w3.org/2000/svg" xmlns:rdf="http://www.w3.org/1999/02/22-rdf-syntax-ns#" sodipodi:docname="Forbes-logo.svg" inkscape:version="0.48.4 r9939"
	 xmlns="http://www.w3.org/2000/svg" xmlns:xlink="http://www.w3.org/1999/xlink" x="0px" y="0px" viewBox="0 0 1391 363.9"
	 enable-background="new 0 0 1391 363.9" xml:space="preserve">
<path fill="#33629A" d="M493.2,210.5c-5.2-44.4-24-76.9-55.1-95.1c-34.5-20.3-87-21.5-124.2-2.8C287,126.1,265,152.1,255.2,182
	c-10.1,30.8-10.1,71.3,0,102.8c6.5,20.2,15.2,34.9,28.7,48.3c16.2,16,37.4,26.3,61.7,29.8v0c8.7,1.3,36.1,1.3,45,0
	c4.2-0.6,11.6-2.2,16.3-3.6c44-12.7,74-46.5,84.3-94.9C493.7,252.7,494.8,224.1,493.2,210.5z M418,263.8
	c-3.3,46.7-13.4,72-32.3,80.8c-6.8,3.2-19,3.4-25.6,0.4h0c-16.4-7.5-28.1-30.1-33.9-65.9c-3.7-22.7-4.1-73.2-0.7-98
	c4.7-34.8,14.7-55.3,30.3-62.2c10.7-4.8,25.5-1.9,35,6.7C412,144.5,422.6,198.8,418,263.8z"/>
<path fill="#33629A" d="M941.3,189.5c-10-45.7-38.5-77.2-77-85.2c-5.9-1.2-11.2-1.5-22.7-1.1c-17.2,0.6-29.1,3.2-42,9.1
	c-4.3,2-8,3.6-8.3,3.6c-0.3,0-0.2-26.1,0.1-58c0.5-44.9,0.3-58-0.6-58c-3.3-0.1-105.4,19.4-106.5,20.3c-0.8,0.7-1.2,2.8-1,6.1
	c0.3,5.7-0.3,5.2,12.1,8c3.7,0.8,8.1,2.5,9.7,3.6c4.2,3,7.6,9.4,10,18.5c1.9,7.2,2.1,12.4,3,61.4c0.9,50,0.7,101.4-0.7,195.6
	l-0.6,39.1l7.3,1.7c10.6,2.4,40.9,7.5,50.8,8.5h0c14.6,1.5,48.5,1.3,59.3-0.4c46.9-7.1,82.2-34.3,98.7-76c4.4-11,8.6-28.1,10-40.7
	C944.8,231,943.9,201.4,941.3,189.5z M865.2,256.5c-4.5,34.9-15.9,63.1-31.1,76.8c-6.1,5.4-11.7,8.3-19,9.7l0,0
	c-5.3,1-6.8,1-16.4,0.3c-4-0.3-4.9-0.8-5.8-2.9c-1.3-3.4-2.8-120.6-2.2-167.4l0.5-36.5l6.6-2c4.4-1.3,9.6-2,15.7-2
	c8.5,0,9.6,0.2,16.7,3.8c17.2,8.5,29,29.6,34.5,61.7C866.8,209.9,867.1,242.3,865.2,256.5z"/>
<path fill="#33629A" d="M1186.1,200.5c-4.6-44.9-22.8-75.9-53.7-91.4c-27.5-13.8-69.9-12.8-100.9,2.4c-29.4,14.3-49.6,38.2-60.9,72
	c-5.9,17.6-7.7,31.7-7.1,54.5c0.4,14.4,1,21.9,2.5,28.5c11.6,51.7,47.1,86.9,96.7,95.9l0,0c10.9,2,35.7,2,46.8,0.1
	c15.8-2.8,33.9-9.8,45.4-17.5c14-9.5,28.3-23.7,28.3-28.1c0-2.7-4.8-8.9-6.9-8.9c-0.9,0-4.8,2-8.6,4.5c-13.7,8.8-26.8,12.5-45,12.5
	c-25.1,0-41-6.3-57-22.4c-7.1-7.1-10-11-13.7-18.1c-8.1-15.6-12.4-33.5-13.1-53.7l-0.3-8.7l74-0.3l74-0.3l0.3-5
	C1187.1,213.8,1186.7,206.6,1186.1,200.5z M1094,199.4L1094,199.4c-9.6,0.3-25.8,0.7-36.1,0.9l-18.8,0.3l0-4c0-2.2,0.6-8.1,1.4-13
	c6.2-40.3,21.3-64.4,40.1-64.5c17.3,0,28,23.8,30.2,67.4l0.6,12.4L1094,199.4z"/>
<path fill="#33629A" d="M1262.6,363.4c-17.8-1.9-46.2-8.1-55.6-12.2l-4.6-2l-0.6-22.8c-0.3-12.6-0.7-29.4-0.9-37.3l-0.3-14.5
	l2.8-1.3c1.5-0.7,4.6-1.4,6.8-1.5l4.1-0.2l3.5,8.5c13.5,33.2,29.3,51,49.9,56.5c7.9,2.1,22.6,2.1,28.5,0c16.3-5.8,25.3-18.1,25.4-35
	c0.1-20-10.9-29.6-52.4-45.8c-25.7-10.1-34.7-15.2-45.4-26.2c-11.5-11.8-17.1-25.2-18.1-43.9c-1.3-22.6,5.8-41.7,21.5-57.9
	c15.8-16.3,36.3-25.2,64.2-27.7c24.6-2.2,62.3,3,82,11.3l3.6,1.5l0.6,20.4c0.4,11.2,0.7,26.2,0.8,33.4l0.2,13l-4.8,1.8
	c-7.7,2.8-8.2,2.5-12.4-8.8c-11.9-31.6-25.8-46.6-47.4-51.2c-13.2-2.8-24.2,0.2-32.2,8.8c-6.2,6.7-8.7,12.6-9.3,22.5
	c-0.6,10.8,1.3,16.6,7.9,23.8c8.1,8.9,21.4,16.5,47.9,27.6c32.4,13.6,47.9,25.1,56.3,41.9c5.5,10.9,7,19.6,6.5,36.4
	c-0.4,12.6-0.8,15.2-3.7,23.6c-9.3,27.6-30.4,45.7-63,54.3c-11,2.9-12.6,3-34.6,3.3C1276.9,363.7,1264.8,363.6,1262.6,363.4z"/>
<path fill="#33629A" d="M1.3,357.4c-0.8-0.3-1.2-2.8-1.2-7.4c0-8.3-0.5-7.9,15.5-10.9c12.3-2.3,16.7-4.6,22.1-11.7
	c10.5-13.8,12.8-40.4,12.8-149.8c0-102.7-2-124.4-12.8-140.2c-4.8-7-13-10.9-26.6-12.5L0.6,23.5l-0.3-8.2L0,7.1l3.3-0.6
	c1.8-0.3,65.4-0.5,141.3-0.3l138,0.3l0.6,4c0.4,2.2,0.9,24.8,1.3,50.1l0.7,46.1L278,109c-10.7,3.3-10.6,3.3-15.5-9.5
	c-11.8-31.3-25.4-49.3-44-58.5c-12.8-6.3-18.7-7-54.9-7h-31.5l-0.5,5.2c-1,9.8-2.6,73.2-2.6,103l0,29.8l9.2-0.1
	c5.1,0,15.1-0.4,22.3-0.8c10.8-0.6,14-1.2,18.5-3.3c11.1-5.1,18.6-16.4,23.2-34.8l2.4-9.5l8.2-0.3l8.2-0.3V183v60.1l-8.2-0.3
	l-8.2-0.3l-2.3-9.5c-4.4-17.8-12.7-30.6-23.1-35.2c-4.8-2.1-16.6-3.3-39.5-4l-10.8-0.3V216c0,24.6,1.4,57.9,3.1,75.9
	c2.4,25.2,8.8,39.1,20.4,44.1c2.2,1,9.2,2.5,15.5,3.5c6.3,0.9,12.3,2.1,13.2,2.6c2.4,1.3,2.6,14.3,0.2,15.2
	C179.6,358.1,3.1,358.1,1.3,357.4L1.3,357.4z"/>
<path fill="#33629A" d="M494.3,357.2c-0.9-0.6-1.2-2.9-1-7.7l0.3-6.9l3.5-0.7c1.9-0.4,6.1-1.2,9.2-1.8c9.7-1.8,15.2-7.1,18.4-17.4
	c2.6-8.4,3.7-35.2,3.7-89.1c0.1-65.9-1.3-81.4-8-90.3c-3.6-4.8-6.2-6.1-15-7.8c-4.3-0.8-8.9-1.7-10.1-2c-2-0.4-2.2-1.1-2.2-6
	c0-4.8,0.3-5.6,2.2-6.4c3-1.2,102.1-21,105.2-21h2.5l-0.5,14.8c-0.3,8.1-0.7,19.9-0.9,26.2l-0.5,11.5l3.6-6.5
	c11.5-20.7,24.4-33.6,41.5-41.4c9.4-4.3,15.7-5.6,27.3-5.6c13.8,0,27.6,4.5,27.6,9c0,3-24.3,67.2-25.6,67.7c-0.7,0.3-5.4-1.6-10.5-4
	c-10.7-5.1-20.8-7.7-30.5-7.6c-12.2,0-25.7,4.5-31.1,10.3c-2.3,2.5-2.3,2.6-2.9,39.3c-0.6,36.4,0.6,80.8,2.7,98.6
	c1.7,15.2,5.8,22.7,14.1,26.2c2.8,1.2,20.4,3.6,26.1,3.6c0.4,0,0.7,3.5,0.5,7.8l-0.3,7.8l-74,0.2C528.9,357.9,495,357.6,494.3,357.2
	L494.3,357.2z"/>
</svg>
