<?xml version="1.0" encoding="utf-8"?>
<!-- Generator: Adobe Illustrator 18.0.0, SVG Export Plug-In . SVG Version: 6.00 Build 0)  -->
<!DOCTYPE svg PUBLIC "-//W3C//DTD SVG 1.1//EN" "http://www.w3.org/Graphics/SVG/1.1/DTD/svg11.dtd">
<svg version="1.1" id="Layer_1" xmlns="http://www.w3.org/2000/svg" xmlns:xlink="http://www.w3.org/1999/xlink" x="0px" y="0px"
	 viewBox="0 0 215.6 27.5" enable-background="new 0 0 215.6 27.5" xml:space="preserve">
<g id="Pi7ToS_1_">
	<g>
		<g>
			<path d="M23.9,5.5c0.4,0,1.4,0,1.8,0c0-1.9,0-3.7,0-5.5c-3.5,0-7.1,0-10.6,0c0,1.8,0,3.6,0,5.5c0.8,0,1.5,0,2.3,0h0
				c-1.4,5.1-2.8,10.1-4.2,15.1c0,0-0.1,0-0.1,0c-1.3-5-2.6-10-3.9-15.1c0,0,0,0,0,0c0,0,0,0,0,0c0.8,0,1.6,0,2.4,0
				c0-1.9,0-3.6,0-5.4C7.8,0,3.9,0,0,0c0,1.8,0,3.6,0,5.4c0.5,0,1.1,0,1.7,0c0.1,0.3,0,0.1,0.2,0.6C4,12.8,8.4,26.8,8.5,27h8.7
				C17.6,25.6,22,11.6,23.7,6C23.9,5.6,23.8,5.7,23.9,5.5z"/>
			<path d="M63.8,20.6c0-3,0-5.6,0-8.6c0-2.1-1.4-5.4-5.4-5.4c-1.8,0-3.4,0.5-4.9,1.8c-0.5,0.4-0.9,1-1.4,1.5
				C52,9,51.9,8.1,51.8,7.2c-2.6,0-5.2,0-7.8,0c0,1.8,0,3.6,0,5.5c0.5,0,1,0,1.5,0c0,2.9,0,5.8,0,8.8c-0.5,0-1,0-1.5,0
				c0,1.9,0,3.6,0,5.4c3.4,0,6.7,0,10,0c0-1.8,0-3.6,0-5.5c-0.4,0-0.9,0-1.2,0c0-2.3,0-4.5,0-6.7c0-0.2,0.1-0.3,0.1-0.5
				c0.1-0.2,0.2-0.4,0.3-0.6c0.6-0.7,1.4-1,2.2-0.7c0.8,0.3,1.1,0.8,1.2,1.8c0,3.8,0,7.6,0,11.4c0,0.2,0,0.5,0,0.7c3,0,5.9,0,8.8,0
				c0-1.8,0-3.6,0-5.4c-0.6,0-1.1-0.1-1.6-0.1C63.8,21.1,63.8,20.9,63.8,20.6z"/>
			<path d="M99,7.2c-2.8,0-5.5,0-8.2,0c-0.1,0-0.2,0-0.3,0c0,1.8,0,3.6,0,5.4c0.5,0,0.9,0,1.3,0c0,2.3,0,4.6,0,6.8
				c0,0.3-0.1,0.6-0.2,0.8c-0.3,0.7-0.8,1.1-1.6,1.1c-0.8,0-1.4-0.3-1.6-1.1c-0.2-0.5-0.2-1-0.2-1.5c0-3.6,0-7.3,0-10.9
				c0-0.2,0-0.5,0-0.7c-3,0-5.8,0-8.7,0c0,1.8,0,3.6,0,5.4c0.5,0,1,0,1.6,0c0,0.3,0,0.5,0,0.8c0,3,0,6,0.1,9c0.1,1.9,1,3.5,2.8,4.4
				c2.4,1.2,5.8,0.7,7.8-1c0.3-0.3,0.5-0.5,0.9-0.9c0,0.8,0,1.4,0,2c2.7,0,5.4,0,8.1,0c0-1.8,0-3.6,0-5.4c-0.5,0-1,0-1.6,0
				C99,16.7,99,12,99,7.2z"/>
			<path d="M36.1,7.1c-1.6-0.4-3.2-0.5-4.8-0.3c-3.6,0.5-6.2,2.5-7.4,6c-1,2.9-0.9,5.8,0,8.7c0.8,2.7,2.6,4.5,5.3,5.3
				c2,0.6,4,0.7,6.1,0.4c1.5-0.2,3-0.7,4.2-1.7c1.7-1.4,2.6-3.2,2.8-5.4c-2.3,0-4.5,0-6.8,0c-0.1,0.4-0.2,0.8-0.4,1.2
				c-0.4,0.8-1.1,1.2-2,1.3c-0.9,0-1.6-0.3-2.1-1.1c-0.5-1-0.6-2-0.6-3.1c4,0,7.9,0,12.1,0c0-1.6,0-2.8-0.2-4.1
				C41.8,10.7,39.8,8.1,36.1,7.1z M35.5,14.6c-1.6,0-3.1,0-4.7,0c0-1.1,0.1-2,1.1-2.6c0.9-0.5,1.8-0.5,2.6,0
				C35.4,12.6,35.6,13.6,35.5,14.6z"/>
			<path d="M130.3,21.3c-0.4,0.9-1.1,1.3-2,1.3c-0.9,0.1-1.7-0.2-2.1-1.1c-0.5-1-0.5-2-0.5-3.1c4,0,7.9,0,12,0c0-1.8,0-3-0.3-4.4
				c-0.6-3.4-2.5-5.8-5.9-6.8c-1.7-0.5-3.4-0.6-5.1-0.4c-3.7,0.5-6.2,2.5-7.4,6c-0.9,2.8-0.9,5.7,0,8.6c0.8,2.8,2.7,4.6,5.4,5.4
				c1.9,0.6,3.8,0.7,5.7,0.5c4.1-0.5,6.9-3.2,7.3-7.1c-2.3,0-4.5,0-6.8,0C130.5,20.6,130.4,20.9,130.3,21.3z M128,11.6
				c1.6-0.1,2.6,1,2.5,3c-1.6,0-3.1,0-4.7,0C125.6,13,126.5,11.8,128,11.6z"/>
			<path d="M75,1.2l-6.5,1.6c0,0.6,0,3.7,0,4.3c-0.8,0-1.5,0-2.2,0c0,1.9,0,3.7,0,5.6c0.6,0,1.1,0,1.7,0c0,3.4,0,6.7,0,10
				c0,2.4,1.1,3.8,3.4,4.4c1.6,0.4,4.4,0.2,6.5-0.3v-4.9c-0.2,0-0.4,0.1-0.6,0.1c-1.2,0.2-2.1-0.4-2.2-1.6c0-0.2,0-0.5,0-0.7
				c0-2.1,0-4.2,0-6.4c0-0.2,0-0.4,0.1-0.6c1.1,0,2.1,0,3.1,0c0-1.9,0-3.7,0-5.5c-1.1,0-2.1,0-3.2,0C75,6,75,2.4,75,1.2z"/>
			<path d="M113.9,7c-1.7,0.2-2.9,1.1-3.5,2.7c-0.1,0.1-0.1,0.3-0.2,0.5c-0.1-1.1-0.2-2.1-0.2-3.1c-2.6,0-5.1,0-7.7,0
				c0,1.8,0,3.6,0,5.5c0.5,0,1,0,1.6,0c0,2.9,0,5.8,0,8.8c-0.5,0-1,0-1.6,0c0,1.8,0,3.6,0,5.4c3.6,0,7.2,0,10.8,0c0-1.8,0-3.6,0-5.5
				c-0.8,0-1.5,0-2.2,0c0-0.8,0-1.5,0-2.3c0-0.7,0-1.4,0-2.2c0.1-2,1-3.2,3-3.5c0.9-0.1,1.8,0,2.7,0l0.1-6.3c-0.1,0-0.3-0.1-0.3-0.1
				C115.5,7,114.7,7,113.9,7z"/>
		</g>
		<g>
			<path fill="#ED2025" d="M157.4,13.4c-0.2-0.1-0.4-0.1-0.6-0.2c0.5-0.3,0.9-0.5,1.3-0.7c0.9-0.5,1.6-1.2,2.2-2
				C162.5,6.8,160.2,0,153,0c-4.5,0-9,0-13.5,0c0,1.8,0,3.6,0,5.5c0.8,0,1.6,0,2.4,0c0,5.4,0,10.7,0,16.1c-0.8,0-1.6,0-2.3,0
				c0,1.8,0,3.6,0,5.4c0.3,0,0.5,0,0.7,0c3.9,0,7.8,0,11.7,0c1.2,0,2.5-0.1,3.7-0.2c3.9-0.5,6.4-3.4,6.1-7.4
				C161.6,16.5,160.3,14.3,157.4,13.4z M149,5.2c1.1,0.1,2.2,0.1,3.3,0.3c1.1,0.2,1.8,1.4,1.8,2.6c0,1.3-0.8,2.4-2,2.6
				c-1,0.2-2,0.1-3.1,0.2C149,9,149,7.2,149,5.2z M154.3,20.3c-0.4,0.7-1.1,1-1.9,1c-1,0.1-2.3,0.1-3.3,0.1c-0.1,0-0.1-0.2-0.1-0.3
				c0-1.7,0-3.4,0-5.2c1.2,0.1,2.4,0,3.5,0.2C154.4,16.4,155.3,18.7,154.3,20.3z"/>
			<path fill="#ED2025" d="M201.1,20.7c0-2.5,0-5,0-7.5c0-3.2-2.7-6.5-8.7-6.5c-1.9,0-8.5,0.4-8.5,6.9c2.2,0,4.4,0,6.6,0
				c0-0.3,0-0.5,0.1-0.7c0.1-1,0.9-1.7,1.9-1.7c1,0,1.6,0.7,1.7,1.8c0,0.6,0,1.1,0,1.8c-0.3,0-0.5,0-0.7,0c-1.5,0.1-2.9,0.1-4.4,0.3
				c-4.1,0.6-6.2,3.2-6,7.3c0.1,1.8,0.8,3.4,2.5,4.4c2.1,1.2,6.2,1.2,8.3-1.4c0.1-0.1,0.2-0.3,0.4-0.5c0.1,0.8,0.1,1.5,0.2,2.1
				c2.8,0,5.5,0,8.2,0c0-1.8,0-3.6,0-5.4c-0.5,0-1,0-1.6,0C201.1,21.2,201.1,20.9,201.1,20.7z M193.9,21.2c-0.1,0.7-0.5,1.2-1.2,1.5
				c-1.2,0.5-2.4-0.2-2.5-1.5c-0.2-1.6,0.6-2.7,2.2-3c0.5-0.1,1.1,0,1.7,0C194.1,19.2,194.1,20.2,193.9,21.2z"/>
			<path fill="#ED2025" d="M182.1,14.3c-0.6-3.5-2.4-6-5.9-7.1c-1.6-0.5-3.3-0.6-5-0.4c-3.5,0.5-6.1,2.2-7.3,5.5
				c-1.2,3.1-1.1,6.2-0.1,9.3c0.8,2.6,2.6,4.4,5.3,5.2c1,0.3,2,0.5,3.1,0.6c2.5,0.2,5-0.2,7.1-1.8c1.8-1.3,2.6-3.2,2.9-5.4
				c-2.3,0-4.5,0-6.7,0c-0.1,0.4-0.2,0.8-0.3,1.1c-0.3,0.8-1,1.2-1.8,1.3c-0.9,0.1-1.7-0.1-2.2-0.9c-0.7-1-0.7-2.1-0.7-3.3
				c4,0,8,0,12.2,0C182.5,16.7,182.4,15.6,182.1,14.3z M170.6,14.6c-0.1-1,0.1-1.9,0.9-2.5c0.8-0.6,1.8-0.6,2.7-0.1
				c1.1,0.6,1.2,1.6,1.2,2.7C173.7,14.6,172.2,14.6,170.6,14.6z"/>
			<path fill="#ED2025" d="M212.5,12.6c1.1,0,2.1,0,3.1,0c0-1.9,0-3.7,0-5.5c-1.1,0-2.1,0-3.2,0c0-1.2,0-4.8,0-5.9l-6.5,1.6
				c0,0.6,0,3.7,0,4.3c-0.8,0-1.5,0-2.2,0c0,1.9,0,3.7,0,5.6c0.6,0,1.1,0,1.7,0c0,3.4,0,6.7,0,10c0,2.4,1.1,3.8,3.4,4.4
				c1.6,0.4,4.4,0.2,6.5-0.3v-4.9c-0.2,0-0.4,0.1-0.6,0.1c-1.2,0.2-2.1-0.4-2.2-1.6c0-0.2,0-0.5,0-0.7c0-2.1,0-4.2,0-6.4
				C212.4,13,212.4,12.8,212.5,12.6z"/>
		</g>
	</g>
</g>
</svg>
