<?xml version="1.0" encoding="utf-8"?>
<!-- Generator: Adobe Illustrator 18.0.0, SVG Export Plug-In . SVG Version: 6.00 Build 0)  -->
<!DOCTYPE svg PUBLIC "-//W3C//DTD SVG 1.1//EN" "http://www.w3.org/Graphics/SVG/1.1/DTD/svg11.dtd">
<svg version="1.1" id="Layer_1" xmlns="http://www.w3.org/2000/svg" xmlns:xlink="http://www.w3.org/1999/xlink" x="0px" y="0px"
	 viewBox="0 0 93 46.3" enable-background="new 0 0 93 46.3" xml:space="preserve">
<g>
	<rect x="62.1" y="0" fill="#179F49" width="30.9" height="15.7"/>
	<polygon fill="#179F49" points="0,15.7 15.5,15.7 15.5,46.3 30.6,46.3 30.6,15.7 46.5,15.7 46.5,0 0,0 	"/>
	<polygon fill="#179F49" points="61.7,15.6 46.6,15.6 46.6,46.2 59.5,46.2 61.7,46.2 93,46.2 93,30.5 61.7,30.5 	"/>
</g>
</svg>
