<?xml version="1.0" encoding="utf-8"?>
<!-- Generator: Adobe Illustrator 18.0.0, SVG Export Plug-In . SVG Version: 6.00 Build 0)  -->
<!DOCTYPE svg PUBLIC "-//W3C//DTD SVG 1.1//EN" "http://www.w3.org/Graphics/SVG/1.1/DTD/svg11.dtd">
<svg version="1.1" id="Layer_1" xmlns="http://www.w3.org/2000/svg" xmlns:xlink="http://www.w3.org/1999/xlink" x="0px" y="0px"
	 viewBox="0 0 159.5 145" enable-background="new 0 0 159.5 145" xml:space="preserve">
<g>
	<g>
		<path fill="#69D0ED" d="M113.2,23.8l-15.2,10c-0.7,12.4-11,22.9-23.5,22.9S51.5,46.2,50.8,33.8l-14.1-10c-0.2,0-0.3,0-0.5,0
			L0,93.7v0.8h148.8v-1.9L113.2,23.8z"/>
		<rect x="0" y="93.5" fill="#235280" width="148.8" height="11.2"/>
		<g>
			<rect x="35.7" y="23.8" fill="#FF7452" width="15.1" height="93.3"/>
			<rect x="98" y="23.8" fill="#FF7452" width="15.1" height="93.3"/>
		</g>
	</g>
	<path fill="#69D0ED" d="M20.9,134.5c0,5.8-4.7,10.5-10.5,10.5S0,140.3,0,134.5"/>
	<path fill="#85E1B2" d="M42.3,134.5c0,5.8-4.7,10.5-10.5,10.5s-10.5-4.7-10.5-10.5"/>
	<path fill="#235280" d="M64.1,134.5c0,5.8-4.7,10.5-10.5,10.5s-10.5-4.7-10.5-10.5"/>
	<path fill="#85E1B2" d="M85.4,134.5c0,5.8-4.7,10.5-10.5,10.5c-5.8,0-10.5-4.7-10.5-10.5"/>
	<path fill="#69D0ED" d="M106.5,134.5c0,5.8-4.7,10.5-10.5,10.5c-5.8,0-10.5-4.7-10.5-10.5"/>
	<path fill="#4093EC" d="M148.8,134.5c0,5.8-4.7,10.5-10.5,10.5s-10.5-4.7-10.5-10.5"/>
	<path fill="#85E1B2" d="M127.9,134.5c0,5.8-4.7,10.5-10.5,10.5c-5.8,0-10.5-4.7-10.5-10.5"/>
</g>
</svg>
