<?xml version="1.0" encoding="utf-8"?>
<!-- Generator: Adobe Illustrator 18.0.0, SVG Export Plug-In . SVG Version: 6.00 Build 0)  -->
<!DOCTYPE svg PUBLIC "-//W3C//DTD SVG 1.1//EN" "http://www.w3.org/Graphics/SVG/1.1/DTD/svg11.dtd">
<svg version="1.1" id="Layer_1" xmlns="http://www.w3.org/2000/svg" xmlns:xlink="http://www.w3.org/1999/xlink" x="0px" y="0px"
	 viewBox="0 0 159.5 145" enable-background="new 0 0 159.5 145" xml:space="preserve">
<g>
	<g>
		<path fill="#4093EC" d="M113.8,72.5H5.4c-3,0-5.4,2.4-5.4,5.4v13.4c8.8,0,15.9,7.1,15.9,15.9S8.8,123.1,0,123.1v16.4
			c0,3,2.4,5.4,5.4,5.4h108.4V72.5z"/>
	</g>
	<g>
		<polygon fill="#4093EC" points="53.3,124.8 43.7,108.2 53.3,91.6 72.4,91.6 82,108.2 72.4,124.8 		"/>
		<polygon fill="#235280" points="72.4,91.6 82,108.2 72.4,124.8 62.8,108.2 		"/>
		<polygon fill="#69D0ED" points="53.3,124.8 72.4,124.8 62.8,108.2 43.7,108.2 		"/>
		<polygon fill="#FFFFFF" points="53.3,91.6 72.4,91.6 62.8,108.2 43.7,108.2 		"/>
	</g>
	<path fill="#235280" d="M132.2,72.5h-23V145h23c3,0,5.4-2.4,5.4-5.4V77.9C137.7,74.9,135.2,72.5,132.2,72.5z"/>
</g>
</svg>
