<?xml version="1.0" encoding="UTF-8"?>
<svg width="64px" height="80px" viewBox="0 0 64 80" version="1.1" xmlns="http://www.w3.org/2000/svg" xmlns:xlink="http://www.w3.org/1999/xlink">
    <!-- Generator: Sketch 45.2 (43514) - http://www.bohemiancoding.com/sketch -->
    <title>speed</title>
    <desc>Created with Sketch.</desc>
    <defs></defs>
    <g id="Page-1" stroke="none" stroke-width="1" fill="none" fill-rule="evenodd">
        <g id="Design" transform="translate(-526.000000, -1264.000000)" fill-rule="nonzero" fill="#235280">
            <g id="benefits" transform="translate(0.000000, 952.000000)">
                <g id="feature" transform="translate(430.000000, 312.000000)">
                    <g id="speed" transform="translate(96.000000, 0.000000)">
                        <path d="M50.5577224,21.9275591 L50.5577224,21.9275591 L56.4852812,16 L62.1421356,21.6568542 L56.4475312,27.3514585 C61.1593608,32.9245396 64,40.1305364 64,48 C64,65.673112 49.673112,80 32,80 C14.326888,80 0,65.673112 0,48 C0,30.326888 14.326888,16 32,16 C38.918234,16 45.323702,18.1954134 50.5577224,21.9275591 Z M20,0 L44,0 L44,8 L20,8 L20,0 Z M35.4153088,50.083996 L47.5563492,35.272078 L44.727922,32.4436508 L29.815,44.648542 C29.5873384,44.797296 29.371506,44.9716396 29.1715728,45.1715728 C27.6094756,46.73367 27.6094756,49.26633 29.1715728,50.8284272 C30.73367,52.3905244 33.26633,52.3905244 34.8284272,50.8284272 C35.0577076,50.5991468 35.2533348,50.3489568 35.4153088,50.083996 L35.4153088,50.083996 Z" id="Combined-Shape"></path>
                    </g>
                </g>
            </g>
        </g>
    </g>
</svg>