<?xml version="1.0" encoding="UTF-8"?>
<svg width="61px" height="80px" viewBox="0 0 61 80" version="1.1" xmlns="http://www.w3.org/2000/svg" xmlns:xlink="http://www.w3.org/1999/xlink">
    <!-- Generator: Sketch 45.2 (43514) - http://www.bohemiancoding.com/sketch -->
    <title>projects-2</title>
    <desc>Created with Sketch.</desc>
    <defs></defs>
    <g id="Page-1" stroke="none" stroke-width="1" fill="none" fill-rule="evenodd">
        <g id="Development" transform="translate(-1097.000000, -1264.000000)" fill-rule="nonzero" fill="#85E1B2">
            <g id="benefits" transform="translate(0.000000, 952.000000)">
                <g id="feature" transform="translate(1000.000000, 312.000000)">
                    <g id="projects-2" transform="translate(97.000000, 0.000000)">
                        <path d="M11.4285714,7.61904762 L11.4285714,22.8571429 L49.5238095,22.8571429 L49.5238095,7.61904762 L60.952381,7.61904762 L60.952381,80 L0,80 L0,7.61904762 L11.4285714,7.61904762 L11.4285714,7.61904762 Z M25.2357836,52.4605162 L16.8179874,44.04272 L11.4285714,49.432136 L25.2292537,63.2328179 L25.2357836,63.226288 L25.2423139,63.2328179 L48.8000015,39.6751303 L43.4105855,34.2857143 L25.2357836,52.4605162 L25.2357836,52.4605162 Z M19.047619,7.61904762 C19.047619,3.41116381 22.4695643,0 26.6587166,0 L34.2936644,0 C38.4971573,0 41.9047619,3.3818272 41.9047619,7.61904762 L41.9047619,15.2380952 L19.047619,15.2380952 L19.047619,7.61904762 Z" id="Combined-Shape"></path>
                    </g>
                </g>
            </g>
        </g>
    </g>
</svg>