<?xml version="1.0" encoding="UTF-8"?>
<svg width="43px" height="69px" viewBox="0 0 43 69" version="1.1" xmlns="http://www.w3.org/2000/svg" xmlns:xlink="http://www.w3.org/1999/xlink">
    <!-- Generator: Sketch 45 (43475) - http://www.bohemiancoding.com/sketch -->
    <title>Page 1</title>
    <desc>Created with Sketch.</desc>
    <defs>
        <polygon id="path-1" points="11.5315385 0.3465 0.361384615 0.3465 0.361384615 10.3558583 11.5315385 10.3558583 11.5315385 0.3465"></polygon>
        <polygon id="path-3" points="0 69 43 69 43 0 0 0"></polygon>
    </defs>
    <g id="Page-1" stroke="none" stroke-width="1" fill="none" fill-rule="evenodd">
        <g id="Innovation" transform="translate(-159.000000, -233.000000)">
            <g id="Page-1" transform="translate(159.000000, 233.000000)">
                <path d="M43,60 L19.1849004,60 C8.60648358,60 0,51.2521605 0,40.5 C0,29.7478395 8.60648358,21 19.1849004,21 L19.1849004,28.8195819 C12.8485945,28.8195819 7.69322563,34.0596244 7.69322563,40.5 C7.69322563,46.9403756 12.8485945,52.1804181 19.1849004,52.1804181 L43,52.1804181 L43,60 Z" id="Fill-1" fill="#235280"></path>
                <polygon id="Fill-3" fill="#235280" points="34 28.8369153 22.010157 37 5 11.1640251 16.989843 3"></polygon>
                <g id="Group-7" transform="translate(4.000000, 0.000000)">
                    <mask id="mask-2" fill="white">
                        <use xlink:href="#path-1"></use>
                    </mask>
                    <g id="Clip-6"></g>
                    <polygon id="Fill-5" fill="#69CFEC" mask="url(#mask-2)" points="11.5315385 5.06394167 3.54692308 10.3558583 0.361384615 5.637775 8.346 0.345858333"></polygon>
                </g>
                <mask id="mask-4" fill="white">
                    <use xlink:href="#path-3"></use>
                </mask>
                <g id="Clip-9"></g>
                <polygon id="Fill-8" fill="#4092EB" mask="url(#mask-4)" points="24 48 44 48 44 42 24 42"></polygon>
                <path d="M24,23 C24,27.417842 20.4187593,31 16,31 C11.582158,31 8,27.417842 8,23 C8,18.582158 11.582158,15 16,15 C20.4187593,15 24,18.582158 24,23" id="Fill-10" fill="#83DFB0" mask="url(#mask-4)"></path>
                <path d="M12,56 L12,69 L18.3947026,69 C19.0757952,65.7718961 21.8900319,63.3493744 25.26617,63.3493744 L30.73383,63.3493744 C34.1099681,63.3493744 36.9242048,65.7718961 37.6052974,69 L44,69 L44,56 L12,56 Z" id="Fill-11" fill="#235280" mask="url(#mask-4)"></path>
            </g>
        </g>
    </g>
</svg>