<?xml version="1.0" encoding="utf-8"?>
<!-- Generator: Adobe Illustrator 18.0.0, SVG Export Plug-In . SVG Version: 6.00 Build 0)  -->
<!DOCTYPE svg PUBLIC "-//W3C//DTD SVG 1.1//EN" "http://www.w3.org/Graphics/SVG/1.1/DTD/svg11.dtd">
<svg version="1.1" id="Layer_1" xmlns="http://www.w3.org/2000/svg" xmlns:xlink="http://www.w3.org/1999/xlink" x="0px" y="0px"
	 viewBox="0 0 76 91.4" enable-background="new 0 0 76 91.4" xml:space="preserve">
<g>
	<circle fill="#75DBC0" cx="38.1" cy="6.9" r="6.9"/>
	<rect x="35.6" y="11.6" fill="#235280" width="4.9" height="14.8"/>
	<path fill="#FF7452" d="M66.4,42.3c5.3,0,9.7,4.3,9.7,9.7s-4.3,9.7-9.7,9.7"/>
	<path fill="#FF7452" d="M9.7,61.6c-5.3,0-9.7-4.3-9.7-9.7c0-5.3,4.3-9.7,9.7-9.7"/>
	<path fill="#69CFEC" d="M59.2,80.7H16.8c-4.2,0-7.6-3.4-7.6-7.6V30.7c0-4.2,3.4-7.6,7.6-7.6h42.4c4.2,0,7.6,3.4,7.6,7.6v42.4
		C66.8,77.3,63.4,80.7,59.2,80.7z"/>
	<g>
		<g>
			<circle fill="#235280" cx="26.1" cy="45.2" r="3.9"/>
		</g>
		<g>
			<circle fill="#235280" cx="49.9" cy="45.2" r="3.9"/>
		</g>
	</g>
	<path fill="#F3F3F3" d="M27.4,64.3c2.1,3.7,6.1,6.1,10.6,6.1c4.5,0,8.5-2.5,10.6-6.1H27.4z"/>
	<rect x="22.5" y="80.3" fill="#4092EB" width="30.2" height="5.9"/>
	<rect x="22.5" y="85.5" fill="#235280" width="30.2" height="5.9"/>
</g>
</svg>
