<?xml version="1.0" encoding="utf-8"?>
<!-- Generator: Adobe Illustrator 18.0.0, SVG Export Plug-In . SVG Version: 6.00 Build 0)  -->
<!DOCTYPE svg PUBLIC "-//W3C//DTD SVG 1.1//EN" "http://www.w3.org/Graphics/SVG/1.1/DTD/svg11.dtd">
<svg version="1.1" id="Layer_1" xmlns="http://www.w3.org/2000/svg" xmlns:xlink="http://www.w3.org/1999/xlink" x="0px" y="0px"
	 viewBox="0 0 76 91.4" enable-background="new 0 0 76 91.4" xml:space="preserve">
<g>
	<rect x="12.2" y="0" fill="#69CFEC" width="32.1" height="32.1"/>
	<rect x="44" y="0" fill="#FF7452" width="32.1" height="32.1"/>
	<rect x="12.2" y="31.7" fill="#4092EB" width="32.1" height="32.1"/>
	<rect x="44" y="31.7" fill="#84E0B1" width="32.1" height="32.1"/>
	<g>
		<rect x="50.5" y="13.4" fill="#FFFFFF" width="19.6" height="5.3"/>
		<rect x="57.7" y="6.2" fill="#FFFFFF" width="5.3" height="19.6"/>
	</g>
	<g>
		
			<rect x="18.3" y="44.8" transform="matrix(0.7071 0.7071 -0.7071 0.7071 41.7926 -5.9596)" fill="#84E0B1" width="19.6" height="5.3"/>
		
			<rect x="18.3" y="44.8" transform="matrix(-0.7071 0.7071 -0.7071 -0.7071 81.5181 61.1708)" fill="#84E0B1" width="19.6" height="5.3"/>
	</g>
	<rect x="19.4" y="13.4" fill="#235280" width="19" height="5.3"/>
	<g>
		<rect x="50.5" y="49.7" fill="#235280" width="19" height="5.3"/>
		<rect x="50.5" y="40.5" fill="#235280" width="19" height="5.3"/>
	</g>
</g>
</svg>
