<?xml version="1.0" encoding="utf-8"?>
<!-- Generator: Adobe Illustrator 18.0.0, SVG Export Plug-In . SVG Version: 6.00 Build 0)  -->
<!DOCTYPE svg PUBLIC "-//W3C//DTD SVG 1.1//EN" "http://www.w3.org/Graphics/SVG/1.1/DTD/svg11.dtd">
<svg version="1.1" id="Layer_1" xmlns="http://www.w3.org/2000/svg" xmlns:xlink="http://www.w3.org/1999/xlink" x="0px" y="0px"
	 viewBox="0 0 125.9 144.7" enable-background="new 0 0 125.9 144.7" xml:space="preserve">
<g>
	<polygon fill="#235280" points="84.7,144.7 54.2,126.1 23.6,144.7 23.6,60.9 84.7,60.9 	"/>
	<circle fill="#4092EB" cx="54.2" cy="54.2" r="54.2"/>
	<polygon fill="#4093EC" points="41.7,76.1 29.3,54.5 41.7,33 66.6,33 79.1,54.5 66.6,76.1 	"/>
	<polygon fill="#235280" points="66.6,33 79.1,54.6 66.6,76.1 54.2,54.5 	"/>
	<polygon fill="#69CFEC" points="41.7,76.1 66.6,76.1 54.2,54.5 29.3,54.5 	"/>
	<polygon fill="#FFFFFF" points="41.7,33 66.6,33 54.2,54.5 29.3,54.5 	"/>
</g>
</svg>
