<?xml version="1.0" encoding="utf-8"?>
<!-- Generator: Adobe Illustrator 18.0.0, SVG Export Plug-In . SVG Version: 6.00 Build 0)  -->
<!DOCTYPE svg PUBLIC "-//W3C//DTD SVG 1.1//EN" "http://www.w3.org/Graphics/SVG/1.1/DTD/svg11.dtd">
<svg version="1.1" id="Layer_1" xmlns="http://www.w3.org/2000/svg" xmlns:xlink="http://www.w3.org/1999/xlink" x="0px" y="0px"
	 viewBox="0 0 125.9 144.7" enable-background="new 0 0 125.9 144.7" xml:space="preserve">
<g>
	<path fill="#69CFEC" d="M0,0v78.8h0c0.5,27.7,23.1,50,50.9,50c27.8,0,50.4-22.3,50.9-50h0V0H0z"/>
	<rect x="0" y="0" fill="#4092EB" width="101.8" height="24"/>
	<circle fill="#235280" cx="50.9" cy="79.4" r="28.8"/>
	<path fill="#FFFFFF" d="M47.2,92.9l-4-4c-0.3-0.3-0.3-0.8,0-1.1l20.4-20.4c0.3-0.3,0.8-0.3,1.1,0l4,4c0.3,0.3,0.3,0.8,0,1.1
		L48.3,92.9C48,93.2,47.5,93.2,47.2,92.9z"/>
	<path fill="#FFFFFF" d="M51.6,89.6l-4,4c-0.3,0.3-0.8,0.3-1.1,0L34.1,81.1c-0.3-0.3-0.3-0.8,0-1.1l4-4c0.3-0.3,0.8-0.3,1.1,0
		l12.4,12.4C51.9,88.8,51.9,89.3,51.6,89.6z"/>
</g>
</svg>
