<?xml version="1.0" encoding="utf-8"?>
<!-- Generator: Adobe Illustrator 18.0.0, SVG Export Plug-In . SVG Version: 6.00 Build 0)  -->
<!DOCTYPE svg PUBLIC "-//W3C//DTD SVG 1.1//EN" "http://www.w3.org/Graphics/SVG/1.1/DTD/svg11.dtd">
<svg version="1.1" id="Layer_1" xmlns="http://www.w3.org/2000/svg" xmlns:xlink="http://www.w3.org/1999/xlink" x="0px" y="0px"
	 viewBox="0 0 168.3 309" enable-background="new 0 0 168.3 309" xml:space="preserve">
<g>
	<polygon fill="#FF7452" points="0,282.8 168.3,259.3 168.3,50.2 0,26.5 	"/>
</g>
<g>
	<g>
		<path fill="#FFFFFF" d="M54.7,153l-5.8,2.8V153l6.4-3.1h2.6v28h-3.1V153z"/>
		<path fill="#FFFFFF" d="M64.4,169.1v-10.5c0-5.3,3.6-9.3,9.8-9.3c6.2,0,9.8,4,9.8,9.3v10.5c0,5.3-3.6,9.3-9.8,9.3
			C68,178.4,64.4,174.4,64.4,169.1z M80.9,169.2v-10.7c0-4-2.4-6.7-6.7-6.7c-4.4,0-6.7,2.7-6.7,6.7v10.7c0,4,2.4,6.7,6.7,6.7
			C78.5,175.9,80.9,173.2,80.9,169.2z"/>
		<path fill="#FFFFFF" d="M89.2,159v-3.5c0-3.5,2.3-6,6-6s6,2.5,6,6v3.5c0,3.5-2.3,6-6,6S89.2,162.5,89.2,159z M99,159.2v-3.8
			c0-2.3-1.3-3.9-3.8-3.9s-3.8,1.6-3.8,3.9v3.8c0,2.3,1.3,3.9,3.8,3.9S99,161.5,99,159.2z M110,149.8h2.3l-14.5,28h-2.3L110,149.8z
			 M106.4,172.2v-3.5c0-3.5,2.3-6,6-6s6,2.5,6,6v3.5c0,3.5-2.3,6-6,6S106.4,175.7,106.4,172.2z M116.2,172.3v-3.8
			c0-2.3-1.3-3.9-3.8-3.9s-3.8,1.6-3.8,3.9v3.8c0,2.3,1.3,3.9,3.8,3.9S116.2,174.6,116.2,172.3z"/>
	</g>
</g>
</svg>
