<?xml version="1.0" encoding="UTF-8"?>
<svg width="805px" height="400px" viewBox="0 0 805 400" version="1.1" xmlns="http://www.w3.org/2000/svg" xmlns:xlink="http://www.w3.org/1999/xlink">
    <!-- Generator: Sketch 44.1 (41455) - http://www.bohemiancoding.com/sketch -->
    <title>illustration</title>
    <desc>Created with Sketch.</desc>
    <defs></defs>
    <g id="Page-1" stroke="none" stroke-width="1" fill="none" fill-rule="evenodd">
        <g id="Development" transform="translate(-595.000000, -256.000000)">
            <g id="hero" transform="translate(0.000000, 164.000000)">
                <g id="bkg">
                    <g id="illustration" transform="translate(595.000000, 92.000000)">
                        <polygon id="Fill-1" fill="#A5E3F6" points="200 200 540 200 540 160 200 160"></polygon>
                        <polygon id="Fill-2" fill="#4094ED" points="160 240 440 240 440 200 160 200"></polygon>
                        <polygon id="Fill-3" fill="#235280" points="280 280 620 280 620 240 280 240"></polygon>
                        <polygon id="Fill-4" fill="#85E1B2" points="320 320 580 320 580 280 320 280"></polygon>
                        <polygon id="Fill-5" fill="#FF7452" points="240 120 280 120 280 80 240 80"></polygon>
                        <polygon id="Fill-6" fill="#235280" points="240 160 280 160 280 120 240 120"></polygon>
                        <polygon id="Fill-7" fill="#A5E3F6" points="120 120 160 120 160 80 120 80"></polygon>
                        <polygon id="Fill-8" fill="#FFFFFF" points="200 120 240 120 240 80 200 80"></polygon>
                        <polygon id="Fill-9" fill="#FFFFFF" points="240 360 280 360 280 320 240 320"></polygon>
                        <polygon id="Fill-10" fill="#FFFFFF" points="0 280 40 280 40 240 0 240"></polygon>
                        <polygon id="Fill-11" fill="#FFFFFF" points="480 40 520 40 520 0 480 0"></polygon>
                        <polygon id="Fill-12" fill="#FFFFFF" points="40 160 80 160 80 120 40 120"></polygon>
                        <polygon id="Fill-13" fill="#A5E3F6" points="80 240 120 240 120 200 80 200"></polygon>
                        <polygon id="Fill-14" fill="#A5E3F6" points="80 240 120 240 120 200 80 200"></polygon>
                        <polygon id="Fill-15" fill="#235280" points="200 280 240 280 240 240 200 240"></polygon>
                        <polygon id="Fill-16" fill="#A5E3F6" points="240 280 280 280 280 240 240 240"></polygon>
                        <polygon id="Fill-17" fill="#A5E3F6" points="80 360 120 360 120 320 80 320"></polygon>
                        <polygon id="Fill-18" fill="#235280" points="160 320 200 320 200 280 160 280"></polygon>
                        <polygon id="Fill-19" fill="#4094ED" points="160 360 200 360 200 320 160 320"></polygon>
                        <polygon id="Fill-20" fill="#4094ED" points="280 320 320 320 320 280 280 280"></polygon>
                        <polygon id="Fill-21" fill="#4094ED" points="620 320 660 320 660 280 620 280"></polygon>
                        <polygon id="Fill-22" fill="#235280" points="320 40 360 40 360 0 320 0"></polygon>
                        <polygon id="Fill-23" fill="#A5E3F6" points="360 80 400 80 400 40 360 40"></polygon>
                        <polygon id="Fill-24" fill="#4094ED" points="320 120 360 120 360 80 320 80"></polygon>
                        <polygon id="Fill-25" fill="#85E1B2" points="400 160 440 160 440 120 400 120"></polygon>
                        <polygon id="Fill-26" fill="#69D1EE" points="360 120 580 120 580 80 360 80"></polygon>
                        <polygon id="Fill-27" fill="#4094ED" points="440 160 660 160 660 120 440 120"></polygon>
                        <polygon id="Fill-28" fill="#FF7452" points="660 120 840 120 840 80 660 80"></polygon>
                        <polygon id="Fill-29" fill="#FF7452" points="440 240 580 240 580 200 440 200"></polygon>
                        <polygon id="Fill-30" fill="#4094ED" points="620 240 840 240 840 200 620 200"></polygon>
                        <polygon id="Fill-31" fill="#85E1B2" points="440 40 480 40 480 0 440 0"></polygon>
                        <polygon id="Fill-32" fill="#85E1B2" points="460 400 500 400 500 360 460 360"></polygon>
                        <polygon id="Fill-33" fill="#85E1B2" points="540 400 580 400 580 360 540 360"></polygon>
                    </g>
                </g>
            </g>
        </g>
    </g>
</svg>